#Obj File : Exported From RapidForm (INUS Technology Co. Ltd.)

mtllib BathDetergent_800.mtl

v 12.667922 -25.763689 -31.349390
v 7.467100 -14.153860 -32.749535
v 8.602732 -34.656780 -31.404984
v 17.081678 -33.273891 -28.302313
v -0.365882 -20.178110 -33.562168
v 14.046706 -14.979688 -30.729488
v 1.992942 11.928654 -33.544281
v 2.265202 -26.590399 -33.539143
v -5.591061 1.550717 -33.137634
v 1.725428 0.444229 -33.518291
v 11.745914 1.419840 -31.502924
v 3.450856 27.969183 -33.409706
v 14.206013 27.613827 -30.461092
v -2.436350 -38.436871 -28.309319
v -1.009988 -34.485481 -32.525497
v 21.860878 -17.272251 -26.038246
v -3.290593 21.432926 -33.432514
v 9.123148 75.651360 -32.344467
v -7.347064 -19.297712 -32.802559
v -6.089917 -11.202610 -33.040653
v 3.217324 54.105415 -33.570683
v 0.594396 66.228004 -33.612026
v 5.106465 115.024063 -33.162949
v 11.945652 111.695084 -31.089077
v -11.135652 21.800150 -31.768829
v -3.763200 110.785156 -33.494804
v 20.448893 -38.233261 -21.170065
v 23.998701 -26.302896 -23.947634
v -1.766554 -13.471862 -33.568333
v -10.889052 -2.859609 -31.834755
v 21.325537 -2.088845 -26.066809
v -5.930734 32.582367 -33.107883
v 15.965268 119.997581 -27.585188
v 6.625295 123.057159 -30.101168
v -9.717508 -32.087105 -31.623138
v -7.858526 65.998703 -32.888477
v 18.291384 74.016434 -27.985399
v 21.144835 109.821434 -25.658243
v 7.666360 -37.950142 -28.485668
v -3.214080 120.278961 -32.160667
v 22.636480 -35.385166 -23.582649
v -13.128572 -15.642303 -30.916954
v 21.309166 118.361008 -24.222795
v -12.347007 113.499359 -31.649029
v 10.611194 127.298653 -26.047747
v -19.366386 -35.696705 -25.984406
v -15.515785 -26.779247 -29.730034
v 30.843988 -13.962790 -14.920438
v 27.152437 -11.013601 -20.315777
v -10.031309 121.513985 -30.397034
v -15.070971 -38.310181 -25.370626
v -15.892320 0.693534 -29.668850
v -16.333248 56.809971 -29.827209
v 27.577675 115.475983 -18.065939
v 20.389915 125.097977 -21.283226
v 28.454298 -20.246433 -18.905775
v -22.432898 19.088495 -25.375782
v -17.584688 97.530304 -29.269497
v 24.637415 71.432892 -22.617950
v 3.015297 130.292816 -25.623907
v 32.124500 -19.048819 -11.487197
v 31.138474 -7.913182 -13.606960
v 28.433960 72.624573 -17.575054
v -3.926932 127.504135 -28.126066
v 13.324145 130.883667 -21.032751
v 30.544540 -29.509010 -14.676759
v -22.076979 -38.520634 -18.819977
v -16.165039 120.180504 -28.302393
v -23.181179 67.183502 -24.989275
v 6.193570 133.143860 -21.215178
v -0.282726 133.887619 -21.578392
v 26.745798 -38.291538 -9.942715
v -24.274023 33.929626 -23.680386
v 31.529905 71.356750 -11.377111
v -16.278479 127.176872 -24.175558
v 30.553284 52.763409 -14.108554
v 25.509766 124.452171 -15.300242
v -0.406686 141.394852 -20.176920
v 33.248604 -32.621704 -5.678699
v 13.844000 133.313614 -16.557390
v -23.203543 -33.552879 -23.022142
v -23.561386 -25.572527 -23.911898
v -21.981001 3.007514 -25.524982
v -24.329754 12.100927 -23.306652
v 33.312729 -13.184793 -7.393418
v -6.078399 134.547394 -20.492640
v 31.323975 -36.479275 -8.964813
v 20.568726 131.235428 -13.799566
v -6.041173 150.279144 -18.904186
v -25.876265 -36.349327 -18.690935
v 33.362804 60.069706 -4.361621
v -22.525412 112.976372 -25.958275
v -12.162145 134.771851 -17.555540
v 19.533030 133.297012 -9.160154
v 0.922844 168.482239 -17.900944
v -26.687870 29.760107 -21.000965
v 29.538246 121.050560 -10.618637
v -6.682080 170.855362 -16.537319
v -25.061462 -9.095422 -22.290852
v -28.162121 18.790472 -18.424776
v 8.967252 168.892197 -14.828205
v 34.088802 -21.757002 -3.912889
v -25.968019 7.706481 -21.696585
v 17.666849 136.680618 -8.527461
v -29.519875 46.726982 -17.268480
v -23.549688 125.992020 -18.648106
v 27.702883 127.238655 -5.129842
v 13.353703 136.353134 -14.702732
v 28.518600 -38.392490 7.970831
v -28.092274 -19.239471 -18.421696
v -27.914322 3.846868 -19.001074
v -29.874508 11.270391 -16.275906
v -25.186504 118.791290 -21.704659
v -12.706821 148.761581 -15.579246
v -27.833290 -1.108460 -18.573189
v -30.620417 14.020523 -13.487856
v -28.528740 74.748215 -19.142227
v -25.834965 97.350922 -22.709768
v 32.944683 -35.647255 2.553764
v 34.230652 -14.543995 -0.349284
v -31.081820 0.447503 -13.059848
v -30.107119 113.811562 -16.482021
v -27.101486 -38.489967 -5.467372
v -30.597782 -35.730106 -10.170758
v -26.601988 -31.536224 -19.012787
v -31.386654 58.652023 -13.585985
v 0.278212 -37.699795 3.136285
v -29.679066 -32.984997 -14.115202
v -30.358593 -24.301001 -14.054681
v -31.539352 3.496892 -11.472138
v -30.283281 33.499401 -15.374759
v 33.909515 19.175631 0.950753
v -18.864214 132.152130 -15.802616
v -15.711172 134.851730 -14.855859
v -12.536798 169.335129 -13.802585
v 16.315660 169.050095 -3.860345
v -29.380030 -28.317240 -15.280767
v -31.939192 -27.796824 -10.481664
v -31.510336 7.412309 -12.676629
v 32.347641 113.432335 -7.390327
v 31.051861 121.253777 -3.068315
v -29.742947 23.859344 -16.289425
v -31.279667 85.326050 -14.589896
v -28.314804 121.649902 -15.676009
v -16.451529 143.893188 -12.168174
v 1.448841 171.011887 -16.054726
v 14.082962 170.732010 -8.848792
v -31.705269 -18.136364 -11.346632
v 33.724510 -24.963196 6.473471
v -31.808214 19.529713 -12.123577
v 33.295456 55.740181 4.901920
v -33.145370 76.056290 -10.045014
v 23.057505 132.542084 -0.642378
v -29.256510 -8.489736 -16.953094
v -32.231457 -7.870434 -10.806726
v -33.311901 0.389272 -6.357720
v -31.537460 30.201878 -12.973969
v 33.215054 70.352196 4.936334
v 16.390635 170.443039 1.457461
v -31.970144 -29.745964 -6.555825
v -30.211180 -11.639630 -14.140296
v 33.238262 -13.523456 8.306908
v -33.693443 17.038666 -5.153790
v -33.121696 34.220444 -6.658167
v -32.236889 39.989861 -11.274261
v -31.985374 78.569008 -12.111873
v -32.591984 99.847389 -11.194369
v 32.126457 116.824501 6.700666
v -16.974909 170.166809 -7.892283
v 33.252110 102.238205 1.377981
v -19.940123 135.746506 -8.089574
v 19.416389 136.284790 -2.599077
v 33.526272 85.540764 0.056977
v -29.398691 124.945122 -9.630184
v 29.048891 125.827858 3.478123
v 31.687059 -34.969971 10.023876
v -33.627102 38.798225 -5.753570
v -33.557667 64.369843 -7.220571
v -17.599701 -37.349167 -4.150161
v -32.780430 -22.901272 -5.094860
v -32.182709 -2.141763 -9.013398
v -34.144581 8.253448 -3.542988
v -32.994953 25.405613 -8.136235
v 31.485466 54.177826 11.916820
v -33.732338 47.491367 -6.061739
v -31.856754 118.113739 -10.479136
v -33.790722 6.142654 -3.386551
v -33.867416 87.309479 -7.152668
v 31.570545 80.966011 11.209158
v -33.841873 -7.581784 -3.113578
v -33.033489 13.184700 -7.966798
v -33.606876 79.142799 -6.920177
v 20.885578 132.785828 10.166024
v -22.359629 134.971771 -0.992162
v 19.418364 135.389252 3.677520
v -33.074738 -27.905617 -5.068034
v -24.095526 131.817398 -8.115067
v -33.199993 -11.871727 -4.563791
v -33.595818 -1.657466 0.132179
v 32.531918 28.068031 9.580817
v -32.414635 -33.810406 -3.733188
v 31.731537 -22.308662 12.758772
v -34.538246 103.640419 -2.404026
v -21.228277 139.153885 -1.519957
v -33.605030 -17.763979 -1.861491
v -33.587780 12.317255 3.409627
v -33.976112 31.940554 -5.655688
v 26.187063 126.282242 12.352518
v 17.255856 135.528503 9.658131
v -33.057343 -26.526461 5.749690
v 29.385004 -17.041346 17.784695
v -33.728859 29.120007 -4.724790
v 31.368889 103.330551 10.966098
v -33.970062 116.028595 -6.650414
v -33.467915 -9.703044 0.004139
v -34.175762 45.145878 -0.627454
v -33.934399 118.388023 0.384992
v -30.470987 125.700645 -2.439003
v 28.917624 -34.520969 16.754984
v -33.827175 -21.013926 -3.868433
v -33.748402 2.276691 -4.381112
v -34.688313 89.056953 -1.377863
v -18.885782 170.185776 -1.808270
v -26.197475 -38.566410 10.770852
v 30.706436 -27.238749 15.235104
v -33.355751 4.152504 -5.125782
v -34.074348 21.811844 -0.100286
v -33.877811 34.282207 3.241350
v 27.975847 20.497118 19.427103
v -25.424301 131.914917 -0.690828
v -2.263415 171.613785 -0.932679
v 12.712825 -37.724087 14.600699
v 22.785196 -37.888088 20.665405
v 30.718998 7.365324 14.655570
v -34.076130 27.084274 0.318601
v -34.368893 65.250977 -1.526493
v -20.269978 153.009705 0.568868
v 17.953083 -37.215462 -1.860074
v -3.752765 -38.061249 18.275074
v 27.423859 49.646717 19.844742
v 14.995167 171.210709 7.006026
v -32.174297 -36.192596 2.096632
v -33.154167 -22.829544 3.248187
v -33.968632 38.559490 4.088257
v 27.218769 -28.122452 20.658655
v -33.730633 6.140294 2.994249
v -34.643559 79.246902 0.455894
v -34.478016 91.162956 4.660261
v 13.153500 134.446609 16.456114
v -20.487667 138.483734 5.851346
v 12.908719 168.047943 11.424833
v -33.996998 14.186110 1.781770
v -20.896280 134.386719 8.345875
v 14.146791 137.910645 13.580632
v -33.875935 2.715017 3.252960
v -34.329529 107.577171 5.006374
v -15.415585 -37.777023 15.344244
v -33.281811 7.652690 7.635388
v 29.264872 66.174355 16.657681
v 26.791292 119.465744 17.647945
v 20.962183 126.118843 20.382050
v 4.452205 -36.131580 19.935148
v -34.239780 31.380686 3.926150
v 28.259628 111.270950 17.522058
v -29.289793 126.559433 7.433484
v 9.283843 171.062881 14.352820
v 22.861284 -34.354263 24.220940
v -33.004192 -7.830958 7.528105
v -18.265295 170.646118 5.468760
v -15.864612 170.340485 10.363419
v 24.355381 -19.532642 24.130186
v -32.455853 -1.314052 9.951629
v -33.548393 16.452276 6.211451
v -18.030870 137.775024 11.298323
v -32.739880 -17.767366 7.991040
v 4.169817 170.736237 16.922619
v 3.677586 -36.122322 22.223404
v -33.062397 24.242695 8.598985
v -30.917166 42.464111 14.699144
v -33.859249 47.440796 5.463259
v 26.055582 61.355217 21.448032
v 14.091258 133.277542 18.227919
v 10.879787 -38.537350 25.908844
v 2.894664 -38.096981 18.780764
v 22.571072 -30.027895 25.489189
v 22.670609 1.207705 25.537611
v -32.705837 118.099655 9.241117
v -14.651005 135.427917 15.739940
v 8.439624 148.986267 17.314810
v 14.745538 -37.413723 27.575583
v -29.715017 -4.078406 15.961687
v -32.623722 3.864065 9.012730
v 20.680433 46.711781 26.916891
v -33.188148 80.925827 9.778419
v 21.604301 97.083191 25.729670
v 8.646508 136.628616 18.393703
v 12.992576 -37.812904 21.216827
v -31.661789 32.059216 12.900434
v -24.981384 131.333084 8.032882
v -5.795820 -36.246601 19.359154
v 18.688879 -19.045601 28.621559
v -30.700350 16.769327 14.414987
v 21.922806 116.267578 24.946184
v -19.498886 131.988083 16.080820
v 5.972356 134.797379 20.262472
v -10.666859 170.917740 15.018352
v -3.845187 168.862869 18.024477
v -27.799322 -35.970039 16.656046
v 2.823672 -38.218079 24.096163
v -31.366682 82.342384 14.580338
v 3.056452 149.332764 19.365311
v -6.912077 -36.266109 21.728605
v 20.647665 59.759949 26.788506
v -1.409393 147.875244 19.826321
v -11.855523 -38.439922 22.405622
v -30.371008 5.040034 14.980899
v 15.981445 127.572197 23.264042
v -15.779650 -38.185478 25.506628
v -3.921473 -38.458893 24.283882
v 17.435526 -32.868797 28.855080
v -13.442887 133.554840 18.819796
v -6.045699 134.985046 20.836250
v -0.326871 135.059509 21.218266
v -8.594351 142.534485 18.793539
v 10.325924 -35.125420 30.592325
v -28.753010 -15.947471 17.487026
v -27.133022 22.373581 20.533953
v -32.377804 106.346855 12.672109
v 7.767812 130.388290 25.017899
v -28.747391 -26.368378 17.527016
v 12.002658 -32.609642 31.652052
v -31.532646 92.640472 14.521867
v 2.345020 -37.742645 30.182379
v 10.644836 -14.125834 32.355579
v -27.577681 33.002907 19.914526
v 17.920609 12.253414 28.991289
v -26.445068 86.390030 22.120800
v -25.206612 -1.180959 22.534307
v -26.277248 6.484932 21.411171
v -26.289762 15.983170 21.526546
v 12.205917 58.675156 31.844995
v -29.715052 113.121086 17.913723
v 13.907715 112.902130 30.721025
v -23.944271 125.589630 19.235678
v -5.307964 132.711823 23.618437
v -23.135317 -35.600529 22.980236
v 4.718986 -35.198029 32.912354
v -25.039543 -9.085685 22.578588
v -27.923359 120.969833 17.525246
v 13.356564 122.400162 28.419497
v -1.379212 -35.778301 32.642010
v -24.813604 44.493019 23.482492
v 4.381899 -21.242500 33.807724
v -22.887243 32.060005 25.099546
v 5.705025 121.470848 31.616373
v -15.200603 -36.090549 28.613749
v -21.711205 -32.529419 24.803665
v -21.149984 -26.531229 26.112076
v -20.092199 -2.497489 27.178131
v -20.954430 5.523564 26.614414
v 7.918423 18.937782 33.169895
v -15.402174 -28.302071 29.886507
v -22.593531 -16.907804 24.999523
v 7.853376 112.944008 33.099113
v -19.015879 126.116875 23.459324
v -11.628208 127.998932 26.262354
v -13.655327 -16.459372 30.920738
v -20.332531 -9.638784 26.866714
v -4.527211 -24.833231 33.706570
v -8.694874 -34.924679 31.619751
v 1.127246 -11.692791 33.918743
v -4.356012 -2.947414 33.699352
v -16.248392 31.917450 29.872284
v -1.088074 19.074293 34.004639
v 3.186085 54.161091 34.005554
v -21.112003 85.658302 27.157364
v -0.628416 126.416336 29.702248
v -10.219743 -22.911390 32.274700
v -13.655083 -11.047362 31.228558
v -14.265363 -3.573350 30.629116
v -14.088208 2.284711 31.021629
v -14.761724 8.599751 30.623568
v -19.798130 18.732948 27.534447
v -11.571719 122.854332 29.708736
v -8.398350 7.534347 32.826530
v -12.479787 16.834890 31.559431
v -11.231303 29.984079 32.252701
v -1.676905 91.250656 34.184177
v -5.414167 53.103077 33.882545
v -15.236534 60.827793 30.727816
v 6.317331 91.551018 33.530197
v -12.305826 89.046532 32.146984
v 2.335099 113.397888 34.041458
v -22.295317 115.067169 26.370003
v -6.505958 114.961548 33.718773
v -14.914183 113.789665 30.984514
v -30.572712 -35.595188 10.658460
v -9.387612 -35.983238 -30.733543
v -28.323095 -37.457767 -11.523433
v 27.977360 -34.969883 -17.447668
v 16.433273 -36.425919 -27.128363
v 5.946342 136.570877 -19.296068

g scan0_and_scan0_and_scan270_and_scan180_and_scan90_and_scan0
usemtl scan0_and_scan0_and_scan270_and_scan180_and_scan90_and_scan0
s

f 1 8 2
f 8 5 2
f 3 15 8
f 4 3 1
f 3 8 1
f 2 6 1
f 19 29 5
f 2 5 29
f 29 9 10
f 2 29 10
f 6 2 11
f 2 10 11
f 11 10 7
f 7 12 11
f 39 15 3
f 5 8 19
f 16 1 6
f 29 20 9
f 10 9 7
f 9 17 7
f 7 17 12
f 11 12 13
f 17 32 12
f 13 12 21
f 39 14 15
f 8 15 35
f 19 8 35
f 16 6 31
f 6 11 31
f 13 31 11
f 21 12 32
f 21 18 13
f 18 21 22
f 18 22 23
f 18 23 24
f 15 14 398
f 35 15 398
f 16 4 1
f 9 20 30
f 17 9 25
f 32 36 21
f 22 21 36
f 13 18 37
f 36 26 22
f 22 26 23
f 18 24 37
f 41 4 28
f 16 28 4
f 19 42 29
f 20 29 42
f 25 32 17
f 27 39 401
f 35 47 19
f 42 30 20
f 31 13 37
f 25 36 32
f 37 24 38
f 44 40 26
f 24 23 33
f 40 23 26
f 34 23 40
f 47 42 19
f 30 52 9
f 9 52 25
f 31 37 59
f 26 36 44
f 33 38 24
f 33 23 34
f 16 31 49
f 25 53 36
f 38 59 37
f 46 35 398
f 47 35 46
f 16 49 56
f 42 52 30
f 31 59 49
f 38 33 43
f 40 44 50
f 64 34 40
f 39 27 14
f 41 28 400
f 28 16 56
f 42 47 52
f 53 58 36
f 58 44 36
f 34 45 33
f 27 238 14
f 400 28 56
f 43 33 55
f 64 40 50
f 34 64 60
f 34 60 45
f 66 400 56
f 47 82 52
f 52 53 25
f 68 50 44
f 33 45 55
f 400 27 41
f 82 83 52
f 57 52 83
f 52 57 53
f 38 43 54
f 81 82 47
f 84 57 83
f 57 73 53
f 59 76 49
f 92 44 58
f 44 92 68
f 65 55 45
f 72 238 27
f 81 47 46
f 59 38 54
f 54 43 55
f 50 68 75
f 75 64 50
f 45 60 65
f 49 61 56
f 48 61 49
f 76 62 49
f 63 76 59
f 54 55 77
f 27 400 87
f 83 82 99
f 69 53 73
f 53 69 58
f 54 63 59
f 75 86 64
f 86 60 64
f 71 60 86
f 14 67 51
f 61 66 56
f 83 103 84
f 69 118 58
f 92 113 68
f 88 55 65
f 60 71 70
f 54 74 63
f 118 92 58
f 65 60 70
f 27 87 72
f 85 48 49
f 62 85 49
f 113 75 68
f 80 65 70
f 71 402 70
f 125 82 81
f 73 57 96
f 74 76 63
f 77 55 88
f 80 88 65
f 71 78 402
f 66 79 87
f 61 79 66
f 82 110 99
f 69 117 118
f 74 54 140
f 77 97 54
f 70 402 80
f 71 86 78
f 48 85 61
f 115 111 83
f 76 85 62
f 69 73 105
f 140 54 97
f 108 80 402
f 14 179 67
f 82 125 137
f 99 154 83
f 111 103 83
f 57 100 96
f 75 113 106
f 86 89 78
f 78 95 402
f 128 125 81
f 85 76 91
f 74 91 76
f 105 117 69
f 93 86 75
f 402 101 108
f 78 89 95
f 79 61 102
f 112 84 103
f 84 100 57
f 80 108 94
f 402 95 101
f 102 61 85
f 154 115 83
f 96 131 73
f 80 94 88
f 108 104 94
f 89 86 93
f 89 98 95
f 101 95 146
f 90 124 81
f 128 81 124
f 82 129 110
f 99 110 161
f 112 100 84
f 122 113 92
f 107 97 77
f 107 77 88
f 133 93 75
f 93 114 89
f 98 146 95
f 129 82 137
f 100 142 96
f 73 131 105
f 118 122 92
f 75 106 133
f 109 238 72
f 131 96 157
f 89 135 98
f 87 109 72
f 99 161 154
f 132 120 85
f 103 139 112
f 105 126 117
f 74 140 173
f 143 118 117
f 106 113 144
f 114 135 89
f 108 101 147
f 101 146 147
f 85 120 102
f 154 155 115
f 103 111 139
f 85 91 132
f 112 116 100
f 142 157 96
f 173 91 74
f 140 97 141
f 107 141 97
f 133 134 93
f 134 145 93
f 93 145 114
f 147 104 108
f 179 123 67
f 238 127 14
f 129 148 110
f 110 148 161
f 111 115 121
f 118 167 122
f 399 67 123
f 115 155 181
f 121 130 111
f 116 150 100
f 150 142 100
f 165 105 131
f 113 122 144
f 87 79 119
f 115 181 121
f 142 183 157
f 143 117 166
f 106 144 174
f 153 107 88
f 88 94 153
f 171 134 133
f 94 104 172
f 14 127 179
f 128 137 125
f 129 137 138
f 139 111 130
f 173 140 170
f 122 186 144
f 87 119 109
f 160 138 137
f 143 167 118
f 106 174 197
f 197 133 106
f 134 171 145
f 114 145 135
f 147 136 104
f 137 128 160
f 79 149 119
f 102 149 79
f 226 139 130
f 112 191 116
f 116 163 150
f 132 91 151
f 185 126 105
f 117 126 178
f 117 178 152
f 91 173 158
f 117 152 166
f 145 169 135
f 169 98 135
f 102 120 149
f 161 198 154
f 150 183 142
f 157 207 131
f 131 207 164
f 168 140 141
f 94 172 153
f 241 146 231
f 147 146 241
f 129 220 148
f 120 162 149
f 120 132 162
f 156 121 181
f 164 165 131
f 143 166 188
f 167 143 188
f 122 214 186
f 175 107 153
f 104 136 172
f 231 146 98
f 128 124 160
f 129 180 220
f 154 198 155
f 139 182 112
f 191 163 116
f 91 158 151
f 122 167 214
f 175 141 107
f 145 171 169
f 159 136 147
f 124 201 160
f 196 129 138
f 130 121 221
f 139 226 187
f 212 207 157
f 132 151 200
f 165 177 105
f 105 177 185
f 126 185 178
f 197 171 133
f 198 161 148
f 132 200 162
f 221 226 130
f 139 187 182
f 150 163 183
f 157 183 212
f 164 177 165
f 166 192 188
f 140 168 170
f 141 175 168
f 186 174 144
f 147 241 159
f 138 160 196
f 180 129 196
f 148 205 198
f 156 221 121
f 166 152 192
f 172 136 159
f 98 169 269
f 149 176 119
f 155 190 181
f 112 182 191
f 197 174 218
f 171 197 194
f 195 172 159
f 173 189 158
f 170 213 173
f 195 153 172
f 231 98 269
f 162 202 149
f 191 182 206
f 183 163 227
f 151 158 184
f 192 152 247
f 167 188 203
f 186 217 174
f 171 194 204
f 223 269 169
f 109 119 176
f 124 242 201
f 160 201 196
f 220 205 148
f 155 198 215
f 155 215 190
f 178 236 152
f 170 168 213
f 153 195 193
f 230 194 197
f 169 171 237
f 169 237 223
f 181 199 156
f 156 199 221
f 188 192 222
f 188 222 203
f 171 204 237
f 176 149 225
f 196 210 180
f 181 190 199
f 200 234 162
f 182 187 246
f 163 191 252
f 183 235 212
f 236 247 152
f 173 213 189
f 167 203 214
f 217 186 214
f 230 197 218
f 193 175 153
f 196 201 242
f 221 255 226
f 183 227 235
f 212 235 263
f 212 263 207
f 164 207 228
f 158 189 259
f 192 247 222
f 159 241 195
f 176 225 219
f 210 196 242
f 202 225 149
f 243 220 180
f 164 228 177
f 177 228 244
f 200 151 184
f 184 158 259
f 208 175 193
f 224 242 123
f 238 284 127
f 180 210 243
f 162 211 202
f 191 206 252
f 177 244 185
f 185 216 280
f 217 218 174
f 195 241 209
f 176 219 109
f 275 205 220
f 190 215 268
f 190 268 199
f 185 244 216
f 185 236 178
f 203 217 214
f 175 208 168
f 215 198 205
f 268 215 205
f 162 234 211
f 246 187 226
f 252 273 163
f 227 163 273
f 207 263 228
f 179 224 123
f 275 220 243
f 200 229 234
f 203 256 217
f 213 168 264
f 257 224 179
f 205 275 268
f 221 199 272
f 226 255 292
f 185 280 236
f 203 222 248
f 218 265 230
f 223 237 269
f 284 239 127
f 109 219 233
f 199 268 272
f 221 272 255
f 246 226 292
f 235 278 263
f 189 213 264
f 168 260 264
f 260 168 208
f 265 299 230
f 195 209 193
f 232 284 238
f 238 297 232
f 257 179 127
f 245 219 225
f 211 234 229
f 258 182 246
f 227 278 235
f 229 200 240
f 184 240 200
f 216 244 280
f 240 184 259
f 203 248 256
f 218 217 265
f 230 253 194
f 204 194 250
f 209 241 254
f 241 251 254
f 306 231 269
f 241 231 306
f 202 245 225
f 182 258 206
f 247 236 280
f 248 222 247
f 193 261 208
f 299 253 230
f 204 250 237
f 266 241 306
f 224 397 242
f 397 210 242
f 275 243 210
f 202 211 245
f 227 273 278
f 240 259 281
f 280 294 247
f 250 194 253
f 109 297 238
f 233 283 109
f 258 246 292
f 189 264 259
f 249 193 209
f 254 249 209
f 237 250 269
f 109 283 297
f 252 206 273
f 298 228 263
f 251 241 266
f 211 229 271
f 292 255 272
f 248 247 294
f 217 256 287
f 193 282 261
f 193 249 282
f 253 274 250
f 254 251 266
f 284 232 262
f 232 297 262
f 233 219 267
f 278 273 302
f 217 287 265
f 250 274 269
f 127 239 257
f 267 219 245
f 272 268 291
f 263 278 298
f 244 279 280
f 248 328 256
f 260 208 261
f 249 254 296
f 266 289 254
f 269 274 270
f 330 275 210
f 245 211 271
f 273 206 302
f 244 228 279
f 279 228 298
f 248 294 332
f 267 245 285
f 210 397 330
f 271 229 286
f 292 316 258
f 302 206 258
f 264 303 295
f 256 328 287
f 254 289 296
f 297 277 262
f 330 397 308
f 271 285 245
f 259 264 281
f 261 282 317
f 299 288 253
f 269 270 306
f 397 224 308
f 262 277 284
f 257 239 300
f 275 326 268
f 291 268 326
f 286 229 293
f 293 229 240
f 280 279 294
f 332 328 248
f 260 303 264
f 288 299 304
f 249 296 305
f 306 274 288
f 276 289 266
f 274 306 270
f 266 306 276
f 233 267 290
f 320 267 285
f 316 292 272
f 316 302 258
f 264 295 281
f 328 342 287
f 303 260 261
f 284 277 309
f 312 257 300
f 275 330 326
f 301 271 286
f 286 293 336
f 281 293 240
f 313 293 281
f 332 294 310
f 265 287 349
f 344 304 299
f 296 289 311
f 306 288 324
f 284 319 239
f 290 283 233
f 291 316 272
f 265 344 299
f 282 249 305
f 305 296 311
f 311 289 276
f 307 311 276
f 307 276 306
f 309 319 284
f 312 315 257
f 239 319 300
f 300 319 312
f 297 309 277
f 302 327 278
f 298 278 327
f 298 335 279
f 279 310 294
f 349 287 342
f 349 344 265
f 321 288 304
f 282 305 329
f 307 314 311
f 324 307 306
f 257 315 224
f 309 297 283
f 308 224 318
f 320 290 267
f 313 281 295
f 282 329 317
f 311 323 305
f 314 307 324
f 290 333 283
f 315 312 319
f 308 318 346
f 301 285 271
f 363 326 330
f 316 339 302
f 305 323 329
f 288 322 324
f 323 311 314
f 323 314 324
f 315 318 224
f 283 319 309
f 339 316 291
f 298 327 335
f 335 352 279
f 310 279 337
f 321 322 288
f 322 323 324
f 320 325 290
f 346 357 308
f 301 320 285
f 326 348 291
f 286 336 301
f 340 302 339
f 337 332 310
f 328 332 342
f 295 303 343
f 303 261 350
f 261 317 350
f 304 344 365
f 345 323 322
f 283 333 319
f 331 325 320
f 357 330 308
f 320 301 331
f 348 338 291
f 317 329 350
f 329 323 345
f 322 321 345
f 319 318 315
f 363 348 326
f 339 291 338
f 337 279 352
f 295 341 313
f 342 332 337
f 365 321 304
f 333 318 319
f 325 333 290
f 363 330 358
f 331 301 334
f 334 301 336
f 321 366 345
f 345 377 329
f 346 318 356
f 357 358 330
f 368 338 348
f 359 338 368
f 327 354 335
f 313 341 293
f 349 342 394
f 350 343 303
f 365 366 321
f 331 347 325
f 338 360 339
f 383 354 327
f 293 341 336
f 352 335 354
f 295 343 341
f 337 394 342
f 333 325 351
f 346 356 357
f 360 338 359
f 360 340 339
f 361 334 336
f 340 383 327
f 352 376 337
f 394 344 349
f 329 355 350
f 377 355 329
f 318 333 351
f 351 325 347
f 331 334 353
f 363 368 348
f 336 341 361
f 364 343 350
f 345 366 377
f 351 356 318
f 356 362 357
f 362 358 357
f 347 331 353
f 358 362 363
f 359 381 360
f 360 383 340
f 383 373 354
f 355 364 350
f 394 365 344
f 365 384 366
f 370 356 351
f 347 353 369
f 363 362 367
f 368 379 380
f 380 359 368
f 390 352 354
f 341 343 391
f 365 394 384
f 356 370 362
f 347 369 351
f 363 367 368
f 334 371 353
f 367 379 368
f 334 361 371
f 380 381 359
f 382 383 360
f 387 373 383
f 390 354 373
f 361 341 375
f 337 376 394
f 351 369 370
f 370 369 362
f 378 362 369
f 362 378 367
f 353 371 369
f 372 380 379
f 361 372 371
f 390 376 352
f 375 341 391
f 391 343 393
f 384 377 366
f 378 369 367
f 369 379 367
f 369 372 379
f 369 371 372
f 380 372 381
f 381 385 360
f 360 385 382
f 372 361 374
f 382 386 383
f 386 387 383
f 389 361 375
f 355 393 364
f 394 396 384
f 372 385 381
f 372 374 385
f 382 385 386
f 385 387 386
f 385 374 387
f 387 389 373
f 374 361 389
f 373 389 390
f 375 391 388
f 396 376 392
f 396 394 376
f 343 364 393
f 393 355 395
f 387 374 389
f 375 388 389
f 376 390 392
f 393 388 391
f 355 377 395
f 395 377 384
f 389 392 390
f 389 388 392
f 388 393 395
f 396 395 384
f 392 388 395
f 392 395 396
f 340 327 302
f 274 253 288
f 401 39 3
f 14 51 398
f 51 67 46
f 81 46 67
f 81 67 90
f 124 90 399
f 67 399 90
f 123 242 399
f 124 399 242
f 66 87 400
f 46 398 51
f 4 401 3
f 27 401 41
f 41 401 4

