#Obj File : Exported From RapidForm (INUS Technology Co. Ltd.)

mtllib GreenCup_800.mtl

v 54.746574 43.137154 -6.954794
v 50.325325 44.652351 -21.875257
v 52.297138 44.524136 -13.269983
v 51.193398 42.667801 -21.076292
v 54.584202 43.377045 5.546632
v 53.626717 44.793911 -2.823320
v 46.243153 42.498482 -30.444231
v 47.484947 44.214909 -26.023420
v 50.387451 34.053322 -4.392212
v 44.089912 43.702335 -31.204910
v 53.074387 44.691067 6.124763
v 52.449436 44.017830 16.278799
v 43.919899 31.419300 -18.012135
v 36.225246 29.305408 -29.731340
v 41.201725 41.959293 -37.150013
v 48.252636 30.992853 7.406873
v 39.971443 43.736225 -36.970879
v 45.228821 21.672657 -6.384257
v 35.992577 41.925537 -42.542732
v 37.391106 43.709896 -40.169533
v 43.319309 25.309855 -18.793671
v 37.459332 27.850334 -31.090281
v 50.513073 44.470566 15.827808
v 48.202469 43.957230 25.851843
v 32.541897 43.526943 -43.866055
v 39.979340 4.809399 -11.300448
v 44.390610 27.268459 -8.568303
v 38.663998 20.612576 -19.954107
v 35.505680 7.305033 -17.754646
v 34.814610 13.987777 -26.744230
v 43.440384 15.923163 4.154704
v 48.019093 45.144791 23.272274
v 37.768845 -6.441862 -12.629890
v 47.096748 33.291607 6.300632
v 43.420277 28.470284 19.338106
v 27.905552 43.021347 -49.157059
v 39.388718 -4.777815 -4.197946
v 38.549549 6.293578 -8.581487
v 35.582615 -24.383953 -15.907303
v 37.968456 -25.028526 -5.269717
v 39.052135 -8.338959 2.058338
v 34.882484 0.428841 -21.320633
v 28.095631 20.677691 -36.854637
v 31.275961 15.407878 -28.217632
v 42.545525 44.681313 35.031624
v 38.031521 -23.552299 4.227805
v 36.745514 -20.625929 -2.304554
v 36.485523 -17.934107 -8.333735
v 34.826244 -24.786383 -11.823380
v 36.458912 -5.475991 -10.131564
v 42.858692 33.121021 19.359406
v 26.117123 30.589899 -40.292206
v 31.042387 -23.814116 -20.249313
v 37.112293 -3.526742 4.634073
v 41.232689 16.011576 2.390522
v 29.776262 -0.784863 -24.866343
v 40.206261 9.184921 11.365574
v 33.158604 -30.318388 -13.245708
v 34.695099 -31.028740 0.255032
v 26.939495 -29.373327 -24.849899
v 38.691769 14.002568 11.759036
v 21.151323 10.193813 -35.343971
v 40.032272 45.378803 35.023018
v 32.253777 -31.336792 10.375099
v 27.135357 -28.864265 -20.919271
v 29.005911 -24.470953 -26.450844
v 35.987343 -25.769342 11.426407
v 37.538677 -7.711352 9.932661
v 23.596258 27.329880 -43.034321
v 29.867886 -32.137447 -10.666465
v 33.310478 -29.510273 -0.245157
v 23.393053 -24.261259 -28.944344
v 36.275967 -6.394175 9.558156
v 28.621250 0.172675 -29.425241
v 23.055073 -6.477121 -30.524012
v 22.032850 7.388818 -36.426674
v 17.888418 24.189285 -42.017330
v 37.609787 29.757149 29.428881
v 31.681002 -28.029102 18.159357
v 20.751743 -23.113564 -33.650196
v 18.962822 42.186977 -53.246956
v 27.328920 -33.501030 10.150101
v 18.270237 -29.059813 -29.303402
v 34.502228 -25.684473 7.724001
v 18.137665 42.965126 -51.712109
v 22.487915 -33.066002 -8.627643
v 29.739410 -31.295235 -10.612852
v 36.450584 30.948246 27.736160
v 12.105170 42.066307 -55.509716
v 20.319216 -31.911026 -21.974600
v 30.919477 -16.759024 18.773247
v 30.554754 -4.228761 21.006813
v 34.363525 8.578852 22.810263
v 10.927038 43.058739 -54.604645
v 32.051464 45.100483 42.167698
v 23.988060 -33.867462 -20.780630
v 20.087975 -30.891304 -29.910568
v 32.259720 -24.667755 15.510725
v 15.179296 -2.031044 -38.281643
v 33.328484 -10.422973 20.113775
v 34.050922 11.854469 20.823883
v 8.266902 30.965612 -48.088566
v 27.552992 -32.093681 -2.606260
v 26.537420 -24.006136 24.079226
v 11.882965 -24.690788 -35.238541
v 30.322678 -29.891771 11.603551
v 15.471028 -5.057388 -35.375034
v 27.554266 8.204485 30.354488
v 31.570305 37.180492 36.856178
v 23.989767 -31.850813 12.876677
v 31.144478 -23.387377 22.213646
v 2.369297 26.579130 -49.424068
v 3.836357 41.917114 -56.751389
v 7.734038 -29.581371 -36.345917
v 16.029718 -33.827919 -20.004759
v 23.692059 -30.718344 24.975008
v 13.995555 26.800146 -46.990540
v 11.831162 15.469541 -41.146660
v 8.482562 -34.956944 -26.525909
v 6.723921 -28.468512 -34.633541
v 1.695988 -9.721810 -40.833061
v 4.778728 -5.612199 -38.459858
v 9.339987 7.570411 -42.072948
v 32.250652 43.919685 43.738239
v 16.957676 -30.699533 -9.358294
v 22.360067 -30.237608 21.933374
v 11.642832 -24.923283 -37.800030
v 17.196522 -24.097776 31.545076
v 24.623074 -9.612669 29.840103
v 24.247866 21.893764 34.744167
v 29.905655 27.041784 35.736034
v 19.022364 14.395537 38.006214
v 4.447875 43.433975 -55.626629
v 22.043562 44.510963 50.139362
v 9.400156 -33.867764 -30.199980
v 12.444661 -29.868988 5.191643
v 1.863651 -23.649593 -39.738605
v 3.270511 -23.748592 -37.158848
v 23.960527 -0.248883 28.613667
v -5.120552 43.240589 -55.396755
v 6.935028 -33.324192 -29.793678
v 21.157431 -24.384146 31.544035
v 17.138529 -6.872723 34.904675
v 29.158697 19.888098 30.094389
v -4.558171 13.763258 -44.859913
v 13.953735 -31.672207 23.026983
v 20.732702 45.151489 48.886883
v 1.846148 -34.013317 -31.420137
v 7.778787 -32.284279 -28.797173
v -2.682330 -32.554695 -30.163326
v 15.347545 -29.961941 31.653276
v -2.970702 -29.308607 -34.379093
v 18.007416 33.005642 42.995731
v 7.238973 -32.260422 -22.771120
v -1.152044 5.251248 -42.851105
v 10.349327 -33.179890 26.853971
v -3.935804 -29.726191 -37.019581
v -5.767613 -12.510231 -37.528877
v 2.771621 9.366810 -41.392136
v -2.128503 26.941504 -47.246658
v 13.514273 -31.865301 8.081100
v 6.033716 -31.035191 -18.136433
v 19.373905 -27.782446 27.906082
v 12.309335 -24.412050 35.960121
v 12.578717 -3.230788 34.796619
v 18.975456 32.643757 45.187935
v -9.151180 6.901955 -39.742985
v 6.460463 -23.414564 35.392040
v -14.190627 26.572819 -44.957836
v -11.450416 -3.570022 -39.921432
v 13.777357 14.179557 37.651192
v -0.633254 -32.096016 32.727562
v 0.453459 -29.070692 -2.474209
v -4.850258 -30.014124 15.357725
v 1.580907 -29.026739 36.084274
v -8.185718 -23.853317 -39.195446
v 13.850102 -9.003696 33.870949
v 9.462878 -10.368711 37.428490
v -7.378054 28.937220 -49.995300
v -10.025908 42.079472 -56.305893
v -4.113783 -33.675755 -23.910055
v 7.484168 -31.774504 -9.983385
v 8.580554 -29.621246 31.279852
v 5.991805 11.141271 38.823658
v 9.070415 24.740849 44.899757
v 13.090261 43.119862 49.836380
v -9.339858 -31.220875 -15.035369
v -15.775657 -29.227186 -34.261463
v -15.367058 -28.329140 -32.097931
v -5.086287 -24.869177 -36.852863
v -1.579521 -33.151882 -15.909686
v -17.162426 -24.868782 -33.054321
v -18.383566 26.732018 -46.084469
v 10.516687 44.721626 53.943169
v -2.351424 -31.888796 14.566239
v -8.176626 -34.433262 -30.120487
v -16.368517 -31.916862 -26.423046
v -1.523357 -7.769394 39.052471
v 1.669642 42.275204 51.089066
v -23.261559 27.831392 -41.711918
v -16.356758 -34.495667 -26.666513
v -0.119107 -31.625828 26.973305
v 5.828398 5.824656 40.368141
v -16.958216 8.794867 -37.704803
v 4.126004 27.731876 44.400608
v -0.705790 -27.954967 33.821472
v -12.951696 -11.551493 -35.681530
v -17.409914 10.311894 -40.745705
v -1.666550 28.139448 47.107681
v -18.385725 42.962055 -52.668232
v -14.535317 -33.400120 24.073246
v -13.355063 -33.488266 -22.456314
v 3.286342 -5.939989 36.843300
v -6.070805 -30.457499 30.386555
v -1.320285 -23.782803 36.004959
v -21.391106 -23.440588 -33.894981
v -24.018106 -3.822664 -30.856022
v -26.143955 10.633748 -32.778412
v -5.314016 26.734510 43.741245
v 1.067376 44.961945 53.612045
v -17.610931 -31.126730 -8.169454
v -14.626150 -31.794785 0.565867
v -3.742919 9.339031 41.265820
v -8.261409 -6.625326 36.030426
v 0.530724 -23.685375 38.392712
v -27.338766 28.352888 -42.312248
v -3.195312 43.270565 54.293518
v -22.216295 -33.761593 -21.569893
v -20.833797 -31.832243 -4.916440
v -12.620254 -29.475393 33.534637
v -26.465191 -23.158176 -26.380823
v -21.139002 -7.427675 -35.342842
v -26.105511 7.870255 -34.743645
v -4.255902 9.354964 39.001846
v -34.602222 42.629768 -46.308708
v -24.095667 42.309933 -52.315392
v -21.704884 -33.441391 -6.544003
v -28.947847 -29.714172 -23.485407
v -26.249199 -28.787626 -23.258007
v -7.487225 44.821552 52.767532
v -27.753439 42.897926 -48.001873
v -13.754757 12.492615 40.006180
v -32.742294 28.360945 -34.963943
v -11.235668 33.093800 48.130493
v -5.225128 39.995419 49.772427
v -27.141592 -33.832047 3.563879
v -23.044447 -31.789017 9.709158
v -26.852486 -27.407421 -27.942385
v -14.609731 -7.589215 36.442509
v -35.169220 43.169331 -43.390747
v -23.960497 -34.267235 -13.728158
v -31.601355 -7.244536 -26.234367
v -38.721481 28.603983 -32.711086
v -27.157976 -32.399281 -13.613408
v -10.817839 -23.754282 34.599403
v -11.902857 -28.018263 32.004745
v -14.285469 -23.918444 35.877808
v -32.122765 -4.238977 -21.684250
v -16.716846 14.291866 37.088905
v -34.725521 11.083653 -23.416130
v -18.143026 -32.067410 19.228624
v -19.551422 -31.818937 27.367933
v -32.288475 -23.418066 -23.506407
v -32.198856 -24.687328 -18.448170
v -16.336775 -3.057105 33.744823
v -33.802258 11.726855 -28.903278
v -16.493099 27.932648 41.813118
v -10.884338 44.019154 53.630142
v -32.327053 -29.157389 -12.263965
v -25.412657 -3.090062 27.970844
v -23.363068 -4.477011 32.082428
v -39.110817 26.249508 -26.043400
v -15.408846 44.083813 50.240749
v -19.463333 44.293648 51.374950
v -32.447250 -32.681408 -9.116965
v -29.506411 -31.025581 10.838457
v -18.622272 -30.393698 25.649345
v -19.009190 -24.322121 30.985607
v -21.888971 10.453640 35.884537
v -21.540928 43.878750 47.694046
v -26.750237 -30.580591 22.638290
v -24.242258 -24.989424 29.992104
v -36.816780 -8.690144 -17.221159
v -36.632385 -2.120747 -13.117740
v -47.217556 43.126472 -33.260471
v -30.155161 -32.661373 12.765257
v -33.997646 -30.202219 -13.321221
v -24.922678 -24.681175 26.504711
v -23.973135 29.466810 41.826054
v -43.799129 41.703026 -32.625759
v -26.895033 -29.126410 19.693129
v -33.997364 -29.539766 -2.241589
v -29.580656 -26.193253 24.381985
v -36.126469 -24.533085 -8.049717
v -34.798935 -31.074802 5.137464
v -37.029373 -10.601974 -7.438275
v -30.740038 -1.550305 25.905560
v -39.521183 8.385680 -18.230225
v -33.299316 18.945089 29.747692
v -40.357132 15.329990 -14.235416
v -41.248680 42.385952 -40.236958
v -36.844383 -29.341690 -3.562455
v -33.975807 -29.238251 14.006660
v -34.413185 -27.229191 9.411520
v -37.524273 -25.554636 -12.003047
v -26.984179 16.121004 31.208693
v -28.051943 41.384960 42.700428
v -28.489286 43.875599 46.942173
v -42.992729 43.387081 -36.892811
v -39.026398 -25.019554 3.663542
v -31.165497 -24.308424 19.336311
v -36.880634 -23.764963 1.098717
v -46.265728 31.306368 -15.729440
v -35.418495 -23.095743 10.907880
v -35.252171 -24.586483 16.285378
v -39.370903 -9.643795 -8.816463
v -36.872234 -12.624212 6.017693
v -35.445652 -9.041128 12.828731
v -36.327423 -8.776134 15.959449
v -32.349724 -0.723125 20.086573
v -33.617336 22.062778 27.441727
v -50.525902 42.681343 -22.132427
v -28.325651 44.908703 45.704021
v -39.683731 -10.180358 5.143917
v -43.377930 11.750750 -6.832846
v -37.382950 0.645723 10.569798
v -36.839470 6.032760 19.370924
v -39.614017 6.791662 6.179619
v -40.973392 10.833764 -3.921304
v -33.764164 38.910583 40.319424
v -40.824173 2.578151 7.562137
v -53.007843 42.429501 -22.208586
v -45.511139 28.595705 17.029655
v -39.636463 27.243391 26.666496
v -46.349949 28.070051 -18.622189
v -32.393517 44.588211 44.154434
v -43.871037 18.177658 10.458159
v -46.281075 20.215189 0.950896
v -46.457367 28.980768 4.332179
v -35.962429 36.383045 33.340759
v -35.821602 43.257950 42.156376
v -43.448036 23.780827 9.861383
v -38.981915 22.322866 19.996099
v -48.108429 31.075808 -5.072110
v -34.098660 44.664772 41.439907
v -42.375626 44.700035 33.848133
v -53.626923 41.759987 -5.643309
v -42.923973 37.879559 30.468788
v -42.522305 39.915333 37.520920
v -43.769928 32.378708 19.281902
v -39.165024 45.188068 38.232800
v -51.619587 33.863708 -8.549889
v -40.008511 41.734798 42.321285
v -41.570118 44.593533 41.810966
v -50.388523 32.094612 5.188420
v -46.231644 40.238220 30.411074
v -55.699638 43.816788 -3.731196
v -45.828667 43.370922 36.088684
v -56.762161 43.330990 3.232948
v -49.408398 41.913361 24.944935
v -56.078461 43.271660 -11.225753
v -47.959560 43.989494 24.755199
v -48.836281 44.012032 47.009338
v -46.828506 42.312939 47.584560
v -53.152538 43.510971 18.255817
v -53.211964 44.135010 12.015020
v -47.955177 44.861324 29.350939
v -55.730064 43.932735 37.860828
v -53.359348 40.162643 38.351166
v -51.829990 43.007282 41.620750
v -47.671051 40.624069 46.718304
v -51.989559 42.105072 30.548506
v -49.935234 43.804955 29.060049
v -51.326042 27.605293 49.748440
v -50.503326 37.474342 48.292088
v -50.961712 38.154991 51.000366
v -51.570419 7.618048 50.306526
v -52.030777 29.517242 50.931213
v -50.269527 39.579227 44.084724
v -54.210449 36.737591 50.544846
v -54.848164 40.786999 44.470387
v -53.476341 -10.465476 49.081261
v -53.849476 -8.068610 46.618816
v -53.702530 -3.530871 49.594124
v -54.620697 16.457657 44.927948
v -53.772106 27.477087 47.031651
v -53.734894 35.846649 45.378265
v -58.200016 37.095463 39.025085
v -56.681507 41.726154 36.244011
v -55.159912 -11.113595 44.725780
v -55.218025 -8.966801 47.708466
v -57.011650 43.110260 36.607380
v -59.619366 -10.918174 42.315952
v -58.404522 -10.554904 40.121342
v -59.821243 38.989887 38.927345
v -61.452824 36.049568 41.834663
v -60.017345 -1.638498 40.744076
v -60.779667 24.665358 40.040947
v -60.723759 33.191776 38.869724
v -19.108973 -35.157490 -18.060522
v -0.096000 -35.342144 -24.277500
v -52.589809 0.101823 48.377377

g GreenCup_5k_1
usemtl GreenCup_5k_1
s

f 4 1 21
f 3 4 2
f 1 4 3
f 6 1 3
f 21 1 9
f 4 7 8
f 4 8 2
f 8 3 2
f 5 1 6
f 3 27 6
f 5 6 11
f 7 10 8
f 22 7 4
f 9 1 5
f 13 3 8
f 15 17 7
f 17 10 7
f 22 4 21
f 13 27 3
f 16 9 5
f 15 7 22
f 12 5 11
f 18 21 9
f 10 14 8
f 34 11 27
f 27 11 6
f 13 8 14
f 16 5 12
f 19 15 22
f 17 14 10
f 15 19 20
f 15 20 17
f 23 12 11
f 16 18 9
f 16 12 35
f 11 34 23
f 12 23 32
f 28 27 13
f 27 55 34
f 20 25 17
f 12 32 24
f 20 19 25
f 18 16 31
f 28 13 14
f 22 69 19
f 17 25 14
f 12 24 35
f 18 26 21
f 21 26 22
f 26 18 31
f 29 27 28
f 34 51 23
f 23 51 32
f 33 42 26
f 37 33 31
f 33 26 31
f 42 30 26
f 26 30 22
f 38 27 29
f 38 55 27
f 14 29 28
f 16 35 31
f 61 34 55
f 52 14 25
f 36 19 69
f 14 44 29
f 40 39 37
f 39 33 37
f 40 37 41
f 39 42 33
f 50 38 29
f 57 37 31
f 30 42 74
f 35 57 31
f 43 22 30
f 52 44 14
f 51 34 61
f 69 22 43
f 24 32 45
f 58 39 40
f 40 41 46
f 48 50 49
f 42 39 66
f 66 74 42
f 48 54 50
f 56 49 29
f 50 29 49
f 41 37 57
f 50 54 38
f 38 54 55
f 43 30 74
f 35 24 78
f 78 24 45
f 66 39 58
f 40 46 59
f 49 47 48
f 53 49 56
f 47 54 48
f 68 41 57
f 44 56 29
f 51 61 101
f 25 85 52
f 51 63 32
f 25 36 85
f 59 58 40
f 66 58 60
f 59 46 67
f 49 71 47
f 46 41 68
f 73 54 47
f 54 61 55
f 43 74 76
f 57 35 93
f 44 52 62
f 65 87 49
f 87 71 49
f 53 65 49
f 72 65 53
f 71 84 47
f 67 46 68
f 84 73 47
f 100 68 57
f 73 61 54
f 44 62 56
f 43 76 69
f 69 81 36
f 88 63 51
f 81 85 36
f 60 58 96
f 59 67 64
f 53 56 72
f 68 100 67
f 72 56 75
f 75 56 62
f 52 77 62
f 101 88 51
f 52 85 77
f 45 32 63
f 70 96 58
f 59 82 70
f 71 106 84
f 97 80 66
f 66 60 97
f 84 98 73
f 80 74 66
f 78 93 35
f 117 81 69
f 63 88 109
f 64 82 59
f 96 97 60
f 71 87 103
f 67 79 64
f 72 83 65
f 111 67 100
f 73 98 91
f 74 80 99
f 74 99 76
f 100 57 93
f 81 89 85
f 70 86 96
f 106 71 103
f 87 65 90
f 106 98 84
f 111 79 67
f 75 62 107
f 73 92 61
f 117 89 81
f 82 86 70
f 103 87 90
f 65 83 90
f 80 97 127
f 72 75 107
f 88 101 144
f 78 45 131
f 89 94 85
f 83 72 105
f 92 73 91
f 99 123 76
f 76 123 69
f 109 95 63
f 45 63 95
f 86 115 96
f 106 103 110
f 103 90 125
f 91 98 104
f 99 80 127
f 105 72 107
f 77 118 62
f 117 69 123
f 77 85 102
f 88 130 109
f 45 124 131
f 102 85 133
f 89 113 94
f 45 95 124
f 126 106 110
f 98 106 104
f 92 91 104
f 101 92 139
f 118 107 62
f 78 108 93
f 118 77 102
f 144 130 88
f 94 133 85
f 94 113 133
f 64 116 82
f 125 90 154
f 116 64 79
f 106 126 104
f 97 114 127
f 100 129 111
f 92 104 139
f 93 108 100
f 131 108 78
f 117 113 89
f 97 135 114
f 96 135 97
f 82 161 86
f 83 149 90
f 79 111 116
f 100 108 129
f 101 139 144
f 112 113 117
f 115 119 96
f 103 125 136
f 149 83 120
f 105 120 83
f 111 142 116
f 107 122 105
f 159 122 107
f 107 118 159
f 117 155 112
f 110 103 136
f 104 126 163
f 129 142 111
f 99 127 121
f 123 99 121
f 139 177 144
f 160 118 102
f 124 95 134
f 96 119 135
f 90 149 154
f 104 163 128
f 123 155 117
f 132 108 131
f 118 160 159
f 109 130 171
f 95 109 153
f 135 119 141
f 182 115 86
f 135 148 114
f 125 154 162
f 149 120 150
f 114 137 127
f 120 105 138
f 122 138 105
f 109 171 153
f 124 134 131
f 161 182 86
f 127 137 121
f 143 129 108
f 108 132 143
f 131 166 132
f 160 102 140
f 133 140 102
f 113 180 133
f 147 134 95
f 133 180 140
f 115 191 119
f 141 148 135
f 136 125 162
f 139 104 128
f 123 121 155
f 155 145 112
f 131 134 166
f 95 153 147
f 119 148 141
f 82 156 161
f 115 182 191
f 146 110 136
f 152 150 120
f 142 151 116
f 129 143 142
f 130 144 165
f 112 179 113
f 152 120 190
f 190 120 138
f 156 82 116
f 151 156 116
f 110 146 126
f 148 157 114
f 136 162 173
f 163 126 183
f 137 114 157
f 122 159 158
f 179 180 113
f 154 149 181
f 183 126 146
f 157 176 137
f 121 137 176
f 138 122 190
f 139 128 177
f 177 165 144
f 165 171 130
f 147 153 186
f 150 181 149
f 162 154 181
f 202 183 146
f 146 136 174
f 142 143 164
f 122 158 190
f 160 167 159
f 185 132 166
f 142 164 151
f 128 168 177
f 143 178 164
f 155 170 145
f 112 145 179
f 160 140 169
f 148 196 157
f 163 183 128
f 121 176 170
f 170 155 121
f 158 159 167
f 153 171 184
f 172 156 151
f 136 173 174
f 175 151 164
f 190 189 152
f 190 158 207
f 143 132 178
f 210 169 140
f 166 134 194
f 134 147 194
f 187 162 181
f 128 183 168
f 132 203 178
f 165 184 171
f 145 170 208
f 203 132 185
f 160 169 167
f 153 184 205
f 140 236 210
f 180 236 140
f 151 175 172
f 202 146 174
f 150 152 189
f 173 162 187
f 157 188 176
f 165 213 184
f 145 208 179
f 193 180 179
f 166 194 185
f 181 150 212
f 164 178 225
f 177 213 165
f 207 158 167
f 153 205 186
f 156 211 161
f 161 195 182
f 167 169 204
f 208 193 179
f 147 186 220
f 194 147 220
f 161 211 195
f 164 225 175
f 190 192 189
f 178 198 225
f 170 176 232
f 177 168 213
f 186 205 199
f 187 181 221
f 157 196 188
f 197 150 189
f 183 206 168
f 176 216 232
f 167 204 207
f 236 180 193
f 210 200 169
f 196 201 188
f 150 197 212
f 183 202 214
f 178 203 198
f 186 199 220
f 181 212 221
f 191 182 222
f 206 183 214
f 176 188 216
f 168 215 213
f 184 213 234
f 185 209 203
f 185 194 209
f 172 211 156
f 173 187 221
f 168 206 215
f 192 207 217
f 208 170 232
f 198 203 223
f 205 184 219
f 204 169 200
f 222 237 191
f 217 207 204
f 184 234 219
f 226 193 208
f 227 209 194
f 193 226 236
f 199 227 220
f 222 182 195
f 215 224 213
f 204 218 217
f 203 209 223
f 241 200 210
f 224 234 213
f 218 204 200
f 199 205 245
f 194 220 227
f 210 236 241
f 228 201 400
f 261 202 174
f 212 197 254
f 172 175 230
f 188 201 238
f 256 206 214
f 188 238 248
f 239 197 189
f 206 256 215
f 216 188 248
f 255 224 215
f 192 217 231
f 208 232 233
f 226 235 236
f 229 221 212
f 254 229 212
f 211 222 195
f 277 202 261
f 214 202 277
f 239 254 197
f 174 173 221
f 175 257 230
f 175 225 257
f 189 192 239
f 215 256 255
f 208 233 226
f 205 219 245
f 199 245 240
f 240 227 199
f 225 198 257
f 198 249 257
f 223 242 198
f 209 242 223
f 243 218 200
f 242 209 244
f 262 211 172
f 222 246 237
f 174 221 247
f 277 256 214
f 231 239 192
f 249 198 242
f 234 224 259
f 219 234 267
f 241 235 250
f 236 235 241
f 400 251 228
f 262 172 230
f 201 228 238
f 221 229 247
f 263 252 216
f 216 252 232
f 265 259 224
f 226 233 253
f 243 200 241
f 250 243 241
f 211 246 222
f 263 216 248
f 265 224 255
f 252 233 232
f 266 233 252
f 246 251 237
f 251 275 228
f 261 174 247
f 231 264 239
f 219 273 245
f 244 209 268
f 228 275 238
f 247 229 254
f 256 278 255
f 278 265 255
f 258 231 217
f 217 260 258
f 217 218 260
f 272 260 218
f 233 266 253
f 218 243 272
f 246 275 251
f 254 239 269
f 230 257 282
f 263 248 238
f 279 249 242
f 259 267 234
f 219 267 280
f 301 226 253
f 301 235 226
f 250 235 301
f 277 261 276
f 256 277 278
f 230 282 262
f 269 239 264
f 231 258 264
f 242 244 289
f 244 274 289
f 278 277 288
f 263 238 305
f 270 265 278
f 249 279 271
f 270 259 265
f 244 268 274
f 273 274 268
f 286 211 262
f 247 254 276
f 261 247 276
f 277 276 291
f 287 238 275
f 287 305 238
f 269 264 294
f 249 271 257
f 252 283 266
f 243 250 290
f 250 301 309
f 211 286 246
f 254 269 292
f 263 283 252
f 264 258 284
f 283 298 266
f 289 279 242
f 301 253 285
f 219 280 273
f 274 273 280
f 286 275 246
f 262 281 286
f 276 254 292
f 262 293 281
f 288 277 291
f 262 282 293
f 305 283 263
f 271 282 257
f 270 278 288
f 260 284 258
f 259 270 306
f 306 267 259
f 267 306 307
f 272 243 290
f 250 309 290
f 292 269 294
f 288 291 311
f 294 264 284
f 284 260 300
f 307 280 267
f 275 286 295
f 287 275 302
f 305 287 302
f 312 292 294
f 305 316 283
f 270 288 311
f 294 284 296
f 282 271 297
f 279 299 271
f 298 335 266
f 272 300 260
f 285 309 301
f 302 275 295
f 286 281 303
f 293 303 281
f 276 292 304
f 291 276 304
f 304 311 291
f 282 297 293
f 311 320 270
f 299 297 271
f 266 335 253
f 280 307 323
f 323 308 280
f 274 280 308
f 295 286 303
f 302 310 305
f 292 312 304
f 312 294 296
f 296 317 312
f 306 270 320
f 316 325 283
f 296 284 329
f 283 325 298
f 299 279 289
f 313 300 272
f 274 308 289
f 295 310 302
f 310 295 303
f 293 315 303
f 304 312 314
f 311 304 314
f 311 314 320
f 297 315 293
f 305 310 316
f 314 312 317
f 314 318 320
f 314 317 318
f 284 300 329
f 306 320 321
f 307 306 321
f 315 310 303
f 310 324 316
f 315 297 319
f 297 327 319
f 317 296 329
f 318 317 326
f 317 329 326
f 326 329 328
f 318 326 320
f 285 253 335
f 272 290 322
f 290 309 322
f 315 324 310
f 315 319 324
f 316 324 325
f 320 326 321
f 297 299 327
f 321 326 343
f 298 325 335
f 307 321 340
f 330 289 341
f 289 308 341
f 322 309 285
f 324 331 325
f 319 331 324
f 319 327 331
f 343 326 328
f 344 329 300
f 300 313 344
f 330 348 299
f 289 330 299
f 335 332 285
f 325 331 338
f 299 333 327
f 328 342 343
f 328 329 339
f 339 342 328
f 299 334 333
f 348 334 299
f 321 343 340
f 340 345 307
f 272 322 313
f 341 308 336
f 323 336 308
f 307 345 336
f 331 337 338
f 331 327 337
f 339 329 344
f 345 340 346
f 341 336 345
f 337 327 333
f 343 342 350
f 325 352 335
f 346 351 345
f 355 338 337
f 325 338 352
f 340 343 350
f 332 335 352
f 313 322 347
f 344 313 347
f 353 330 341
f 342 339 350
f 349 348 330
f 353 349 330
f 350 346 340
f 354 345 351
f 341 345 354
f 332 361 285
f 361 322 285
f 355 337 333
f 355 352 338
f 348 333 334
f 352 361 332
f 347 322 361
f 347 339 344
f 346 350 362
f 341 354 353
f 347 361 357
f 354 351 358
f 339 347 366
f 339 366 350
f 349 356 348
f 353 371 349
f 351 346 358
f 348 360 333
f 356 360 348
f 359 361 352
f 350 366 362
f 353 354 364
f 346 367 358
f 346 362 367
f 355 359 352
f 333 360 365
f 347 357 366
f 359 357 361
f 333 359 355
f 365 359 333
f 379 356 349
f 371 379 349
f 371 353 364
f 360 367 365
f 373 367 360
f 367 373 368
f 358 370 354
f 370 363 354
f 357 359 366
f 367 362 366
f 356 372 360
f 373 360 372
f 363 364 354
f 358 367 368
f 365 366 359
f 367 366 365
f 379 369 356
f 358 368 370
f 364 376 371
f 356 389 372
f 356 369 389
f 371 375 379
f 371 376 375
f 374 375 376
f 379 375 387
f 376 364 363
f 372 389 373
f 363 370 381
f 368 373 392
f 383 402 384
f 377 384 402
f 377 385 374
f 378 377 374
f 386 387 374
f 375 374 387
f 374 376 378
f 379 388 369
f 363 380 376
f 380 363 381
f 389 392 373
f 383 384 382
f 402 383 385
f 402 385 377
f 377 380 384
f 377 378 380
f 385 386 374
f 385 387 386
f 376 380 378
f 379 387 388
f 396 380 381
f 383 391 390
f 391 383 382
f 382 384 391
f 390 394 383
f 383 394 385
f 394 388 385
f 385 388 387
f 388 389 369
f 392 389 395
f 370 368 381
f 390 393 394
f 391 393 390
f 391 384 393
f 395 389 388
f 381 368 396
f 393 384 396
f 384 380 396
f 394 397 398
f 394 398 388
f 399 388 398
f 388 399 395
f 395 396 392
f 368 392 396
f 394 393 397
f 393 396 397
f 397 396 398
f 395 399 396
f 398 396 399
f 101 61 92
f 401 119 191
f 401 148 119
f 237 400 191
f 148 401 196
f 237 251 400
f 401 191 400
f 400 201 401
f 401 201 196
f 207 192 190
f 59 70 58
f 36 25 19
f 336 323 307
f 240 245 273
f 240 273 268
f 227 240 268
f 209 227 268

