#Obj File : Exported From RapidForm (INUS Technology Co. Ltd.)

mtllib RedCup_800.mtl

v -38.848331 106.943642 33.121258
v -38.413040 108.806328 33.452869
v -29.392052 107.680077 39.972622
v -19.711588 106.915428 42.390839
v -27.478630 109.423347 38.814095
v -44.415073 109.123222 24.614317
v -19.206942 108.718689 43.107239
v -45.384819 106.646011 25.021122
v -35.739861 109.046364 32.479626
v -24.364462 36.134472 36.039135
v -35.790180 36.417976 27.923025
v -31.608047 38.948513 31.887913
v -13.411937 107.857140 43.611767
v -18.805578 108.227562 39.093853
v -46.028908 108.221901 23.814375
v -27.830790 102.466896 35.790428
v -29.375202 107.963463 35.293530
v -42.628387 108.083183 21.835678
v -21.048475 37.912880 35.401482
v -35.560257 102.227539 30.554743
v -26.337616 31.599144 32.394836
v -30.219719 29.338821 27.202515
v -31.020998 37.812618 29.929459
v -21.556299 63.129555 35.736988
v -32.761429 101.807068 30.197100
v -25.336443 100.376221 34.631260
v -15.185790 32.786972 36.311314
v -32.380669 32.961575 26.603750
v -24.347286 34.193096 32.321331
v -19.731058 102.181519 38.548492
v -41.388226 101.192856 23.473143
v -37.783833 107.956848 28.740116
v -18.079065 109.515327 41.432419
v -49.455341 108.320427 14.488770
v -38.450066 32.164207 20.707388
v -19.283134 101.548965 36.639973
v -49.867752 106.611641 14.138090
v -19.497877 33.171757 32.705002
v -35.398380 38.279358 26.157642
v -38.916862 61.231129 22.066828
v -44.305927 100.858856 18.263062
v -12.064890 30.327148 34.053204
v -15.268508 42.215382 38.300198
v -40.841991 100.961754 19.787767
v -36.989471 101.764458 26.037762
v -39.367558 35.701584 19.170504
v -42.341244 37.051754 16.193153
v -13.257570 102.808983 39.200920
v -40.446693 36.646072 20.865622
v -10.977269 109.213737 43.057350
v -9.021214 38.399715 38.038879
v -42.705032 73.475906 13.883900
v -45.152287 108.037834 16.075335
v -10.662189 108.630302 39.688107
v -20.816330 31.648176 29.981712
v -42.867363 63.098019 11.751127
v -4.595489 109.808823 41.141777
v -36.933914 29.186857 13.513886
v -43.362873 34.782673 11.217933
v -5.934824 103.276222 38.441170
v -38.596306 31.997931 14.905791
v -10.597745 102.500076 37.256268
v -49.101665 109.063538 2.642775
v -30.776411 30.302979 23.851509
v -39.602009 30.053434 12.463668
v -6.684584 107.368828 42.699028
v -1.936978 108.647820 37.915161
v -5.238225 32.106472 35.112984
v -50.072609 106.841713 0.911968
v -46.173286 100.766304 5.571221
v -43.382839 101.598427 12.423371
v -45.677326 102.013908 13.593227
v 0.215836 110.222397 39.815048
v -3.056523 71.745476 37.490982
v -0.948847 104.310883 35.419121
v -39.525681 31.950277 5.442061
v -41.678623 34.954151 9.581832
v -10.202781 32.327145 28.736208
v 2.502352 106.965164 39.537704
v 4.697781 109.121941 38.613171
v 1.119187 103.304268 36.161873
v 1.011423 35.721386 35.212891
v -40.180500 30.570869 2.787417
v 7.084686 36.980171 31.936659
v -45.002251 71.756882 5.447720
v -45.515186 102.290901 -0.160550
v -43.294090 36.032215 3.439804
v 11.073796 106.953812 33.633579
v -44.765240 104.808121 7.056661
v 5.144947 103.284508 33.841705
v -43.993095 62.683113 0.260332
v 5.686183 108.830887 33.978905
v -47.952831 106.992043 -6.560131
v 8.199581 109.919762 34.649727
v -47.210850 108.755775 7.139889
v 10.420608 108.637878 35.216515
v 12.585195 32.677944 23.333055
v 3.207264 30.257486 29.219492
v 9.786955 35.846027 24.839006
v -43.907768 104.733093 -0.070844
v -41.784878 35.574158 -3.207954
v -41.772049 63.380150 -6.615259
v 8.943882 30.431168 23.452694
v -1.895261 31.567617 23.639372
v 7.047026 104.515808 30.759577
v 13.068083 109.211235 32.713028
v -43.178375 101.604385 -7.323775
v 11.620069 102.423866 24.874884
v -40.340801 103.661461 -14.002229
v -38.808693 34.923439 -9.904851
v 10.431137 103.031944 29.456337
v -37.130276 29.296068 -3.552705
v -41.150337 101.167938 -4.836260
v 13.379023 37.370132 25.456617
v 11.931698 67.903625 27.811722
v -45.014835 108.482506 -3.688319
v 17.249590 107.614746 27.400537
v -39.658600 108.396591 -13.894261
v 12.222755 108.626274 27.859289
v -36.548866 100.801483 -16.550034
v -30.163990 31.201540 -1.673738
v 15.419190 103.080154 22.824984
v -37.330650 102.569328 -11.511742
v -43.852699 108.156990 -14.082856
v -38.832733 86.218391 -13.181147
v -31.664701 28.988754 -11.875583
v -26.102268 31.269173 -6.805771
v 15.365176 106.393860 20.872671
v 19.438982 108.821465 22.855042
v 20.287121 109.590561 13.604259
v 16.816187 109.636101 23.396372
v 14.432714 30.823776 16.005571
v -43.772232 106.647797 -14.325559
v -34.473488 34.685371 -15.206635
v 15.346326 99.421227 18.018541
v 18.680803 109.820992 23.129574
v 15.469099 29.879198 4.508208
v -37.550922 106.681229 -21.239607
v 17.960772 106.508408 14.040494
v 16.989405 36.875797 19.270100
v 14.399487 33.323315 10.982063
v 7.869605 31.586414 15.118626
v 19.259111 35.431507 10.257975
v -33.196098 102.912834 -15.894824
v -31.483257 74.733429 -19.734695
v -27.311762 31.576878 9.763372
v -22.704430 29.052624 -17.907167
v -27.829426 34.775597 -20.336023
v 16.878410 37.117668 11.337067
v -38.926495 108.933281 -17.966904
v 19.285114 101.275093 13.479722
v 22.677378 107.821800 17.243034
v -22.851994 60.719948 -21.198267
v -28.169395 102.378349 -19.498287
v 20.167557 104.400269 13.983048
v -30.248705 104.202675 -23.117968
v 19.261187 34.843105 4.038046
v 19.998602 101.956276 6.505069
v 17.018505 35.348091 3.424769
v -26.044008 100.957100 -23.644598
v -16.901733 32.822536 -22.755518
v 2.265728 31.530119 -4.565811
v 12.199553 31.425770 -1.317091
v 20.163334 48.741959 3.010662
v -23.292553 58.800236 -23.241421
v -33.715847 108.009727 -24.230709
v -12.650446 30.361952 -20.714254
v 17.633064 102.614410 7.244378
v 15.042761 36.504280 -4.115799
v 19.569666 51.662819 4.643234
v 24.005787 107.127396 6.527482
v -27.277206 106.941261 -27.836222
v 18.087881 34.979561 -1.792724
v -18.963625 36.838688 -23.677034
v -18.722126 76.750381 -22.657967
v 15.013622 64.193764 -4.948941
v -22.654877 103.121529 -21.956554
v -19.959440 104.378654 -26.982641
v 10.938594 29.735195 -7.291034
v -10.703165 31.159296 -15.614306
v 19.821808 46.295845 0.596869
v 19.750326 93.789948 3.273047
v 24.058361 108.383369 10.959485
v 22.458582 109.907143 9.181508
v 7.387743 32.474873 -10.745937
v 18.220196 44.376694 -1.776344
v 24.528807 46.702324 1.188815
v 21.691288 49.973042 1.254061
v 19.927610 109.066864 0.866610
v 24.145262 48.328320 1.556092
v 21.272808 50.736698 -1.717563
v -16.598709 103.518562 -23.323809
v 19.651758 99.427742 0.582865
v 16.541994 103.492226 -1.793148
v -27.945837 108.898315 -23.673124
v -26.441336 109.198990 -26.659000
v -5.590267 29.489830 -17.419971
v -0.442879 29.709263 -17.880457
v 11.249596 35.842884 -10.592487
v 24.588163 45.322834 -0.947414
v 18.610886 45.758476 -3.531521
v 18.848026 91.454506 -1.676140
v 20.751478 96.942970 1.559437
v 18.697371 99.829803 -3.281507
v 18.763266 102.229385 -2.923392
v -16.830755 106.805305 -30.175268
v 10.384376 45.554909 -12.850558
v 29.579573 48.478695 0.210990
v 23.578960 95.241600 -0.113878
v -15.721396 62.245766 -24.945202
v 5.975352 30.310625 -14.254674
v 0.019478 32.063019 -16.723030
v -10.398075 37.010929 -24.397409
v 17.877686 49.167252 -6.989276
v 24.760225 50.122128 -2.156425
v 20.008913 49.893517 -6.229356
v 18.161530 54.233315 -2.973464
v 6.512155 34.685005 -18.417494
v 13.684097 35.215057 -11.341950
v 1.382165 34.530632 -18.667427
v 6.156707 36.922703 -16.197845
v 18.013899 47.476555 -6.912483
v 29.178558 50.630554 -1.310139
v 32.155029 95.961197 -2.266359
v 22.551525 98.705185 -1.407851
v -17.006754 100.788025 -25.914968
v -6.848908 35.342209 -21.618765
v 27.686399 45.975674 -1.009352
v 25.524305 95.653214 -2.390836
v 23.994150 97.382172 1.554916
v -8.859293 102.523605 -26.072563
v 21.141628 104.992462 0.883787
v 17.055578 109.044655 -7.758560
v -2.042712 34.537544 -22.831892
v 23.076469 48.877464 -8.026441
v 16.726057 92.961731 -7.448301
v 18.325584 97.540184 -7.069804
v 13.168313 100.213669 -8.979180
v 23.880350 107.636536 -0.083929
v 14.349722 105.367760 -8.629194
v 15.609972 49.801521 -8.547495
v 27.229776 45.953514 -6.824233
v 16.756935 100.778419 -7.539061
v 21.756109 99.039696 -4.963866
v 16.807423 104.154190 -9.977859
v 21.641113 46.045830 -8.291292
v 26.211779 47.614571 -9.744096
v 6.339408 50.522602 -16.336981
v -7.148871 72.711418 -24.974001
v 28.456379 97.769203 -0.209511
v -10.642944 105.366737 -24.169760
v 11.496712 109.474693 -16.665354
v 26.392929 49.857208 -9.403157
v 8.438390 104.292038 -15.096427
v -15.095797 108.683975 -30.168388
v 32.748863 49.262596 -5.929325
v 33.727974 50.752110 -1.600607
v 1.121410 64.852631 -22.133856
v 27.210886 95.652931 -6.962834
v -3.186798 105.672684 -22.695311
v 32.709858 52.298042 -0.998977
v 11.803770 102.501930 -14.993379
v 20.757463 97.189606 -8.658044
v 25.916908 100.499168 -3.087397
v 0.007765 102.556976 -23.771093
v 3.025836 104.174820 -19.377161
v -15.324167 108.918999 -27.015486
v 6.403288 102.579811 -19.991793
v 21.137573 109.824966 -4.474532
v 35.043774 96.992165 -1.947357
v 23.490555 95.980865 -8.187160
v 32.626598 99.547829 -2.502007
v -9.541593 107.106796 -30.283085
v -12.413905 109.521103 -28.449430
v 29.309662 100.225380 -7.696199
v 24.396833 99.438393 -9.001966
v 21.513111 108.248581 -7.871043
v 5.205988 108.971901 -21.059322
v -3.203443 109.207573 -25.299002
v 37.738773 59.963757 -2.237331
v 19.341629 106.852989 -11.611356
v 0.834272 107.196251 -27.866346
v 38.108616 91.083755 -3.938151
v 29.212090 97.006599 -11.055692
v -3.656168 108.511063 -29.271584
v 30.695597 52.375137 -11.142145
v 39.798012 60.558388 -2.861861
v 36.874783 97.637367 -4.274738
v 13.222771 107.121368 -19.627745
v 7.219344 107.348663 -24.531118
v -0.945078 109.732574 -26.155296
v 30.922560 50.152485 -10.395346
v 42.613762 71.591934 -3.384967
v 40.527294 86.539314 -3.578189
v 41.724113 89.623833 -3.327580
v 37.002327 88.832680 -9.080688
v 15.578481 109.374947 -16.551252
v 30.158930 53.806366 -10.078193
v 40.854992 73.801582 -4.238483
v 40.054638 94.558563 -4.363064
v 29.189417 98.355232 -11.221922
v 39.326336 57.922409 -5.287130
v 6.919031 108.976158 -24.393620
v 36.049381 59.090050 -12.681851
v 36.427444 56.176041 -10.745778
v 43.695107 82.496460 -4.491704
v 38.114475 83.659035 -9.993701
v 42.797581 89.368141 -5.956782
v 35.288815 62.419868 -12.024415
v 38.496143 77.161209 -10.135427
v 42.885674 67.487045 -5.888534
v 37.951077 95.123810 -10.409823
v 33.762146 98.494537 -9.632953
v 38.518578 70.650917 -13.557264
v 43.987583 74.996872 -6.421657
v 37.580433 70.119278 -10.599248
v 39.891766 62.414078 -11.189672
v 37.242886 88.290184 -13.104115
v 40.006786 70.661682 -14.022551
v 42.342548 71.240524 -11.762417
v 43.479229 83.979980 -9.126009
v 38.680202 79.582817 -13.349636
v 40.037319 91.343391 -12.186905
v 35.623821 95.103912 -12.668449
v 39.030529 87.491447 -14.137364
v 41.561226 79.773735 -13.646278
v -28.987457 55.486313 32.282425
v 33.543694 93.338280 -8.452032
v 34.862122 94.119034 -12.653480
v 13.082878 49.087234 -9.709588
v 12.107359 69.701843 -10.503106
v 34.371578 59.812160 -6.042352
v 28.866926 52.326656 -4.567492
v -15.749836 29.473711 -16.748264
v 9.689400 32.628422 20.306213
v -5.431752 32.445221 -19.440592
v -13.958623 56.503876 -22.382433
v -41.999645 87.525383 -1.148557
v -1.339861 39.372944 -20.979343
v -3.032757 69.213448 -21.855726
v -8.358193 83.164482 -23.971455
v -9.930968 75.619987 -23.510910
v -29.015215 57.543621 -17.980568
v -43.307575 57.954273 12.944900
v -43.480972 76.337624 7.558420
v -14.389577 65.722626 -23.523933
v -41.566311 73.752289 0.346990
v -34.207268 68.816681 -13.867235
v -41.983425 54.502422 17.049168
v -3.743679 53.880890 -22.253773
v -40.551006 41.673000 18.837288
v -43.232208 83.943855 10.978970
v -41.389671 37.434177 14.912443
v -43.803127 99.451180 6.539320
v -7.280818 99.236893 -23.321379
v -1.333601 29.651449 17.510792
v -7.585406 30.301958 26.883379
v -0.617653 30.166380 -8.605251
v -24.360582 29.869036 13.364776
v 8.369544 30.312820 11.155710
v -14.828893 30.324760 -8.650153
v -39.599197 83.347328 -7.044225
v -41.827568 63.898964 6.731104
v -40.922638 34.163177 5.003793
v -39.205662 37.451405 3.856089
v -33.035366 55.543018 -11.831004
v -35.093388 51.239590 -5.723275
v -7.409454 49.393471 -22.863918
v -43.189445 50.594887 8.755439
v -41.172966 39.508732 7.548937
v -11.480846 43.597336 -21.621490
v -23.745090 43.859608 -13.968814
v -19.730490 49.409939 -18.941666
v -36.743584 33.967594 1.651579
v -34.902657 31.208426 1.683465
v -11.802129 34.578293 -19.198210
v -31.223083 46.235802 -8.956209
v 14.489975 37.893105 19.974661
v -1.957449 97.917419 34.973095
v -14.938024 34.832024 34.515194
v -8.649808 34.107883 31.113714
v 6.555983 99.495834 30.046268
v 1.683501 88.934792 34.221245
v 8.816900 82.702721 28.971931
v -13.644277 39.472805 36.078449
v -4.268975 57.836697 37.109135
v 4.292212 60.100368 33.735470
v -5.515893 84.634895 36.804829
v -10.107136 59.481735 37.374027
v 10.360215 42.367435 24.333281
v 1.778489 32.715958 27.061264
v 11.588777 49.055824 24.606333
v 10.372099 61.890835 27.799280
v 6.939528 54.093525 31.091267
v 2.289698 38.220516 28.467453
v 2.195686 45.685265 30.767330
v -25.083881 32.648792 -9.501235
v -31.341949 32.787163 -3.408323

g Export_1
usemtl Export_1
s

f 1 3 2
f 1 16 3
f 7 5 3
f 2 3 5
f 1 20 16
f 7 3 4
f 6 2 5
f 4 3 30
f 16 30 3
f 2 8 1
f 15 8 2
f 5 7 33
f 6 5 9
f 30 48 4
f 20 1 8
f 17 5 33
f 9 5 17
f 10 11 21
f 11 10 12
f 10 16 12
f 12 16 20
f 4 13 7
f 7 13 50
f 17 32 9
f 7 50 33
f 17 33 14
f 15 2 6
f 10 30 16
f 11 12 20
f 32 17 25
f 18 9 32
f 6 9 18
f 11 22 21
f 19 23 327
f 10 43 30
f 25 17 26
f 26 17 36
f 13 4 48
f 45 32 25
f 36 17 14
f 28 23 29
f 23 19 29
f 39 23 28
f 327 39 25
f 24 26 36
f 20 31 11
f 24 327 26
f 327 25 26
f 31 20 8
f 13 48 66
f 27 10 21
f 35 11 49
f 27 51 10
f 43 10 51
f 11 31 49
f 39 45 25
f 50 13 66
f 33 50 57
f 14 33 54
f 15 6 34
f 42 27 21
f 28 29 64
f 35 22 11
f 19 38 29
f 38 19 380
f 28 46 39
f 43 48 30
f 18 32 45
f 8 37 31
f 8 15 37
f 37 15 34
f 22 42 21
f 29 38 64
f 385 380 19
f 351 39 46
f 39 349 40
f 389 24 36
f 39 40 45
f 48 60 66
f 33 57 54
f 49 31 41
f 40 44 45
f 45 44 18
f 36 14 54
f 53 6 18
f 64 38 55
f 27 68 51
f 389 36 62
f 62 36 54
f 35 65 22
f 38 380 55
f 61 46 28
f 49 72 47
f 48 43 51
f 40 52 44
f 49 41 72
f 22 65 58
f 68 27 42
f 64 61 28
f 35 49 59
f 49 47 59
f 48 51 74
f 74 60 48
f 37 72 31
f 66 57 50
f 34 6 63
f 35 59 65
f 68 82 51
f 72 59 47
f 72 41 31
f 60 81 66
f 18 71 53
f 46 61 353
f 52 40 56
f 71 44 52
f 44 71 18
f 62 54 67
f 54 57 73
f 66 73 57
f 54 73 67
f 98 42 22
f 82 74 51
f 66 79 73
f 61 77 353
f 59 72 85
f 75 379 62
f 22 357 98
f 67 75 62
f 89 53 71
f 66 81 79
f 53 89 95
f 69 37 34
f 95 6 53
f 63 6 95
f 72 37 69
f 34 63 69
f 42 98 68
f 60 74 81
f 73 79 80
f 73 94 67
f 55 78 104
f 70 85 72
f 65 59 83
f 64 55 146
f 65 112 58
f 83 112 65
f 68 98 82
f 76 364 77
f 89 71 354
f 79 81 90
f 86 72 69
f 82 84 74
f 73 80 94
f 78 391 104
f 85 87 59
f 74 84 81
f 70 72 86
f 92 75 67
f 79 96 80
f 67 94 92
f 83 59 87
f 81 84 90
f 75 105 379
f 92 105 75
f 94 80 106
f 106 80 96
f 85 91 87
f 70 91 85
f 79 90 111
f 79 111 88
f 79 88 96
f 55 104 146
f 83 87 101
f 89 100 95
f 98 84 82
f 379 105 382
f 100 89 354
f 91 70 86
f 63 95 116
f 101 87 91
f 84 115 90
f 69 63 93
f 103 97 98
f 98 97 84
f 345 347 338
f 90 115 111
f 354 338 113
f 95 100 116
f 103 98 357
f 91 102 101
f 88 106 96
f 58 126 359
f 112 126 58
f 91 86 107
f 354 113 100
f 92 94 119
f 119 105 92
f 94 106 136
f 104 391 335
f 375 146 121
f 110 83 101
f 84 114 115
f 107 102 91
f 69 93 86
f 83 110 112
f 347 362 338
f 63 116 150
f 360 103 357
f 146 104 142
f 335 391 99
f 101 102 110
f 382 105 108
f 107 86 109
f 117 88 111
f 116 100 113
f 117 106 88
f 94 136 131
f 119 94 131
f 114 84 97
f 109 86 93
f 93 63 124
f 338 362 113
f 111 122 117
f 108 105 119
f 133 109 93
f 115 122 111
f 63 150 124
f 104 335 142
f 121 146 180
f 113 118 116
f 136 106 117
f 150 116 118
f 103 360 137
f 113 362 123
f 114 140 115
f 110 126 112
f 108 119 128
f 134 126 110
f 378 335 99
f 102 125 110
f 102 107 125
f 107 109 120
f 113 123 118
f 93 124 133
f 103 132 97
f 127 121 180
f 114 97 140
f 115 140 122
f 136 117 129
f 335 378 141
f 362 348 123
f 108 128 135
f 117 152 129
f 137 132 103
f 152 117 122
f 110 125 134
f 120 125 107
f 119 131 128
f 122 140 151
f 130 128 131
f 140 97 132
f 155 152 122
f 122 151 155
f 142 335 141
f 125 120 134
f 138 109 133
f 152 136 129
f 143 140 132
f 378 149 141
f 128 139 135
f 123 144 118
f 133 124 138
f 162 142 163
f 123 348 144
f 139 128 130
f 132 137 143
f 134 120 145
f 126 134 148
f 140 143 151
f 348 343 144
f 136 130 131
f 126 334 361
f 148 134 145
f 124 166 138
f 150 118 196
f 137 360 179
f 144 343 154
f 135 139 168
f 124 150 166
f 147 126 148
f 137 157 143
f 142 141 163
f 141 149 159
f 168 149 135
f 109 156 120
f 183 136 152
f 147 334 126
f 144 195 118
f 159 163 141
f 143 170 151
f 145 120 160
f 195 196 118
f 120 156 160
f 156 109 138
f 130 136 184
f 165 148 145
f 149 168 159
f 151 170 158
f 343 153 154
f 168 139 130
f 154 177 144
f 138 172 156
f 184 136 183
f 196 166 150
f 142 162 180
f 160 165 145
f 155 151 158
f 144 177 195
f 358 179 360
f 146 142 180
f 170 143 157
f 153 343 337
f 170 182 158
f 155 171 152
f 171 183 152
f 157 137 173
f 161 147 148
f 189 168 130
f 172 138 166
f 167 147 161
f 174 161 148
f 232 171 155
f 130 184 189
f 157 186 170
f 181 170 186
f 181 164 170
f 159 168 194
f 182 193 158
f 158 232 155
f 185 180 162
f 163 159 169
f 148 165 174
f 164 188 170
f 170 202 182
f 175 153 346
f 176 159 194
f 175 177 153
f 179 173 137
f 162 163 185
f 157 173 186
f 164 181 187
f 190 164 187
f 164 190 188
f 172 166 196
f 197 179 358
f 187 181 200
f 210 174 165
f 176 169 159
f 217 202 170
f 203 193 182
f 239 171 232
f 168 189 194
f 183 171 239
f 183 239 184
f 179 219 173
f 161 174 213
f 188 191 170
f 192 177 175
f 156 178 160
f 177 192 195
f 269 184 239
f 195 267 196
f 163 169 199
f 190 187 208
f 215 188 190
f 191 217 170
f 160 210 165
f 203 182 230
f 193 205 158
f 178 156 172
f 189 184 269
f 198 179 197
f 167 234 197
f 212 180 185
f 234 167 161
f 199 185 163
f 186 173 219
f 213 174 210
f 200 181 201
f 215 191 188
f 232 158 205
f 160 178 226
f 192 267 195
f 197 234 198
f 175 341 192
f 182 202 209
f 226 210 160
f 225 203 230
f 204 205 193
f 196 267 274
f 199 169 207
f 186 241 201
f 187 200 228
f 187 228 208
f 190 208 223
f 215 190 223
f 191 216 217
f 330 169 176
f 202 217 236
f 194 189 233
f 206 178 172
f 198 211 179
f 219 179 211
f 220 212 185
f 185 199 221
f 186 219 241
f 222 201 241
f 241 214 222
f 191 215 216
f 176 194 331
f 205 204 243
f 238 194 240
f 198 218 211
f 198 234 218
f 220 185 221
f 336 212 220
f 220 227 336
f 161 213 234
f 199 207 221
f 213 210 249
f 216 214 241
f 241 217 216
f 217 241 236
f 194 238 331
f 209 202 271
f 224 209 229
f 230 209 224
f 230 264 225
f 192 355 251
f 192 251 267
f 227 220 339
f 246 201 222
f 223 208 261
f 216 215 235
f 230 224 250
f 230 250 272
f 272 264 230
f 205 245 232
f 277 269 239
f 172 196 255
f 218 219 211
f 220 221 339
f 221 207 248
f 213 249 234
f 214 216 235
f 208 257 261
f 215 223 333
f 241 219 236
f 249 210 231
f 236 271 202
f 271 229 209
f 237 236 243
f 226 231 210
f 244 225 264
f 243 245 205
f 232 245 239
f 194 233 240
f 196 274 255
f 200 242 228
f 246 242 200
f 246 222 214
f 228 256 257
f 208 228 257
f 339 248 350
f 248 331 254
f 331 238 254
f 237 244 276
f 238 240 254
f 226 178 231
f 239 245 281
f 206 172 255
f 233 189 269
f 228 242 256
f 214 247 246
f 235 247 214
f 248 340 350
f 248 254 266
f 237 263 236
f 260 251 355
f 206 231 178
f 239 281 277
f 240 233 252
f 234 258 218
f 261 257 280
f 261 333 223
f 229 259 224
f 237 276 263
f 341 266 355
f 236 262 243
f 260 355 266
f 254 240 252
f 234 249 258
f 218 262 219
f 219 262 236
f 271 259 229
f 270 250 224
f 263 271 236
f 250 270 272
f 276 244 264
f 262 245 243
f 231 206 273
f 279 251 260
f 267 251 279
f 233 269 252
f 280 333 261
f 258 268 218
f 218 268 262
f 231 265 249
f 297 269 277
f 279 274 267
f 246 247 242
f 247 235 253
f 332 333 280
f 280 257 287
f 258 265 268
f 249 265 258
f 264 272 275
f 266 254 278
f 279 260 266
f 333 298 253
f 302 287 257
f 224 295 270
f 301 271 263
f 270 288 272
f 301 263 276
f 276 264 275
f 265 231 273
f 278 254 252
f 279 266 278
f 255 273 206
f 247 292 242
f 256 242 292
f 256 302 257
f 252 269 297
f 278 291 279
f 274 279 291
f 224 283 295
f 300 270 295
f 271 284 259
f 270 300 288
f 245 262 289
f 281 245 289
f 282 265 273
f 277 281 297
f 273 255 285
f 291 278 252
f 285 274 291
f 255 274 285
f 247 253 286
f 280 287 293
f 299 280 293
f 224 328 283
f 271 301 284
f 272 288 313
f 275 272 313
f 275 301 276
f 273 285 282
f 291 252 297
f 253 298 286
f 298 332 309
f 294 295 283
f 290 289 262
f 262 268 290
f 290 268 282
f 265 282 268
f 297 281 289
f 247 286 292
f 256 305 302
f 287 311 293
f 283 328 296
f 301 275 313
f 291 303 285
f 291 297 303
f 256 292 305
f 311 287 302
f 293 295 299
f 299 295 294
f 296 294 283
f 284 328 259
f 290 303 289
f 289 303 297
f 285 303 282
f 299 310 316
f 294 310 299
f 295 293 306
f 295 308 300
f 284 329 328
f 290 282 303
f 292 286 304
f 286 298 309
f 316 309 332
f 293 315 306
f 307 294 296
f 295 306 308
f 312 288 300
f 313 288 312
f 309 304 286
f 305 317 302
f 311 302 317
f 293 311 315
f 294 307 310
f 300 308 323
f 304 305 292
f 306 315 321
f 321 308 306
f 300 323 312
f 324 329 301
f 301 329 284
f 301 313 324
f 296 328 318
f 312 324 313
f 309 314 304
f 317 320 311
f 316 314 309
f 318 307 296
f 328 329 318
f 305 304 317
f 315 311 320
f 318 310 307
f 312 323 324
f 319 317 304
f 319 304 314
f 316 322 314
f 320 321 315
f 310 322 316
f 310 318 322
f 321 323 308
f 318 329 324
f 319 320 317
f 323 325 324
f 322 319 314
f 326 321 320
f 322 325 319
f 322 318 325
f 324 325 318
f 320 319 326
f 321 326 323
f 326 325 323
f 319 325 326
f 182 209 230
f 193 203 225
f 204 237 243
f 244 237 204
f 204 193 225
f 244 204 225
f 23 39 327
f 224 259 328
f 201 246 200
f 186 201 181
f 248 266 340
f 19 327 24
f 154 153 177
f 207 169 330
f 176 331 330
f 331 248 330
f 330 248 207
f 280 299 332
f 333 253 215
f 215 253 235
f 332 298 333
f 299 316 332
f 389 62 388
f 167 197 334
f 334 147 167
f 146 375 76
f 61 76 77
f 146 61 64
f 76 61 146
f 52 345 352
f 338 352 345
f 342 350 340
f 347 363 348
f 352 354 71
f 71 52 352
f 337 350 346
f 369 56 344
f 342 346 350
f 341 355 192
f 212 336 180
f 40 349 344
f 348 362 347
f 344 349 369
f 369 349 351
f 39 351 349
f 40 344 56
f 367 348 363
f 153 337 346
f 373 337 343
f 221 248 339
f 339 350 368
f 369 363 56
f 351 353 369
f 227 339 368
f 175 346 342
f 52 363 345
f 366 343 348
f 46 353 351
f 363 52 56
f 341 175 342
f 342 340 341
f 354 352 338
f 340 266 341
f 347 345 363
f 22 58 359
f 334 197 361
f 360 357 356
f 357 22 359
f 126 361 359
f 356 357 359
f 358 361 197
f 361 358 359
f 359 358 356
f 358 360 356
f 336 227 376
f 77 364 370
f 180 336 376
f 376 397 180
f 343 372 373
f 350 337 368
f 365 369 370
f 371 368 337
f 353 77 370
f 371 227 368
f 343 377 372
f 367 377 366
f 366 377 343
f 370 364 365
f 371 373 376
f 370 369 353
f 365 377 367
f 369 365 367
f 371 337 373
f 363 369 367
f 227 371 376
f 348 367 366
f 121 374 375
f 376 373 372
f 397 376 372
f 377 397 372
f 398 397 377
f 374 398 377
f 377 365 374
f 19 24 389
f 55 380 381
f 55 381 78
f 78 381 391
f 383 384 387
f 384 393 387
f 382 383 379
f 390 378 99
f 388 383 387
f 389 388 386
f 384 108 135
f 380 385 381
f 394 387 393
f 379 383 388
f 394 393 392
f 393 384 135
f 19 389 385
f 384 383 382
f 378 390 392
f 391 381 385
f 390 99 395
f 108 384 382
f 387 386 388
f 393 135 378
f 378 392 393
f 385 395 391
f 391 395 99
f 388 62 379
f 385 389 386
f 396 390 395
f 135 149 378
f 385 396 395
f 394 392 396
f 396 392 390
f 180 397 127
f 397 398 127
f 76 374 364
f 76 375 374
f 364 374 365
f 121 398 374
f 398 121 127
f 386 387 394
f 396 385 386
f 396 386 394

