#Obj File : Exported From RapidForm (INUS Technology Co. Ltd.)

mtllib Waterglass_800.mtl

v -8.690254 101.112022 -45.614998
v -3.416227 101.454010 -46.422401
v 1.037877 89.104401 -45.497604
v 4.694981 101.104073 -46.216869
v 9.582631 101.507065 -45.297867
v -0.409257 101.835739 -45.076153
v 8.257538 101.620743 -43.842705
v 0.583170 70.340546 -44.191933
v 7.023021 72.687836 -43.756321
v -5.475148 71.774147 -44.016266
v -12.645537 86.994324 -43.461792
v -14.053315 100.929001 -44.248436
v -8.892357 101.928947 -44.324303
v -2.201506 101.156631 -43.952568
v -5.494179 101.514694 -44.194153
v -7.044855 100.239311 -43.040852
v 4.543378 100.409615 -43.390919
v 5.354937 101.586906 -44.963165
v 15.081203 101.735229 -43.655273
v 9.603846 60.520252 -42.458408
v 3.035868 54.766579 -42.960194
v -4.025075 60.888809 -43.331242
v -10.538233 66.458664 -42.604141
v -0.834132 99.101509 -43.399742
v -11.570116 101.378525 -42.867088
v 0.529762 54.351894 -42.684280
v -18.323898 100.701370 -42.525925
v 12.630193 100.539223 -41.935894
v -15.463538 101.645592 -42.100712
v 14.973881 101.522690 -42.139061
v 0.977748 44.502228 -41.081787
v 2.734392 48.505383 -41.306965
v 16.496672 61.254696 -40.154926
v -16.072931 61.139931 -40.414135
v -17.935543 83.781509 -41.006893
v 9.358798 97.951653 -42.614178
v -22.765184 100.566940 -39.912735
v 7.736205 49.727615 -38.592464
v 14.774822 53.754147 -36.674500
v 20.739908 101.055496 -41.137825
v -17.854332 101.015381 -40.188629
v 20.011282 101.635551 -39.872997
v 21.553244 78.052460 -38.754528
v 19.203661 99.800514 -39.136700
v 2.043291 -5.297873 -38.036182
v -4.528101 49.736202 -39.166794
v -11.745426 53.219501 -37.754482
v -20.905054 67.676720 -38.408562
v 25.840427 101.240303 -37.825748
v -22.934853 101.172699 -38.146637
v 11.893481 5.862047 -33.429829
v -9.439398 27.383177 -35.561008
v -23.969168 82.560287 -37.203377
v -22.643290 100.298279 -36.998611
v -24.208145 59.959526 -35.942142
v -22.694809 55.299728 -36.129627
v 23.945213 58.347740 -35.607883
v 26.219564 100.258682 -34.385361
v 23.622061 101.624275 -37.628181
v -7.942182 -15.810855 -33.093437
v -16.307390 48.977432 -35.425018
v -26.841932 65.905815 -34.057121
v 28.275154 74.357147 -33.479488
v -28.581440 99.712700 -35.453690
v -30.664955 97.173576 -32.810966
v 2.071412 -22.019299 -36.793549
v 3.742162 -31.978849 -35.195065
v 1.685101 -30.664381 -36.111420
v 16.619223 49.054325 -34.467236
v -29.852119 81.759132 -32.384296
v -29.357821 100.801796 -34.243359
v 32.210983 101.211777 -32.037590
v 27.810303 101.817375 -34.678970
v -3.066047 -32.518044 -33.778862
v -23.680464 49.894928 -34.142830
v -28.406103 100.495804 -32.249741
v 11.503890 -31.424604 -30.942556
v -22.833157 28.096285 -32.677654
v 27.290022 53.419079 -32.225826
v -27.102779 97.147751 -33.313625
v -30.077824 101.037491 -32.583393
v -18.897638 1.434602 -31.618349
v -21.328688 13.149826 -32.070164
v -30.323368 63.401100 -30.571571
v 30.759781 101.938805 -31.429649
v 7.630652 -33.929607 -30.615986
v -8.389591 -33.980202 -29.563480
v 1.978367 -33.778328 -34.075470
v 23.031424 14.411650 -30.133961
v 26.669821 49.273987 -31.362774
v -31.663858 61.085438 -28.292465
v -12.003697 -32.537369 -30.802879
v -17.526628 -12.084298 -31.057423
v -16.098886 -7.796291 -31.745733
v 25.490513 39.784115 -31.161077
v 31.964487 59.671356 -27.962751
v 32.960617 99.821198 -27.171173
v -20.011534 -19.387630 -30.186543
v 20.108992 -11.288964 -29.274508
v -19.816698 -12.717795 -30.753368
v -20.648752 -6.178751 -30.526524
v -21.935572 -1.825388 -30.062904
v 21.217226 -1.670104 -29.569378
v -29.927122 52.727692 -23.785179
v -34.698292 77.461029 -26.480335
v -35.312592 100.598297 -28.724674
v -31.931389 96.416229 -28.326466
v -20.086485 -31.185196 -29.220503
v -18.918112 -9.480099 -29.948227
v 25.809563 26.306215 -29.997335
v -26.599535 45.459873 -27.410433
v 29.301176 50.486156 -24.606030
v -35.632729 97.169830 -27.182915
v 30.267111 97.284592 -30.159275
v -33.531784 100.561226 -26.383188
v 33.569843 102.006889 -28.839855
v 37.468094 101.224167 -24.832897
v 23.807009 -9.629230 -28.496599
v -34.737476 69.440361 -25.764603
v -12.329984 -33.768131 -24.627171
v -25.354568 10.541200 -25.075382
v -37.492065 90.186913 -23.738976
v 34.267578 101.875984 -26.964691
v 19.899084 -32.855801 -27.748814
v 23.371613 -31.129156 -27.185661
v -23.623310 -31.886002 -21.772938
v 24.620256 -14.189181 -27.160927
v 28.276171 33.123909 -24.316862
v -17.199003 -34.208508 -27.422075
v 3.742440 -33.772602 -27.294182
v 34.396034 54.483078 -17.078957
v -39.615036 101.070061 -19.181845
v 19.512703 -34.150890 -25.533129
v 18.499596 -33.626682 -22.566523
v -38.752789 100.031403 -23.697054
v -37.920361 100.905022 -24.038492
v 35.991394 100.839401 -22.886835
v 1.467695 -32.696461 -23.995354
v 14.573392 -33.774532 -22.793762
v -30.552734 26.095474 -18.493141
v -31.937033 48.365143 -19.273840
v -35.692841 97.901924 -22.417767
v -23.517813 -33.989338 -18.468786
v -20.080404 -33.776302 -27.133144
v 17.502478 -32.627357 -16.759529
v 27.375013 -16.797554 -19.339283
v 35.315983 62.287075 -23.228710
v 36.198895 101.989716 -25.232052
v -35.777599 59.745888 -19.803257
v -37.027615 62.338367 -20.598745
v -10.133427 -32.845879 -21.108332
v -28.376015 -12.526772 -16.888660
v 31.085890 36.226971 -18.331564
v -37.031197 100.803780 -20.940044
v 37.622437 101.970757 -22.032770
v -35.526611 57.788948 -19.645176
v 39.447632 58.353008 -11.602171
v -40.089165 96.236725 -19.346764
v -41.019176 100.247704 -18.862467
v 40.581215 101.756584 -18.036936
v -36.716476 97.579178 -20.525064
v 27.313751 -32.637486 -17.169903
v 27.347454 -33.717266 -13.033425
v 38.531490 66.419350 -16.942358
v 39.159874 101.142914 -15.946725
v 23.175394 -33.531429 -24.685305
v 38.634705 49.779099 -7.514812
v -19.117090 -32.777756 -11.234959
v 5.994480 -33.572754 -9.486205
v -39.769733 59.209957 -12.614220
v -39.493942 96.964447 -14.128378
v -39.354790 100.570396 -15.338562
v 23.949173 -33.610836 -11.218408
v 31.252607 -13.343045 -12.623221
v -38.341503 50.476707 -11.793862
v -40.325050 77.574089 -15.011605
v -24.901096 -33.816055 -5.877378
v 30.221542 -32.632221 -12.112625
v -39.712978 55.629124 -11.146671
v 42.290615 101.970612 -12.432274
v 40.200455 102.040047 -15.119890
v -42.909580 97.060127 -10.647516
v -43.001396 100.229263 -13.083610
v -32.287128 -31.525517 -10.280419
v -41.656715 101.260704 -12.461453
v -2.823071 -33.753445 -8.080502
v -34.889992 0.117031 -10.502582
v -36.637581 30.703049 -11.696715
v -40.663216 100.716866 -10.767638
v 40.533794 100.931198 -10.418281
v -41.271317 100.556725 -7.615454
v 43.086727 101.856201 -7.019805
v -38.227673 50.492439 -10.645968
v 39.923866 54.406273 -7.781425
v 40.942829 98.147285 -5.763913
v 33.491676 -31.455427 -7.476301
v -40.872482 59.162537 -5.831667
v 36.624287 14.140545 -7.124238
v -32.465740 -32.837967 -9.141603
v -44.095039 99.744820 -5.153828
v 41.162651 101.036728 -4.642478
v 3.452901 -33.727737 1.185234
v -30.465256 -32.399635 -0.872627
v -36.282604 46.692310 -3.987666
v -32.739594 -2.820376 -2.242740
v -42.447823 101.234871 -6.232125
v -28.784405 -34.075863 1.494248
v -31.259039 -33.947720 -7.734447
v -21.329403 -32.996559 -1.100587
v 33.842506 -31.881334 -5.692735
v 21.653713 -32.592796 0.582405
v -44.140232 100.442276 -1.663530
v -36.879021 53.077168 0.020560
v -42.563065 80.288452 -3.357097
v 32.801556 2.208416 2.719647
v 43.098896 100.973038 -2.012484
v -42.369034 101.652695 -1.233713
v 28.533518 -33.783298 7.481655
v 31.481035 -33.886467 -6.104642
v 36.222023 48.072063 -0.665475
v -41.924171 100.801468 -3.453431
v 40.625889 97.320808 2.123205
v -41.566475 99.032684 -0.307058
v 42.686302 102.208412 4.273266
v 24.468094 -33.641239 4.713359
v -35.229862 49.771671 6.914050
v 40.515911 60.490665 -0.691778
v -31.444618 -7.614159 5.347908
v 31.756147 -23.749380 1.325339
v -40.769836 61.540707 3.498801
v -42.377983 84.384628 4.293396
v -20.473125 -33.603901 13.908231
v 34.931335 52.816853 7.643900
v -42.566334 101.669029 3.047282
v -43.316601 100.500755 6.435315
v 33.341171 26.574272 5.763213
v 40.332485 68.180786 5.562604
v -40.712257 100.879601 7.262084
v 29.971804 -32.203270 7.995134
v 33.462841 47.406731 10.591138
v -17.500368 -32.934422 11.412836
v -3.173588 -33.632320 7.620127
v -29.186956 -33.251625 13.491940
v -20.678038 -33.802666 10.116714
v 30.458508 -16.362276 9.018180
v 40.274872 84.575081 9.690439
v 39.447487 96.829338 7.195956
v -41.215187 101.542351 10.545561
v 15.182677 -32.660973 13.422379
v -27.682816 -34.203175 12.592870
v -10.068803 -32.945637 13.327518
v -38.394264 58.094166 11.553013
v 38.138680 64.368835 11.998242
v 40.237083 102.940765 13.079369
v -30.676588 -18.953409 12.423064
v -32.767532 10.739675 13.050390
v 33.711571 54.222351 19.220596
v -39.432877 79.229660 12.977378
v 6.882315 -33.051720 13.136770
v -6.633832 -33.576492 10.538630
v 13.844525 -33.597622 19.669146
v 29.171310 -33.001114 14.578568
v -35.147537 48.858929 14.889918
v -39.783737 101.294800 16.278950
v 24.190435 -33.828003 17.358381
v -37.192318 100.923531 16.416698
v -37.832691 95.355293 14.021403
v 36.927780 97.430809 14.388395
v 29.677206 -15.076919 16.513649
v -31.830263 6.903704 14.381581
v -35.962578 54.278351 16.245054
v -9.443970 -33.517803 20.986647
v 0.508871 -32.755524 19.770603
v 31.026428 12.900804 17.515213
v 31.588373 26.390987 17.987617
v 36.933205 101.530708 19.629829
v -36.084064 97.692383 17.374521
v -21.828962 -33.430779 18.844780
v 31.952547 32.630917 17.968073
v 32.568447 49.055344 18.666203
v 28.312275 -31.751198 16.508278
v -25.073961 17.192881 20.236544
v -28.410648 48.895302 19.998817
v 17.996487 -33.814301 21.136379
v 20.279760 -32.598953 21.319540
v -26.648260 53.786285 23.228474
v 34.014782 101.220634 20.076889
v -36.822716 100.937775 21.429070
v -33.106640 59.677990 21.480215
v 33.388233 96.054619 20.143063
v 26.347275 48.640739 22.225014
v -34.519978 97.190010 19.656151
v -32.610420 101.565910 24.327898
v 30.769066 97.873871 24.313999
v -30.754448 100.626770 25.475077
v -32.363785 101.529480 27.059622
v 32.969700 102.864677 25.106693
v -10.589820 -33.994984 27.122858
v 1.661058 -33.785538 27.045065
v 19.774914 50.194096 26.963224
v -29.131317 97.058060 26.737125
v -19.799383 17.240044 25.597164
v 28.036350 60.461845 26.492800
v -13.544164 -33.163342 28.024269
v 16.661064 -1.008044 26.247953
v -20.866787 48.961254 27.197145
v -29.390162 61.099907 25.895256
v 28.120043 101.105919 27.279530
v 10.003844 -33.748142 28.999794
v -15.647748 17.740904 30.731192
v -24.777744 60.897339 29.934418
v -4.958269 -32.643330 28.340303
v 27.228113 102.482834 28.642851
v -11.877781 -32.218685 28.776768
v 2.122156 -31.508574 28.863413
v 10.257253 -31.700062 30.196026
v -27.956257 101.347610 31.097685
v -3.199579 -22.762365 28.780169
v -13.887347 10.780321 31.198381
v 11.220155 -13.548990 30.441296
v 10.961904 -3.181497 31.439837
v -22.122631 100.769287 32.701996
v 6.039120 -11.857304 30.660110
v -3.355924 -4.138919 29.900644
v 11.092649 21.326984 32.869225
v 25.378199 101.926308 32.025230
v 9.498060 -22.457199 30.592762
v 9.239117 -17.793034 30.327812
v -15.815050 48.827999 33.106777
v -20.095766 97.145683 33.554451
v 22.861496 101.899765 31.740067
v 10.770612 49.403797 34.722584
v -16.689444 53.448303 33.958767
v 15.845208 58.666199 34.410461
v 22.005821 61.529984 31.393736
v -20.937351 81.099159 34.046009
v -23.000946 101.830299 33.329762
v -3.334261 50.937984 32.966644
v 4.269541 49.465195 33.653122
v 7.869855 20.542574 32.838108
v 21.144970 101.712280 34.717815
v -22.577463 101.523399 34.716892
v -11.824441 58.168911 36.168514
v -14.519325 86.872330 37.227978
v 20.249004 102.125313 33.408245
v 16.720692 95.897057 34.602325
v 17.455330 101.557098 34.745296
v -15.372433 101.082436 35.954651
v -18.321220 101.476974 36.814304
v 8.981400 56.570992 36.681240
v -4.405500 61.104279 37.773064
v -10.799283 96.921349 36.957375
v 12.647338 95.274033 36.331631
v 12.773393 101.152283 36.081581
v 10.949494 101.410851 38.789886
v 15.966765 101.614326 37.211735
v -10.632360 100.300575 37.311825
v 11.090739 99.610672 36.802341
v 12.991977 101.467018 36.574455
v 14.922256 102.226402 37.052277
v 7.629662 95.569893 37.538246
v 9.473072 100.885132 36.933369
v -14.266853 101.892365 37.373768
v -8.004962 84.988617 38.745155
v -3.665873 96.087105 38.156433
v 5.641384 98.271881 38.045609
v -6.074630 100.964966 38.121426
v -10.129863 101.880371 38.380028
v 5.714756 102.098373 37.611519
v 1.089494 80.949867 39.104610
v 0.027965 97.460251 38.261272
v -1.512102 101.202995 38.360294
v -11.190102 101.575172 39.128792
v -4.646365 101.337082 37.856884
v 1.824747 101.665543 38.019218
v -6.431500 101.690575 38.861683
v -2.631988 101.920837 38.978626
v 1.157656 101.969231 38.285877
v -4.150159 89.012032 39.404819
v 4.027880 84.678261 39.064091
v -1.530965 99.764732 40.257153
v 4.183991 101.478714 40.110916
v -6.898031 101.441643 39.953209
v -3.312595 101.752426 39.541393
v 10.443885 -33.214447 -30.184334

g tmp_1
usemtl tmp_1
s

f 1 2 3
f 4 5 3
f 3 2 4
f 4 2 6
f 7 5 4
f 8 3 9
f 10 1 3
f 5 9 3
f 10 3 8
f 10 11 1
f 1 11 12
f 12 13 1
f 14 15 16
f 17 6 14
f 7 18 17
f 5 7 19
f 20 21 9
f 21 22 8
f 21 8 9
f 22 10 8
f 23 11 10
f 9 5 19
f 24 14 16
f 17 14 24
f 13 12 25
f 16 13 25
f 15 13 16
f 22 21 26
f 22 23 10
f 20 9 19
f 12 11 27
f 17 28 7
f 25 12 29
f 19 7 28
f 30 19 28
f 31 26 32
f 32 26 21
f 21 20 33
f 22 26 34
f 23 22 34
f 23 34 11
f 34 35 11
f 20 19 33
f 35 27 11
f 36 28 17
f 29 16 25
f 37 29 27
f 32 21 38
f 21 33 39
f 35 37 27
f 33 19 40
f 16 29 41
f 30 28 42
f 29 37 41
f 19 30 42
f 38 21 39
f 43 33 40
f 28 36 44
f 42 28 44
f 40 19 42
f 45 31 32
f 26 31 46
f 34 26 47
f 48 35 34
f 43 40 49
f 41 37 50
f 40 42 49
f 45 32 51
f 52 46 31
f 47 26 46
f 53 37 35
f 41 50 54
f 38 51 32
f 55 34 56
f 57 33 43
f 48 53 35
f 44 58 59
f 44 59 42
f 59 49 42
f 31 45 60
f 47 46 61
f 34 62 48
f 57 43 63
f 62 53 48
f 31 60 52
f 52 61 46
f 56 34 47
f 39 33 57
f 62 34 55
f 64 37 65
f 66 67 68
f 66 60 45
f 66 45 51
f 69 51 38
f 61 56 47
f 49 63 43
f 37 53 70
f 64 71 37
f 71 50 37
f 72 49 73
f 73 49 59
f 60 66 74
f 38 39 69
f 59 58 73
f 66 68 74
f 56 61 75
f 39 57 69
f 65 37 70
f 54 50 76
f 67 66 77
f 66 51 77
f 52 78 61
f 78 75 61
f 69 57 79
f 75 55 56
f 70 53 62
f 49 72 63
f 54 76 80
f 50 71 81
f 60 82 52
f 82 83 52
f 55 84 62
f 58 85 73
f 86 87 88
f 52 83 78
f 89 51 69
f 69 79 90
f 91 55 75
f 79 57 63
f 50 81 76
f 60 74 92
f 93 94 60
f 94 82 60
f 89 69 95
f 95 69 90
f 84 55 91
f 96 63 72
f 58 97 85
f 92 98 60
f 77 51 99
f 100 93 98
f 93 60 98
f 94 101 102
f 102 82 94
f 83 82 102
f 102 78 83
f 103 51 89
f 79 96 90
f 104 91 75
f 79 63 96
f 105 62 84
f 70 62 105
f 65 106 64
f 107 80 76
f 64 106 71
f 71 106 81
f 108 98 92
f 98 102 100
f 100 109 93
f 100 102 101
f 101 109 100
f 101 94 109
f 94 93 109
f 99 51 103
f 110 89 95
f 78 111 75
f 95 90 110
f 90 96 112
f 113 65 70
f 97 58 114
f 76 81 115
f 85 116 72
f 72 116 117
f 108 102 98
f 118 89 110
f 119 105 84
f 86 120 87
f 99 103 118
f 118 103 89
f 102 121 78
f 105 122 70
f 96 72 117
f 76 115 107
f 116 85 123
f 124 77 125
f 77 99 125
f 125 99 118
f 102 108 126
f 118 110 127
f 110 90 128
f 70 122 113
f 87 120 129
f 130 120 86
f 118 127 125
f 127 110 128
f 78 121 111
f 75 111 104
f 96 131 112
f 91 119 84
f 106 65 113
f 81 106 132
f 115 81 132
f 86 133 134
f 126 121 102
f 112 128 90
f 135 136 106
f 136 132 106
f 97 137 123
f 130 138 120
f 139 130 86
f 134 139 86
f 111 121 140
f 141 104 111
f 107 115 142
f 129 143 144
f 145 138 130
f 146 127 128
f 147 96 117
f 113 135 106
f 123 137 148
f 129 120 143
f 139 145 130
f 149 150 91
f 119 91 150
f 151 120 138
f 126 152 121
f 128 112 153
f 142 115 154
f 115 132 154
f 155 148 137
f 125 127 146
f 111 140 141
f 156 91 104
f 131 96 157
f 113 122 158
f 113 158 135
f 135 159 136
f 156 149 91
f 96 147 157
f 119 150 105
f 122 105 158
f 147 117 160
f 159 132 136
f 142 154 161
f 125 146 162
f 128 153 146
f 140 121 152
f 134 133 163
f 147 160 164
f 158 159 135
f 137 165 155
f 117 155 160
f 166 163 133
f 167 112 131
f 151 168 120
f 163 139 134
f 138 169 151
f 149 170 150
f 171 154 172
f 154 171 161
f 165 160 155
f 173 145 139
f 163 173 139
f 146 174 162
f 153 112 167
f 147 164 157
f 158 105 150
f 145 169 138
f 146 153 174
f 104 175 156
f 150 176 158
f 120 177 143
f 174 178 162
f 175 104 141
f 179 170 149
f 170 176 150
f 164 160 180
f 154 132 172
f 181 160 165
f 158 182 159
f 159 182 183
f 168 177 120
f 184 152 126
f 156 175 149
f 175 179 149
f 158 176 182
f 183 185 159
f 132 159 185
f 172 132 185
f 169 186 151
f 175 141 140
f 152 187 140
f 175 140 188
f 172 189 171
f 172 185 189
f 168 151 186
f 165 190 181
f 188 140 187
f 153 167 174
f 180 157 164
f 171 189 191
f 192 181 190
f 181 192 180
f 152 184 187
f 188 193 175
f 175 193 179
f 157 194 131
f 176 170 182
f 165 195 190
f 178 174 196
f 187 193 188
f 197 170 179
f 198 174 167
f 157 180 194
f 184 199 187
f 196 174 198
f 131 194 167
f 183 182 200
f 180 192 194
f 190 195 201
f 169 202 186
f 199 203 187
f 204 193 205
f 179 193 197
f 170 197 182
f 185 183 206
f 191 185 206
f 143 207 208
f 177 207 143
f 186 209 168
f 198 210 196
f 205 193 187
f 168 209 177
f 173 211 145
f 205 187 203
f 183 200 212
f 206 183 212
f 199 208 203
f 145 211 169
f 213 197 193
f 182 197 214
f 212 200 182
f 190 201 192
f 198 215 210
f 192 216 194
f 217 206 212
f 186 202 209
f 218 173 163
f 163 219 218
f 167 194 220
f 193 204 213
f 217 221 206
f 191 206 221
f 182 214 212
f 195 222 201
f 191 221 223
f 192 201 224
f 173 225 211
f 215 198 167
f 226 213 204
f 194 216 227
f 201 222 224
f 221 217 223
f 203 228 205
f 210 215 229
f 204 205 228
f 214 197 230
f 214 231 212
f 177 232 207
f 208 207 203
f 167 220 215
f 194 227 233
f 234 217 212
f 211 202 169
f 230 197 213
f 224 227 216
f 218 225 173
f 204 228 226
f 212 231 235
f 215 220 236
f 220 194 233
f 214 230 231
f 227 224 237
f 223 217 238
f 210 229 239
f 220 233 240
f 241 177 209
f 202 242 209
f 203 243 228
f 230 213 226
f 235 234 212
f 234 238 217
f 177 244 232
f 241 244 177
f 229 215 245
f 240 236 220
f 237 224 246
f 222 247 224
f 234 248 238
f 203 207 243
f 211 249 202
f 239 229 245
f 248 234 235
f 250 243 207
f 249 242 202
f 209 251 241
f 242 251 209
f 211 225 249
f 226 252 230
f 237 253 227
f 230 252 231
f 224 247 254
f 232 250 207
f 243 255 228
f 228 255 256
f 215 236 245
f 246 253 237
f 228 256 226
f 233 227 257
f 231 252 258
f 254 246 224
f 259 260 242
f 225 261 249
f 245 262 239
f 226 256 263
f 231 258 235
f 260 251 242
f 263 252 226
f 235 264 248
f 218 265 225
f 238 266 267
f 238 248 266
f 259 251 260
f 265 261 225
f 236 240 245
f 227 253 257
f 258 264 235
f 247 268 254
f 218 262 265
f 245 269 262
f 243 270 255
f 255 270 256
f 252 271 258
f 241 272 244
f 259 273 251
f 245 240 274
f 240 275 274
f 256 270 263
f 252 263 271
f 246 276 253
f 254 276 246
f 277 267 266
f 232 278 250
f 278 243 250
f 272 232 244
f 249 273 259
f 245 274 269
f 240 279 275
f 233 280 240
f 266 248 264
f 281 262 269
f 243 278 270
f 282 270 278
f 279 240 280
f 253 276 257
f 281 265 262
f 251 273 241
f 270 283 263
f 257 280 233
f 258 271 264
f 265 284 261
f 281 285 265
f 270 282 283
f 283 271 263
f 283 286 271
f 287 254 268
f 254 287 276
f 273 249 261
f 285 281 269
f 269 274 285
f 288 264 289
f 290 287 268
f 273 272 241
f 284 265 285
f 274 275 285
f 286 289 271
f 271 289 264
f 275 279 291
f 266 292 277
f 266 264 293
f 285 275 291
f 279 280 291
f 291 280 257
f 290 294 287
f 292 266 295
f 295 266 293
f 296 264 288
f 293 264 296
f 287 297 276
f 272 298 232
f 261 272 273
f 284 299 261
f 285 291 300
f 232 298 278
f 257 276 297
f 295 301 292
f 302 282 278
f 282 302 283
f 297 303 257
f 288 289 296
f 299 298 272
f 261 299 272
f 304 302 278
f 285 300 305
f 306 283 302
f 286 307 289
f 298 304 278
f 296 289 307
f 294 308 287
f 287 308 297
f 306 286 283
f 257 300 291
f 309 299 284
f 284 285 309
f 302 304 310
f 257 303 300
f 311 307 286
f 295 293 296
f 298 299 312
f 308 313 297
f 312 314 298
f 299 315 312
f 309 285 316
f 305 316 285
f 296 307 317
f 312 318 314
f 312 315 318
f 310 304 319
f 316 305 320
f 320 305 321
f 311 317 307
f 295 322 301
f 315 309 316
f 315 316 323
f 315 323 318
f 304 314 319
f 318 324 314
f 314 324 319
f 321 305 325
f 303 297 326
f 316 327 323
f 327 328 323
f 327 316 320
f 323 324 318
f 302 310 306
f 329 306 310
f 322 330 301
f 313 308 331
f 327 320 328
f 328 320 323
f 320 321 323
f 300 332 305
f 306 333 286
f 334 300 335
f 303 335 300
f 311 336 317
f 326 335 303
f 295 296 337
f 337 296 317
f 322 295 337
f 331 326 313
f 324 323 338
f 323 339 338
f 324 329 319
f 324 338 329
f 325 305 332
f 333 306 329
f 311 286 333
f 321 325 323
f 323 325 340
f 323 340 339
f 332 339 340
f 319 329 310
f 325 332 340
f 332 300 334
f 336 311 333
f 335 326 341
f 336 342 317
f 329 343 333
f 329 338 343
f 336 333 344
f 345 346 347
f 342 337 317
f 335 341 334
f 330 322 348
f 322 337 342
f 342 349 322
f 332 350 339
f 339 350 338
f 350 332 334
f 343 338 351
f 333 343 344
f 352 330 348
f 353 347 346
f 336 349 342
f 354 347 353
f 322 349 348
f 350 334 355
f 334 341 356
f 357 352 348
f 353 358 354
f 354 359 347
f 359 360 347
f 350 351 338
f 344 349 336
f 353 361 358
f 362 355 358
f 358 355 354
f 354 355 359
f 349 363 348
f 356 359 355
f 356 360 359
f 343 364 344
f 355 334 356
f 352 357 365
f 361 366 362
f 361 362 358
f 365 357 367
f 357 348 368
f 362 366 369
f 355 362 369
f 363 368 348
f 350 370 351
f 351 364 343
f 370 364 351
f 361 371 366
f 365 372 371
f 366 371 369
f 344 373 349
f 365 367 374
f 365 374 372
f 367 357 368
f 372 375 371
f 371 375 369
f 368 363 373
f 367 376 374
f 376 377 374
f 377 372 374
f 378 372 377
f 375 372 378
f 363 349 373
f 364 373 344
f 376 367 368
f 370 379 364
f 380 381 379
f 380 382 381
f 379 381 364
f 381 383 364
f 380 355 382
f 364 383 373
f 381 384 383
f 381 382 384
f 123 85 97
f 370 380 379
f 341 345 356
f 345 347 356
f 347 360 356
f 376 373 383
f 373 376 368
f 383 384 377
f 376 383 377
f 375 378 382
f 369 382 355
f 384 378 377
f 384 382 378
f 375 382 369
f 196 210 219
f 163 178 219
f 125 162 166
f 162 163 166
f 184 126 199
f 143 199 126
f 208 199 143
f 133 385 124
f 143 126 144
f 196 219 178
f 133 86 385
f 385 77 124
f 67 86 88
f 385 86 67
f 68 67 88
f 88 74 68
f 144 126 108
f 129 144 92
f 74 88 87
f 124 166 133
f 166 124 125
f 162 178 163
f 77 385 67
f 129 92 87
f 108 92 144
f 87 92 74
f 2 13 15
f 13 2 1
f 2 15 6
f 15 14 6
f 6 17 18
f 6 18 4
f 4 18 7
f 341 331 345
f 313 326 297
f 331 341 326
f 219 210 218
f 210 239 218
f 262 218 239
f 304 298 314
f 299 309 315
f 216 192 224
f 123 117 116
f 117 123 148
f 29 12 27
f 181 180 160
f 117 148 155
f 259 242 249
f 72 73 85
f 189 185 191
f 350 355 380
f 350 380 370

