#Obj File : Exported From RapidForm (INUS Technology Co. Ltd.)

mtllib CokePlasticSmallGrasp_800.mtl

v -27.389141 -53.949909 8.413092
v -29.758564 -39.376827 2.424201
v -29.863337 -50.296375 -1.705755
v -24.914219 -13.947515 8.575805
v -29.494144 19.422522 2.020860
v -29.858143 28.540602 1.885045
v -28.060785 -57.713425 0.058818
v -28.150042 -40.848991 8.600517
v -29.668840 -37.358932 -7.297158
v -29.513279 19.085621 -4.877238
v -29.625231 28.573654 -9.141896
v -28.766691 33.357372 3.450401
v -27.964230 84.929871 5.989088
v -29.454617 88.489113 1.932152
v -27.274891 -58.295464 -8.393393
v -24.200224 -51.317013 15.537252
v -26.824486 28.425804 12.753421
v -26.760258 66.482460 10.301711
v -26.033314 32.562870 11.880382
v -27.582476 -51.896835 -13.710197
v -25.365435 -37.661808 14.100242
v -26.334230 -28.263521 7.094460
v -25.117769 -20.081959 4.852532
v -26.174383 -19.471054 -7.503819
v -22.341475 85.293709 17.674994
v -29.148830 32.990959 -4.485441
v -29.156784 88.695183 -3.186260
v -26.806286 97.501022 3.288545
v -26.394218 -18.810547 1.433276
v -24.886135 -60.574612 7.947371
v -21.901350 -19.257692 13.574720
v -20.973551 -38.658363 20.245039
v -26.845039 -40.734772 -16.217245
v -21.213417 27.813993 20.646055
v -26.470291 27.494425 -17.719120
v -20.277544 90.293518 20.649263
v -28.848139 88.388077 -9.712415
v -16.924625 -66.142174 12.536722
v -23.768482 -64.009117 -5.728802
v -15.382773 -38.818466 25.018799
v -26.182449 99.323067 -7.444298
v -20.745399 -58.204372 17.545147
v -17.410389 -35.815422 22.063602
v -27.336218 32.643059 -12.875378
v -21.659281 -66.194443 1.864740
v -23.075134 -60.918068 -16.252653
v -18.052847 -20.015667 18.395863
v -15.587699 88.372627 24.077087
v -15.612561 -58.013657 22.443201
v -16.698957 -50.466263 23.897999
v -15.734923 27.350471 25.171318
v -20.432272 32.411861 20.007961
v -26.729311 86.860199 -14.229071
v -26.333508 89.143021 13.007365
v -16.127361 126.294632 -5.257537
v -18.123335 -65.346001 -17.528620
v -23.871843 -35.805531 -20.603830
v -13.166659 -19.626757 22.546700
v -25.647062 89.544693 -18.016520
v -14.627425 -65.797592 9.388688
v -17.184528 -65.544556 2.996875
v -19.450176 28.632639 -26.931854
v -13.417792 103.692932 20.703346
v -14.189990 -62.264545 5.257386
v -19.874950 -51.832096 -25.350927
v -22.599781 -20.130939 -17.466597
v -6.530760 87.382088 28.546597
v -11.122419 89.304192 27.445986
v -21.220236 85.453781 -23.220154
v -19.703968 88.628967 -26.072132
v -17.704380 119.819183 5.280429
v -7.442780 -65.482330 15.592767
v -9.859299 -49.031715 28.153343
v -17.483660 -65.246132 -5.616317
v -8.030034 -38.089993 28.693331
v -10.549280 27.696825 28.109257
v -22.507109 32.733883 -21.892086
v -17.992725 98.860214 -23.591061
v -14.641219 121.824402 -14.197023
v -15.919496 142.709137 -4.639219
v -15.941149 -62.409992 -3.913737
v -12.937755 123.318962 10.919500
v -13.768044 142.758698 6.629332
v 0.323364 -66.356445 21.955603
v -10.286219 -64.947250 20.498077
v -7.817452 -62.363483 12.989429
v -17.357756 -26.013647 -25.008314
v -15.371654 144.154236 -0.599018
v -7.966255 -19.904808 25.060305
v -19.732349 -39.051807 -26.077177
v -10.867302 32.057739 27.046038
v -14.337896 144.223099 -8.523122
v -16.010464 32.481987 -28.215918
v -5.789236 142.862228 14.932717
v -5.329060 -57.978420 4.987880
v -12.564591 147.390686 -1.892445
v 2.773310 -65.997749 18.811167
v -16.327400 -59.731907 -24.907669
v -10.889297 140.106308 -1.961856
v -8.546371 140.197311 -10.147149
v -11.399533 147.423126 4.280658
v -7.068538 -58.256237 26.928654
v -16.180021 -19.235067 -24.440226
v -11.461766 136.436050 -2.300882
v -10.522245 144.146469 10.931062
v -11.575336 154.457352 -1.145557
v -8.627334 -58.273006 -3.955585
v -6.328719 121.858063 17.030479
v -9.828541 142.820511 -16.143515
v -10.396684 144.917374 -3.396796
v -4.821236 147.333084 11.813326
v -9.176022 154.035858 6.153764
v -11.748528 147.401108 -7.084249
v -12.816417 -62.288132 -11.940019
v 0.591608 -50.092590 30.543417
v -1.644595 -20.248779 26.921129
v -14.955641 86.784142 -28.752731
v -3.656966 136.394775 10.715260
v -8.860191 136.373962 5.902661
v -8.597656 140.125687 5.670636
v -10.507122 165.193329 -5.616584
v -2.993208 26.462011 30.430248
v -8.453310 136.405380 -10.718617
v -9.139630 144.451782 -11.146831
v -10.481474 153.988800 -7.767286
v -11.145939 -56.797665 -29.843632
v -0.530936 -42.125687 30.442354
v -0.741441 33.239517 29.681923
v -7.531630 145.679214 -10.800160
v -6.830252 166.222946 7.874573
v -14.971951 -66.219727 -15.842554
v 1.943848 -62.116554 15.493174
v 0.174407 92.482780 29.206654
v -6.590407 144.159515 -18.212351
v -8.294807 145.201462 5.309996
v -12.866267 -39.727047 -31.111612
v -10.608850 -25.240850 -29.332838
v -10.478951 166.065277 0.003022
v -1.398786 -56.631088 0.496600
v 5.106977 -38.123451 30.431318
v 3.920711 -18.745413 27.051620
v 2.749590 -58.904850 28.192436
v -12.187305 26.976461 -31.747629
v 3.646577 137.158432 12.255836
v -7.721174 165.834305 -11.040167
v -0.983506 -56.480957 -5.400678
v -5.154744 127.861916 -19.264257
v -4.554737 154.159439 10.402004
v -6.503092 154.017029 -13.381856
v -1.819177 164.461578 11.348772
v -4.905513 -58.052490 -10.215673
v 5.087955 84.898430 29.846436
v 1.356116 107.625557 24.715120
v -1.809235 140.706406 -15.310001
v -0.101486 154.179016 12.377058
v 4.689384 -57.746960 7.121387
v -10.900979 -49.155231 -31.731457
v -1.132950 99.909836 -31.560596
v -8.223950 147.792160 -13.001842
v -5.887116 -62.282688 -18.566467
v -9.754580 -15.637101 -29.057804
v 4.482936 21.783281 30.476931
v -4.863682 28.579664 -34.389717
v -11.043588 49.261047 -31.121763
v -2.363115 145.111786 10.194582
v -6.935128 -65.081551 -19.869076
v 9.430616 27.749517 30.322706
v 10.605206 32.223774 29.113361
v -6.293636 32.057552 -32.945534
v -1.728754 49.453167 -33.987476
v -7.420517 85.185333 -32.628128
v -10.111044 90.302017 -32.476868
v -0.548129 139.935394 11.748060
v -2.909209 147.778885 -16.680002
v -1.237222 155.381027 -16.002022
v 10.405221 -20.338419 26.314711
v 5.413868 88.414146 30.573439
v -3.769578 144.908585 -14.033017
v 1.113247 145.578018 -15.361966
v 1.493186 -59.058201 -2.321808
v 4.209988 145.223969 11.188502
v -0.548954 164.808151 -16.287262
v 10.783626 -53.433327 28.905205
v 3.779021 -58.694302 -2.001247
v 3.506220 -56.659294 1.982109
v -2.725474 73.086243 -33.720810
v 0.729569 142.645279 -20.808224
v 0.352701 -66.410995 -25.135885
v 4.999006 -57.938023 -12.546335
v 6.853107 140.417877 11.419936
v 3.616913 164.986572 12.289143
v 11.198310 -65.618568 21.961794
v 2.549362 144.310120 16.254696
v 1.408288 145.580261 -16.555090
v 21.802526 -66.490524 12.771836
v 13.918322 -66.159340 15.213646
v 11.228941 -57.381031 0.623831
v -1.886903 -52.854740 -33.960442
v 10.458782 92.918869 28.708578
v 2.607228 -65.423721 -22.519436
v -1.457078 -64.486191 -29.139311
v 11.307894 -62.079296 13.037101
v 3.128808 -56.400826 -7.039422
v -0.004267 -19.903988 -31.302727
v -2.207844 137.522415 -15.290835
v 4.658237 142.807358 17.085573
v 7.191156 144.950241 11.736245
v 3.090784 147.746933 -18.093378
v 17.786745 -48.299755 26.912804
v 14.678177 -35.968849 28.139393
v 4.298165 140.334259 -16.233820
v 5.455267 144.266144 -20.867449
v 5.568526 147.406357 13.662501
v -3.069580 -36.283279 -34.174347
v 0.505112 7.067379 -33.640026
v 11.854783 86.421371 28.796368
v -1.603779 88.476204 -34.633610
v 2.423547 144.786163 -17.444113
v 6.712888 154.681351 12.265662
v 3.594255 -62.397160 -20.321310
v 7.214618 -56.463757 -3.578630
v 3.627736 -41.955891 -34.394325
v 11.312939 125.620140 15.911631
v 11.689930 136.334656 9.445755
v 4.418319 145.596771 -16.155382
v 4.499557 155.091202 -16.999546
v 5.311177 12.355417 -33.693283
v 5.204758 115.052719 -26.238852
v 7.618322 145.069641 -15.161730
v 9.596429 145.464127 9.615597
v 8.830215 147.560074 -17.250364
v 9.384418 166.069382 10.643910
v 7.593932 165.913223 -15.696684
v 16.807138 -59.672337 24.032629
v 16.141462 55.776310 27.240650
v 8.071589 89.495224 -34.639977
v 3.698580 136.677704 -16.882048
v 13.038711 140.246216 7.896668
v 12.220585 147.642166 10.790127
v 21.232452 -52.798931 24.224115
v 6.502128 -34.824528 -33.739281
v 17.427168 26.982557 27.652670
v 17.016582 89.915001 27.459343
v 10.244622 140.058517 -14.746143
v 11.147684 144.744263 10.562426
v 13.839018 166.114807 7.115941
v 19.035755 -66.376526 10.568190
v 8.952526 -59.250164 -31.039644
v 13.524004 143.042770 14.138438
v 12.319531 155.053314 9.559011
v 20.689243 -63.343750 18.344286
v 18.252720 -62.500290 6.436549
v 11.749815 -51.344231 -32.902969
v 15.843102 -19.771353 24.114187
v 6.482762 -19.455948 -31.055042
v 2.597332 85.641525 -34.280720
v 10.907169 154.862106 -14.975375
v 23.777378 27.304462 23.480448
v 5.626277 31.440250 -34.140640
v 16.211454 136.550629 3.870005
v 15.678107 145.181549 3.732941
v 16.101126 147.611588 6.957079
v 13.092594 -58.892101 -8.027282
v 20.888380 -41.330502 25.025503
v 11.163405 28.822512 -34.212849
v 10.860957 124.440880 -21.082039
v 18.166027 147.706726 2.764124
v 14.710965 144.316788 12.138653
v 16.678993 154.938904 4.045375
v 9.878401 -65.196205 -20.671551
v 11.419754 145.540878 -13.564668
v 14.780190 147.739166 -13.204173
v 15.265197 155.319763 -11.084442
v 13.105441 -62.003380 -16.422457
v 26.906307 -38.456486 20.171545
v 20.778717 32.416328 24.603346
v 11.070596 85.373772 -33.218651
v 10.252308 143.139542 -20.532843
v 15.634518 145.292175 -8.812323
v 12.912243 166.703812 -5.095135
v 18.668533 123.511475 11.320151
v 16.565914 140.002655 2.618628
v 17.006281 140.249481 -5.132471
v 16.732101 142.920242 -15.803075
v 13.785773 165.036591 -12.464101
v 11.643573 -65.821877 -25.271399
v 21.868187 85.133713 23.903738
v 20.704498 100.842056 20.875692
v 20.043869 143.018692 7.418922
v 15.056465 140.273575 -9.917408
v 17.176785 165.516342 0.675900
v 22.386091 -66.234573 3.480136
v 15.930234 -20.009781 -28.350466
v 17.589195 89.956314 -31.563105
v 16.759285 136.475693 -6.844697
v 17.281843 145.230698 -3.274068
v 17.593668 147.803391 -8.633730
v 17.478889 164.614716 -5.107780
v 18.998657 147.813110 -3.064440
v 18.013567 154.834274 -1.099196
v 20.515881 -62.461075 -4.317345
v 20.065165 -66.574104 -18.727711
v 22.466249 -65.849121 -6.153619
v 14.944902 32.393421 -31.798273
v 17.640417 136.401764 -1.067658
v 22.162008 142.929260 -2.533281
v 17.232613 -65.580162 -16.086384
v 14.057881 -38.174110 -32.409992
v 20.631430 145.210724 0.090033
v 26.442690 -56.850140 18.078560
v 28.933645 28.224289 18.352011
v 24.954819 88.379799 22.368031
v 19.085152 145.349869 -10.864943
v 26.419329 -62.485729 12.576166
v 16.455065 -60.956158 -27.328543
v 22.941547 -19.720020 19.513519
v 13.782999 136.442886 -12.760595
v 20.897289 142.687195 -8.749067
v 26.767017 -66.525841 1.079587
v 20.953186 -52.395996 -28.215912
v 28.584108 104.175186 -14.193147
v 19.965057 -20.609188 -25.019398
v 20.664471 106.722443 -23.166618
v 19.199915 -35.396774 -29.457365
v 20.399384 27.375862 -30.015757
v 26.496710 -65.457924 -10.748186
v 22.257328 -43.021526 -27.893818
v 30.101379 31.883606 15.204156
v 29.301704 84.983025 16.214125
v 22.660110 32.129551 -27.406382
v 30.973276 89.642204 15.334924
v 23.199841 121.268929 5.402957
v 26.144764 -59.153980 -20.696304
v 31.742039 -36.943077 12.506270
v 29.060631 -20.119421 10.596846
v 29.572063 -49.933540 16.771608
v 32.635414 26.958858 12.001309
v 19.853102 85.609055 -29.577991
v 21.445808 126.911827 -7.813540
v 30.198814 -59.718479 -12.592144
v 25.218477 -36.307617 -25.271486
v 22.740982 -20.028267 -23.418903
v 26.343328 117.000504 -1.595504
v 32.448547 -59.335255 -3.935368
v 33.114132 -42.736015 9.480242
v 26.695555 -21.527966 -18.923775
v 29.251608 33.039234 -20.563372
v 24.660292 58.146904 -25.746372
v 31.195091 -19.469238 5.047788
v 35.007969 27.393871 5.736717
v 32.063637 88.975723 -18.085928
v 31.942596 -58.469509 6.441960
v 34.234512 -37.523121 5.552095
v 29.985727 -22.508909 -13.683579
v 30.346224 -18.946234 -10.296894
v 35.632542 26.086941 -1.207594
v 26.674353 85.311501 -24.051571
v 34.101093 -51.058285 5.375114
v 26.728739 -51.039684 -23.633499
v 31.506180 -20.922409 -7.520594
v 31.260897 -6.399498 -10.797879
v 30.242935 -10.892538 -13.650757
v 27.778242 -4.838573 -19.267731
v 32.136105 -51.727837 -15.088420
v 29.805790 -39.808144 -20.188219
v 31.482460 -29.014990 -10.898293
v 31.957617 -33.470474 -14.387410
v 32.107719 -20.488504 -1.471439
v 33.699097 5.845557 -7.518446
v 31.639647 4.301370 -14.118672
v 29.508064 18.438086 -20.476124
v 29.498192 49.987003 -20.082224
v 33.435650 90.113762 7.690166
v 26.326849 88.686089 -25.429623
v 34.785526 -36.589966 -1.074345
v 26.087061 28.718069 -25.989979
v 34.211277 33.118217 4.979624
v 34.439224 -42.577808 -8.404355
v 32.806393 -38.485859 -11.169956
v 33.867573 -33.957447 -8.174520
v 32.959045 -41.789253 -13.998617
v 32.472164 14.480758 -14.524579
v 34.929813 40.411453 -0.816959
v 33.821239 33.001469 -10.737823
v 34.866642 58.993816 1.559998
v 33.199406 56.181282 -12.902476
v 29.702494 70.734634 -20.253178
v 35.394035 89.124573 3.896092
v 30.978127 85.568413 -18.082367
v 34.686714 -50.678452 -5.563906
v 33.663990 23.189936 -11.464802
v 33.094429 27.492092 -15.478017
v 35.325916 27.819916 -8.299273
v 34.597466 44.654045 -6.794580
v 34.812008 70.519386 -6.299857
v 33.554913 86.941750 -11.773153
v 35.742184 88.549736 -6.848548
v 35.114029 84.606064 -1.405338
v 35.603561 90.153000 -2.389914
v -9.565452 -65.542526 -24.377512
v 0.616911 166.695923 -13.947444

g scan0_and_scan0_and_scan270_and_scan180_and_scan90_and_scan0
usemtl scan0_and_scan0_and_scan270_and_scan180_and_scan90_and_scan0
s

f 1 16 8
f 3 1 2
f 1 8 2
f 7 1 3
f 8 16 21
f 3 2 9
f 2 8 22
f 4 17 5
f 17 6 5
f 6 10 5
f 6 17 12
f 17 19 12
f 6 12 26
f 22 8 21
f 10 6 11
f 6 26 11
f 12 19 18
f 12 18 13
f 12 13 27
f 13 18 25
f 27 13 14
f 13 54 28
f 13 28 14
f 7 30 1
f 16 1 42
f 3 15 7
f 20 15 3
f 16 32 21
f 20 3 9
f 22 23 2
f 2 23 29
f 23 4 29
f 29 4 5
f 29 5 10
f 34 19 17
f 12 27 26
f 13 25 54
f 14 28 27
f 42 1 30
f 9 2 24
f 31 22 21
f 24 2 29
f 22 31 4
f 4 23 22
f 24 29 10
f 17 4 31
f 34 52 19
f 44 11 26
f 19 52 18
f 50 32 16
f 21 32 31
f 31 34 17
f 25 18 52
f 54 25 36
f 27 28 41
f 50 16 42
f 32 47 31
f 31 47 34
f 24 10 11
f 26 27 53
f 37 53 27
f 27 41 37
f 28 54 71
f 7 45 30
f 39 45 7
f 39 7 15
f 20 9 33
f 44 35 11
f 44 26 53
f 30 45 38
f 50 40 32
f 40 43 32
f 33 9 24
f 51 34 47
f 51 52 34
f 52 48 25
f 30 38 42
f 50 42 49
f 47 32 43
f 24 66 33
f 48 36 25
f 37 41 53
f 15 46 39
f 15 20 46
f 52 91 48
f 43 40 47
f 35 66 24
f 24 11 35
f 35 44 77
f 63 36 48
f 53 41 59
f 55 41 28
f 38 85 42
f 50 73 40
f 40 58 47
f 47 58 51
f 51 91 52
f 77 44 53
f 54 36 82
f 71 54 82
f 56 39 46
f 42 85 49
f 57 33 66
f 63 48 68
f 45 60 38
f 61 60 45
f 39 56 45
f 49 102 50
f 50 102 73
f 77 62 35
f 69 77 53
f 68 48 67
f 45 74 61
f 20 33 65
f 65 33 90
f 73 75 40
f 33 57 90
f 89 76 51
f 51 76 91
f 48 91 67
f 46 20 65
f 75 58 40
f 58 89 51
f 63 82 36
f 60 61 64
f 49 85 102
f 62 66 35
f 59 41 79
f 55 28 71
f 60 72 38
f 131 74 45
f 56 131 45
f 81 64 61
f 74 81 61
f 57 66 87
f 89 58 75
f 59 69 53
f 68 108 63
f 79 78 59
f 79 41 55
f 64 86 60
f 64 81 107
f 76 89 122
f 76 122 91
f 70 59 78
f 83 88 80
f 105 88 83
f 46 65 98
f 87 90 57
f 63 108 82
f 55 71 104
f 86 72 60
f 115 73 102
f 103 87 66
f 69 93 77
f 83 80 99
f 88 92 80
f 38 84 85
f 74 131 114
f 74 114 81
f 115 75 73
f 127 75 115
f 75 116 89
f 67 91 128
f 105 83 94
f 135 88 105
f 110 88 135
f 92 88 110
f 38 97 84
f 72 97 38
f 81 114 107
f 127 116 75
f 68 67 153
f 68 153 108
f 83 99 120
f 102 85 84
f 107 95 64
f 66 62 103
f 69 117 93
f 71 82 119
f 104 71 119
f 83 120 94
f 106 96 101
f 86 64 95
f 126 98 65
f 65 90 136
f 116 122 89
f 128 91 122
f 93 62 77
f 117 69 70
f 67 133 153
f 99 80 100
f 135 101 96
f 101 112 106
f 142 115 102
f 108 118 82
f 119 82 118
f 104 119 120
f 104 120 99
f 92 109 80
f 92 110 124
f 110 135 96
f 96 113 110
f 135 111 101
f 111 112 101
f 96 106 113
f 106 112 138
f 112 130 138
f 106 138 121
f 62 143 103
f 62 93 143
f 117 164 93
f 128 152 67
f 121 125 106
f 166 114 131
f 72 86 97
f 141 122 116
f 119 118 120
f 104 99 100
f 80 109 100
f 109 92 134
f 134 92 124
f 135 165 111
f 148 112 111
f 125 113 106
f 56 400 131
f 114 151 107
f 90 87 136
f 116 127 141
f 78 117 70
f 79 55 123
f 123 55 104
f 104 100 123
f 125 159 113
f 112 148 130
f 132 97 86
f 114 166 160
f 142 102 84
f 65 157 126
f 65 136 157
f 115 140 127
f 67 152 177
f 147 78 79
f 120 118 173
f 110 129 124
f 113 129 110
f 113 159 129
f 125 121 145
f 121 138 145
f 132 86 95
f 127 140 141
f 87 103 137
f 103 161 137
f 103 143 161
f 67 177 133
f 78 172 117
f 94 193 105
f 193 135 105
f 125 149 159
f 125 145 149
f 148 150 130
f 151 114 160
f 98 126 400
f 107 139 95
f 137 136 87
f 162 122 141
f 78 147 172
f 108 144 118
f 155 150 148
f 188 166 131
f 400 188 131
f 146 139 107
f 93 164 169
f 177 153 133
f 153 144 108
f 147 79 123
f 135 193 165
f 95 156 132
f 122 162 167
f 122 167 128
f 206 94 173
f 134 124 178
f 213 111 165
f 111 155 148
f 145 138 401
f 107 151 146
f 214 136 137
f 141 167 162
f 128 167 168
f 169 143 93
f 117 172 171
f 111 213 155
f 191 130 150
f 84 192 142
f 139 156 95
f 141 140 176
f 168 152 128
f 164 117 171
f 152 216 177
f 123 205 147
f 123 100 205
f 109 154 100
f 94 206 193
f 165 193 207
f 191 150 155
f 130 191 232
f 126 157 198
f 144 173 118
f 182 149 145
f 138 130 401
f 115 142 183
f 157 136 214
f 210 176 140
f 141 176 167
f 153 177 199
f 154 205 100
f 109 187 154
f 149 174 159
f 185 139 180
f 139 146 180
f 151 189 203
f 115 183 140
f 140 183 210
f 163 143 169
f 153 223 144
f 109 134 187
f 213 165 181
f 129 159 174
f 160 189 151
f 151 203 146
f 161 143 163
f 164 171 186
f 172 217 171
f 173 190 206
f 155 219 191
f 149 182 175
f 200 166 188
f 132 202 97
f 139 185 156
f 157 214 198
f 170 169 164
f 177 216 199
f 173 144 190
f 179 178 129
f 174 179 129
f 155 213 219
f 174 149 175
f 145 401 182
f 132 156 202
f 184 185 180
f 167 176 254
f 256 171 217
f 166 200 160
f 220 189 160
f 142 192 183
f 180 146 203
f 137 204 214
f 137 161 204
f 152 168 235
f 186 170 164
f 152 235 216
f 153 199 223
f 207 193 268
f 134 194 218
f 180 203 184
f 185 184 221
f 172 158 217
f 158 172 147
f 194 178 179
f 130 232 246
f 97 196 84
f 202 196 97
f 183 192 234
f 203 221 184
f 185 197 156
f 205 237 147
f 134 212 187
f 174 194 179
f 175 226 174
f 191 219 232
f 175 182 226
f 84 195 192
f 196 195 84
f 220 160 200
f 183 209 210
f 168 167 242
f 224 190 144
f 206 249 193
f 268 193 249
f 134 218 212
f 221 197 185
f 161 163 204
f 163 215 204
f 242 167 254
f 171 256 186
f 243 223 199
f 228 158 147
f 268 245 207
f 208 194 174
f 174 226 208
f 219 250 232
f 183 240 209
f 199 216 243
f 205 211 237
f 190 224 238
f 154 211 205
f 211 154 187
f 207 245 239
f 213 207 239
f 280 130 246
f 202 156 197
f 183 234 240
f 176 210 254
f 169 259 163
f 169 170 259
f 186 256 170
f 147 237 228
f 233 182 401
f 163 259 215
f 168 242 276
f 276 235 168
f 223 224 144
f 249 206 190
f 238 249 190
f 230 239 245
f 208 231 194
f 219 213 239
f 248 201 198
f 189 221 203
f 198 214 222
f 222 214 204
f 222 204 255
f 204 227 255
f 287 216 235
f 229 218 225
f 225 194 231
f 250 219 239
f 226 182 233
f 189 220 274
f 209 264 210
f 204 215 227
f 231 208 226
f 251 234 192
f 200 270 220
f 189 263 221
f 215 259 227
f 287 243 216
f 256 217 158
f 228 237 266
f 237 211 244
f 244 211 278
f 187 278 211
f 230 245 261
f 230 262 239
f 230 261 262
f 225 231 229
f 231 226 257
f 232 250 246
f 247 195 196
f 264 254 210
f 222 255 241
f 258 242 254
f 224 223 281
f 224 260 238
f 187 212 278
f 286 188 201
f 196 252 247
f 196 202 252
f 202 197 252
f 197 221 263
f 158 228 236
f 288 223 243
f 224 281 260
f 237 244 317
f 262 250 239
f 250 269 246
f 233 401 280
f 270 274 220
f 248 198 253
f 198 222 253
f 258 276 242
f 259 170 256
f 288 243 287
f 237 317 266
f 260 282 238
f 309 245 268
f 218 229 212
f 226 233 257
f 286 302 188
f 192 195 251
f 274 263 189
f 254 264 316
f 259 265 227
f 236 256 158
f 261 245 309
f 200 188 302
f 200 302 270
f 251 310 234
f 197 301 252
f 234 310 240
f 264 209 240
f 254 316 258
f 276 287 235
f 223 288 281
f 262 261 267
f 262 269 250
f 257 233 285
f 246 291 280
f 201 248 286
f 222 308 253
f 222 241 308
f 241 255 308
f 287 312 288
f 282 289 238
f 238 289 249
f 285 233 280
f 270 307 274
f 263 301 197
f 240 275 264
f 275 316 264
f 255 227 293
f 265 259 304
f 259 256 277
f 281 332 260
f 284 244 278
f 249 289 268
f 278 229 313
f 212 229 278
f 231 271 229
f 271 231 272
f 257 272 231
f 257 285 273
f 269 291 246
f 251 195 314
f 265 293 227
f 256 236 277
f 271 279 229
f 299 267 261
f 279 271 272
f 267 269 262
f 270 302 307
f 247 252 292
f 286 248 315
f 308 255 293
f 316 311 258
f 328 287 276
f 260 305 282
f 305 283 282
f 244 290 317
f 309 268 289
f 313 229 279
f 269 300 291
f 280 291 298
f 285 280 298
f 274 301 263
f 314 310 251
f 275 240 336
f 236 228 294
f 317 323 266
f 305 260 332
f 295 283 305
f 317 290 295
f 295 290 283
f 296 299 261
f 272 257 273
f 267 299 269
f 299 300 269
f 300 298 291
f 247 319 195
f 292 252 301
f 336 240 310
f 294 228 266
f 296 261 309
f 279 299 296
f 272 297 279
f 272 273 297
f 273 298 300
f 298 273 285
f 331 288 312
f 331 281 288
f 339 317 295
f 282 306 289
f 318 290 284
f 244 284 290
f 279 296 313
f 297 299 279
f 299 297 273
f 299 273 300
f 292 319 247
f 301 303 292
f 303 301 307
f 301 274 307
f 315 248 253
f 311 276 258
f 339 295 305
f 309 313 296
f 278 313 284
f 302 286 315
f 311 328 276
f 304 259 277
f 312 287 329
f 332 281 331
f 283 306 282
f 290 318 283
f 289 306 309
f 329 287 328
f 277 338 304
f 338 277 236
f 236 294 338
f 339 305 343
f 318 306 283
f 303 307 302
f 311 316 335
f 265 325 293
f 329 331 312
f 332 343 305
f 318 313 306
f 306 313 309
f 313 318 284
f 195 319 314
f 314 352 310
f 266 323 294
f 321 323 317
f 339 321 317
f 303 319 292
f 302 319 303
f 333 302 315
f 320 315 253
f 324 308 293
f 352 314 319
f 308 320 253
f 334 316 275
f 334 335 316
f 336 310 352
f 324 327 308
f 293 322 324
f 325 322 293
f 337 311 335
f 265 304 325
f 331 373 332
f 326 319 302
f 308 327 320
f 336 334 275
f 324 322 327
f 342 322 325
f 325 304 330
f 338 330 304
f 348 330 338
f 319 344 352
f 326 302 333
f 311 337 328
f 326 344 319
f 320 333 315
f 352 358 336
f 336 345 334
f 345 335 334
f 341 327 322
f 342 341 322
f 294 323 338
f 388 332 373
f 332 388 343
f 336 358 345
f 376 342 325
f 335 349 337
f 328 373 329
f 321 339 343
f 333 340 326
f 359 333 320
f 353 335 345
f 353 349 335
f 376 363 342
f 350 337 349
f 330 376 325
f 329 373 331
f 327 359 320
f 341 359 327
f 341 342 346
f 346 342 363
f 337 377 328
f 377 385 328
f 374 338 323
f 326 340 344
f 349 353 375
f 368 356 349
f 376 371 363
f 350 377 337
f 330 348 347
f 373 328 385
f 338 357 348
f 374 357 338
f 321 351 323
f 345 358 353
f 341 365 359
f 354 346 362
f 362 346 363
f 369 356 368
f 349 356 350
f 385 377 383
f 387 348 357
f 399 343 388
f 333 364 340
f 352 344 358
f 346 365 341
f 346 354 367
f 360 366 355
f 366 354 355
f 355 354 362
f 355 362 361
f 355 361 360
f 347 376 330
f 387 372 348
f 373 398 388
f 374 323 351
f 344 390 358
f 333 359 364
f 365 364 359
f 375 358 390
f 358 375 353
f 375 380 349
f 380 368 349
f 380 366 360
f 380 360 368
f 366 367 354
f 360 369 368
f 369 360 361
f 370 361 362
f 362 363 370
f 363 371 370
f 347 348 372
f 385 398 373
f 397 343 399
f 321 343 397
f 344 364 390
f 340 364 344
f 378 375 390
f 379 367 366
f 365 346 367
f 361 370 369
f 377 350 356
f 395 398 385
f 389 357 351
f 374 351 357
f 378 390 381
f 381 364 365
f 378 381 379
f 378 379 380
f 378 380 375
f 381 367 379
f 366 380 379
f 365 367 381
f 382 370 371
f 370 382 369
f 371 376 392
f 356 393 377
f 377 393 384
f 376 347 392
f 384 383 377
f 347 372 384
f 384 372 386
f 383 394 385
f 372 387 386
f 357 389 387
f 396 351 321
f 364 381 390
f 369 393 356
f 369 391 393
f 382 391 369
f 382 392 391
f 371 392 382
f 392 347 384
f 384 394 383
f 384 386 394
f 394 395 385
f 394 386 395
f 387 389 386
f 386 389 396
f 398 397 388
f 396 389 351
f 397 399 388
f 396 321 397
f 384 393 391
f 391 392 384
f 386 396 395
f 396 398 395
f 398 396 397
f 59 70 69
f 400 56 98
f 188 400 201
f 201 126 198
f 126 201 400
f 46 98 56
f 130 280 401
f 194 134 178
f 124 129 178
f 173 94 120
f 218 194 225
f 181 207 213
f 207 181 165

