#Obj File : Exported From RapidForm (INUS Technology Co. Ltd.)

mtllib CokePlasticLarge_800.mtl

v -12.553460 -92.998322 -32.813358
v -21.903677 -94.218384 -29.048836
v -23.686010 4.465818 -27.315170
v -13.213610 12.659819 -30.953436
v -15.150608 50.925220 -29.835169
v -13.340763 77.453705 -30.039875
v -14.290139 81.016380 -30.224852
v -16.630968 -75.949532 -31.201931
v -15.429562 -15.387180 -30.173326
v -14.937408 4.918550 -31.109667
v -23.358604 12.643475 -26.818720
v -24.192749 42.242355 -25.911345
v -22.191549 61.366459 -26.790001
v -25.781773 -83.219353 -26.839529
v -6.716491 2.303133 -32.687511
v -7.327020 50.857258 -31.401138
v -24.657404 78.352959 -25.044744
v -6.437499 -45.308674 -29.802032
v -28.287775 70.788719 -22.679226
v -32.877380 -94.036995 -20.610428
v -5.970301 -76.881187 -33.342197
v -23.933313 -73.597137 -27.354246
v -13.950672 -55.188766 -27.885885
v -29.748817 35.506004 -21.804386
v -35.068527 84.279533 -15.643790
v 3.336375 76.721786 -30.928490
v -28.720530 81.557106 -22.331017
v -27.424795 92.623283 -19.788708
v -12.965944 -106.085381 -28.336542
v -3.775245 -83.090179 -33.649277
v -22.974939 -37.820724 -24.820639
v 1.034682 3.471643 -32.907421
v -29.112230 4.597521 -23.369005
v -2.332844 7.681770 -32.091301
v -23.510309 82.508049 -26.495522
v -24.005384 -103.949020 -24.506744
v -32.030811 -103.742950 -17.558672
v -30.858902 -78.064568 -23.174004
v -27.606007 -56.377377 -20.560295
v -21.960655 -54.714390 -24.543755
v -11.278073 91.302460 -28.465170
v -3.331900 -102.566811 -31.368124
v -0.169445 -94.812607 -33.374908
v 7.478443 -79.203850 -32.544594
v -5.745063 -60.288292 -30.232021
v 1.092737 -73.170891 -32.952415
v -29.223057 -14.575782 -22.729908
v -3.178924 81.606529 -31.527309
v 0.123521 -53.148537 -29.243608
v -32.392876 12.457492 -19.596020
v -39.759666 -96.221817 -9.797915
v -32.896088 -54.050060 -14.221208
v -36.833111 4.204803 -15.385673
v -5.066122 -113.304245 -24.962681
v -37.079865 -77.902321 -15.830437
v -38.200714 39.654968 -11.240976
v 1.777959 91.178314 -28.923557
v -36.973389 -54.761795 -7.246219
v 9.496224 2.706014 -31.184597
v -36.856667 6.691580 -13.531837
v -25.415747 -113.245026 -15.707472
v 5.760376 -104.991936 -29.085100
v -40.676353 -78.206375 -8.731979
v -39.331478 81.048065 -8.559526
v 12.238643 -94.981483 -30.556116
v 8.266738 -54.720768 -27.687922
v 8.604871 80.635437 -29.769978
v -7.293307 126.820602 -15.772374
v -19.251894 -113.173325 -15.334686
v -41.196056 6.505476 -4.635711
v -30.127781 -113.827812 -5.686244
v -24.961708 127.109558 -3.145432
v -42.609528 -77.820076 -2.473184
v -40.471581 -72.640442 -5.132651
v 6.889894 -112.346359 -24.504669
v 15.855745 -54.450058 -24.479280
v 18.130306 -10.230368 -26.369928
v -41.398304 3.776452 -6.137649
v -42.705139 37.070263 2.276621
v 11.945582 7.671642 -29.267937
v 19.950333 82.074730 -24.056866
v -16.437410 -107.501488 -9.321705
v -38.877998 -54.634529 -1.417211
v 19.685482 6.470789 -25.143702
v -38.311493 93.756218 -2.805833
v 12.370108 92.592316 -25.439934
v -2.958532 -113.253647 -20.513681
v 15.488033 -103.946098 -25.984859
v -15.650041 134.611740 -9.282995
v -27.763536 -113.200356 -3.726418
v -40.646507 -103.931740 3.896909
v -43.212975 3.251636 -0.941995
v -42.455330 81.495117 1.358396
v -7.555341 -108.038254 -14.180573
v 17.542219 -77.192451 -28.192511
v -42.995213 77.847443 9.448851
v -40.827080 91.381866 8.473021
v 2.220528 124.682770 -16.385918
v -33.109066 -112.027069 -6.440277
v -7.000291 159.458511 -9.361811
v -3.034093 161.228638 -9.631494
v 22.794388 -94.733727 -24.039976
v 20.259121 -74.536850 -25.027510
v 22.122787 94.272659 -18.295439
v -13.615589 160.403442 -7.048034
v -19.947723 159.519638 0.109892
v -43.019257 8.136880 5.097556
v -17.648779 152.244125 5.665446
v -22.943218 -107.927315 -0.207353
v -8.338162 -101.219650 -3.228145
v -43.715916 -93.595795 4.183243
v -43.322235 -74.926239 5.400496
v -4.474652 156.859787 -4.836475
v -18.572130 161.015732 -1.581992
v -6.725726 163.105148 -6.046515
v 21.189547 -54.120415 -20.387527
v 27.611322 78.046104 -17.083521
v -27.154575 129.607056 9.109655
v 4.519225 159.580368 -7.783279
v -12.865623 162.988312 -2.873980
v -9.453382 165.454544 -4.213903
v -8.235407 169.898071 -4.657355
v -43.114513 80.609016 14.301318
v -0.902017 152.957184 -5.210114
v -7.845102 153.466202 -4.074000
v -8.729826 174.958679 -4.297755
v -30.675604 -113.977104 6.481541
v -39.867397 -54.776375 5.366736
v -1.733897 169.745529 -5.684991
v -17.454439 163.364822 2.876480
v -14.891695 169.674606 -0.040468
v -13.713371 173.872803 -1.286489
v -4.883627 181.942947 -4.974108
v 24.316608 -103.984802 -18.762123
v -42.957294 -76.175247 14.725989
v 24.562286 4.000861 -22.574385
v -13.890520 182.055023 -0.184495
v -42.466064 23.161486 14.859884
v 10.421243 121.211166 -14.670258
v -14.037852 153.192566 -0.252074
v -14.751140 156.838303 1.248968
v 3.870231 170.108002 -4.041290
v 1.731644 156.949356 -4.158954
v -35.209240 -112.866386 6.331144
v -43.346291 1.796919 15.973676
v 26.963446 -54.652924 -14.020699
v -42.955574 49.100533 10.997316
v 5.444399 152.618591 -2.558256
v -17.976303 169.570557 6.620324
v 17.023657 -113.816895 -15.264152
v 18.524248 -112.074745 -17.831083
v 25.094492 -75.562965 -22.262375
v 28.083342 7.503875 -17.347723
v 26.487072 49.485012 -18.835052
v 17.695801 121.128304 -8.824311
v -16.416788 182.921173 3.962977
v 13.252895 -113.049599 -14.388947
v -28.470213 -113.491631 14.931317
v 1.467314 -103.041473 -7.518709
v 28.797949 -10.546938 -16.594927
v 29.003584 59.907810 -15.585987
v -22.666212 160.012909 7.728176
v 11.056070 159.596588 -2.973792
v -14.896608 -101.743484 8.656931
v -12.896528 -101.036575 2.613341
v -41.540100 70.300331 19.289846
v 6.880672 157.225510 -0.493412
v 4.976187 182.656097 -2.443133
v 29.202795 -88.091682 -18.288767
v -39.396225 -55.820194 14.857652
v -38.461773 92.621742 20.534601
v -26.986099 127.360130 15.899323
v 30.294477 82.498001 -14.602493
v -17.310978 156.801743 8.355070
v -21.417170 159.400024 14.920487
v -17.668974 181.374985 7.784347
v -41.278313 6.618119 20.015007
v 25.059298 -112.578453 -9.043548
v 0.156126 -99.537437 3.799251
v -40.277225 19.020559 22.630859
v -41.080624 38.192333 20.861567
v 33.007149 62.921898 -8.669504
v -18.036612 171.017014 12.937124
v -7.780109 183.705597 0.308735
v -39.266331 -104.211563 16.589005
v -37.716721 -54.597427 18.573765
v 34.647343 3.531505 -8.459000
v 14.431341 159.487610 3.854195
v -32.580685 -113.844490 16.341103
v -41.564217 -93.486008 19.963438
v -3.726170 -101.851532 7.645510
v 9.418861 153.370285 2.539071
v 33.709038 81.530495 -8.255070
v 30.550327 95.747368 -4.516666
v -17.156780 152.672394 12.602913
v 9.860830 169.678925 2.327048
v 31.751942 -103.725533 -6.984315
v 30.665535 -95.852249 -14.673772
v 10.131242 157.691727 4.253163
v -17.663765 168.907349 11.900836
v -17.028372 182.075989 13.323442
v 9.444381 180.970856 2.936118
v -3.272665 184.284424 8.442518
v -8.355638 -99.685936 8.371299
v 33.845093 -76.692101 -9.948364
v 32.864761 12.720028 -9.862771
v -20.154057 160.876663 17.297100
v -21.936224 -106.965096 12.658467
v -40.732960 2.355616 24.003239
v 8.765033 -102.332909 0.781312
v -38.081322 7.321655 27.557211
v 33.870716 28.661392 -7.528892
v 22.977703 -113.436928 0.634077
v -2.863410 -99.723694 12.283094
v 34.174107 78.904579 -5.255875
v -40.426811 -77.740601 23.115973
v 30.855198 -54.095631 -6.012436
v -39.068119 60.721104 25.839424
v -39.966415 81.029091 24.566187
v -17.826645 159.304962 21.437454
v 5.338420 183.949417 6.451357
v -35.242043 47.729660 32.283642
v -16.419922 162.529312 17.684778
v -13.054963 182.565933 20.006828
v 35.675468 -95.057671 -3.966274
v 11.280880 152.423340 9.228473
v 11.796245 169.188141 10.488156
v -29.920771 -112.664932 24.582382
v -33.733475 -105.530373 27.145050
v -11.013278 -102.092323 16.177691
v -13.704855 153.051865 18.944256
v 17.646654 136.407043 3.733080
v -14.557005 156.902252 17.728878
v 35.876324 -75.206078 -2.663490
v -37.861595 75.139671 28.454405
v 10.891791 156.866257 12.641897
v 27.898119 -113.562836 2.314512
v 36.099014 58.808468 0.549627
v 12.110449 163.064651 6.777457
v -14.046350 169.462631 19.701973
v 10.942090 182.042938 8.950804
v 6.132238 -101.364456 11.896736
v 37.228382 -86.942200 1.672365
v -36.856201 -54.874725 22.416018
v -36.605049 82.476440 31.458426
v 35.081665 5.402323 -4.316992
v 15.084339 159.320053 13.179784
v -13.573135 -107.954910 24.463865
v -35.604641 -79.323257 32.019215
v -8.103523 156.641541 22.381020
v -9.036863 170.330063 23.467428
v 13.206237 -105.300499 11.087561
v 36.932087 6.710793 7.419436
v 36.486469 84.121132 2.007452
v 9.865833 169.523056 16.743279
v 10.061979 182.697433 14.192180
v -35.889900 3.213893 32.539059
v 11.200866 162.953949 15.430698
v 6.863268 182.028473 19.862846
v -6.474026 152.731796 23.120977
v -34.462036 -95.868233 32.037041
v -23.946442 121.159134 26.587605
v -13.103293 161.249603 24.012711
v -30.295347 81.165314 38.389256
v -1.043109 156.961288 23.074623
v 6.456779 156.790253 19.494173
v 18.932964 133.932053 12.819510
v -0.386533 152.931335 23.210154
v 9.037900 152.059418 17.684978
v 11.051329 159.852356 22.326481
v -4.144711 169.184464 24.518724
v 2.832238 168.380112 22.291544
v -2.109372 182.860306 23.609795
v -21.451965 -114.002914 26.891064
v -32.200428 -55.123920 29.961599
v 5.049337 170.494537 22.112238
v 33.346519 -52.160217 1.262967
v 37.106792 3.324899 -0.429795
v -10.544921 159.325516 26.950439
v -4.279288 160.803482 27.999289
v 36.899979 80.957436 10.310601
v -14.266222 133.431305 28.530554
v 1.618830 159.356903 27.298979
v 36.677822 -72.365677 6.412356
v 28.184608 -112.266754 14.971509
v -2.364985 -105.624062 24.443462
v -27.374077 -55.203148 35.134491
v 21.907734 -113.799744 15.393109
v -28.682632 -74.193642 38.000530
v 34.377903 -61.419140 7.457956
v -29.449844 0.336285 39.034298
v -31.012205 76.967224 37.261932
v 4.389105 160.643463 26.593941
v -30.872381 6.756083 37.080410
v 5.607029 -103.563431 18.801399
v 34.401073 -103.770485 7.833090
v -24.498285 80.585365 42.444462
v -24.279621 93.058990 39.254520
v -27.698853 -86.023636 39.606144
v -26.916367 54.968861 40.550659
v 36.058331 84.456146 15.924165
v 12.842376 127.629929 27.953936
v 23.220791 -114.128883 22.868242
v -24.434443 -103.990166 37.865047
v -21.712845 -55.131760 39.364876
v 17.189516 -113.734055 23.292183
v 36.800022 -78.209831 15.292152
v 37.287964 3.000286 14.832032
v -23.011061 -114.053749 30.679657
v -24.003677 -97.220284 40.684231
v 36.968334 -92.681068 13.051216
v 32.741486 -55.613464 15.257712
v 10.225575 -113.591805 29.133482
v -15.588869 82.385712 47.087582
v 3.496828 131.595657 31.130878
v 33.589046 81.589767 23.959341
v -9.327058 -113.279297 38.327530
v 32.175613 -103.743233 19.489756
v -18.753330 -90.289078 44.612194
v -23.583128 -74.984230 42.021484
v 35.661499 -81.863220 18.587992
v 30.475969 -54.400112 22.358397
v -22.931023 1.018987 43.803585
v 34.436695 5.956520 21.663666
v -7.370222 125.833778 33.971161
v -3.500069 -114.114723 33.668613
v -21.553064 7.107685 43.448715
v 29.235523 95.574692 25.563705
v 1.668210 -114.096405 37.369671
v -12.204319 -103.506340 43.534561
v 16.002716 94.019653 40.052483
v 13.717878 -113.884872 33.281208
v 33.970348 -76.572556 23.061970
v 24.733057 -106.773849 29.615995
v 34.793690 1.044004 22.659775
v -14.305002 -55.577324 42.434837
v -18.557886 75.887245 45.401035
v 29.870613 2.806638 32.231205
v 30.043791 81.072929 31.011667
v 25.259235 -55.235874 30.612616
v -12.194708 6.702888 46.913563
v -14.952268 -74.943047 45.658806
v -11.838751 3.749102 47.965172
v 27.300568 -98.570190 32.132915
v 31.431652 -91.380402 28.474859
v 28.752905 50.249126 32.865746
v -3.384508 95.644829 44.932285
v 23.435286 83.260696 38.614799
v -6.739020 -54.586330 44.045628
v -8.681486 -94.965988 46.696690
v -3.068817 -55.281769 43.619583
v 28.924555 -76.203346 31.720062
v -2.122634 -9.905612 47.800468
v -4.900090 81.242905 48.358875
v -6.776170 -80.347054 47.788090
v -2.898886 -77.002304 46.836102
v 0.084589 -55.501389 44.069267
v 20.826874 -55.245235 35.191410
v 28.320702 6.904989 32.732197
v -7.631359 75.528809 48.224915
v 25.386429 76.817520 36.379517
v 9.095532 -106.248482 41.036694
v 18.886393 -102.180496 37.998344
v 8.848707 -54.444836 42.089165
v 4.943830 3.895005 48.124302
v 22.899061 2.479571 39.306484
v 19.852577 10.537923 41.028652
v 19.799810 35.811455 41.072838
v 0.992729 -100.893425 45.484272
v 1.400899 -88.717560 47.352650
v 0.842607 -76.127769 47.369068
v -3.023201 6.879288 47.908894
v 4.205779 73.584106 47.732555
v 19.580286 63.383266 41.411713
v 1.203391 81.244331 48.385235
v 22.161558 -74.903252 38.040272
v 16.257843 -52.615047 38.746014
v 18.257477 76.637527 42.089287
v 16.180046 80.701294 44.105091
v 10.598261 -95.287460 44.700729
v 19.878565 -88.021294 40.717117
v 17.439722 -70.740532 40.906910
v 11.541445 63.632462 45.661892
v 11.016900 76.976814 45.687531
v 10.513337 -78.177864 45.301311
v 5.639581 10.146590 47.105259
v 9.477655 82.867844 46.942024
v 16.743227 3.354088 43.754246
v -10.507011 157.933411 -3.083539
v -14.994143 -113.403587 -22.345501
v -38.761253 -102.332062 -7.211620
v 15.784416 160.814423 7.892143
v 6.172391 161.141006 -7.214674
v 13.368423 161.157043 0.321877
v 14.279124 161.084122 16.426498
v 7.703672 163.510651 -1.862807
v 7.562694 163.200134 20.524599
v -0.628184 163.258911 -6.151469
v -1.599261 163.225906 24.410566
v -18.756834 162.627792 10.428743
v -7.215144 163.360214 24.054501
v -12.103041 163.750443 21.633123

g Merge_1
usemtl Merge_1
s

f 38 14 2
f 1 2 8
f 2 14 22
f 2 22 8
f 47 3 9
f 9 3 10
f 4 11 12
f 4 12 5
f 12 13 5
f 5 13 6
f 13 19 17
f 13 17 6
f 17 35 7
f 17 7 6
f 17 27 35
f 41 7 35
f 20 38 2
f 31 47 9
f 3 47 33
f 10 3 4
f 3 33 11
f 4 3 11
f 11 24 12
f 13 12 19
f 6 7 48
f 41 48 7
f 20 2 36
f 30 1 21
f 1 8 21
f 14 38 22
f 9 10 15
f 15 10 34
f 34 10 4
f 33 50 11
f 11 50 24
f 4 5 16
f 5 6 16
f 29 36 2
f 29 2 1
f 21 8 23
f 8 22 23
f 18 9 15
f 47 53 33
f 34 4 16
f 12 24 19
f 19 25 17
f 27 17 25
f 27 28 35
f 36 37 20
f 43 1 30
f 38 39 22
f 22 40 23
f 40 31 23
f 23 31 9
f 25 19 24
f 16 6 26
f 26 6 48
f 28 27 25
f 29 1 42
f 1 43 42
f 23 45 21
f 22 39 40
f 18 23 9
f 33 53 60
f 60 50 33
f 56 24 50
f 24 56 25
f 26 34 16
f 20 55 38
f 38 55 39
f 40 39 31
f 47 31 39
f 18 15 32
f 15 34 32
f 60 56 50
f 43 30 44
f 30 46 44
f 30 21 46
f 45 23 18
f 47 39 52
f 26 48 67
f 55 52 39
f 18 49 45
f 67 48 57
f 48 41 57
f 41 35 89
f 29 42 54
f 20 37 51
f 55 20 51
f 46 21 49
f 21 45 49
f 49 18 32
f 53 47 52
f 60 53 78
f 61 36 390
f 390 36 29
f 49 32 59
f 53 52 58
f 80 32 34
f 68 57 41
f 54 390 29
f 65 43 44
f 80 34 26
f 70 56 60
f 64 25 56
f 41 89 68
f 52 55 58
f 32 80 59
f 25 64 85
f 35 28 89
f 42 43 62
f 65 62 43
f 58 55 63
f 66 46 49
f 66 49 59
f 78 53 58
f 67 57 86
f 99 37 61
f 42 75 54
f 42 62 75
f 55 51 63
f 66 44 46
f 60 78 70
f 63 73 74
f 56 93 64
f 64 93 85
f 89 28 25
f 390 69 61
f 87 69 390
f 95 65 44
f 111 63 51
f 79 56 70
f 80 26 67
f 72 25 85
f 57 68 98
f 73 63 111
f 74 58 63
f 78 92 70
f 71 99 61
f 88 62 65
f 74 83 58
f 83 78 58
f 59 76 66
f 79 70 107
f 89 25 72
f 69 71 61
f 54 87 390
f 83 74 73
f 66 95 44
f 80 84 59
f 56 79 93
f 86 81 67
f 91 51 391
f 78 83 92
f 59 84 77
f 86 57 98
f 87 94 69
f 82 69 94
f 62 88 75
f 77 76 59
f 80 67 81
f 99 91 391
f 51 91 111
f 84 80 81
f 85 93 97
f 90 69 82
f 73 112 83
f 95 66 76
f 128 92 83
f 98 139 86
f 69 90 71
f 95 102 65
f 73 111 112
f 112 128 83
f 140 89 72
f 71 144 99
f 102 88 65
f 70 92 107
f 97 118 85
f 54 157 87
f 109 90 82
f 102 95 152
f 116 103 95
f 79 147 93
f 81 86 104
f 98 68 124
f 144 71 127
f 75 150 54
f 94 87 159
f 95 103 152
f 95 76 116
f 77 116 76
f 128 145 92
f 96 93 147
f 68 89 125
f 105 101 100
f 157 159 87
f 144 91 99
f 77 84 136
f 81 154 84
f 104 86 139
f 85 108 72
f 114 120 105
f 71 90 127
f 75 88 151
f 152 169 102
f 77 136 116
f 124 68 125
f 105 100 389
f 105 106 114
f 103 116 152
f 81 117 154
f 105 141 106
f 119 100 101
f 150 75 151
f 88 134 151
f 94 110 82
f 110 94 159
f 153 136 84
f 107 138 79
f 123 93 96
f 118 108 85
f 139 98 124
f 113 389 100
f 111 135 112
f 136 160 116
f 92 145 107
f 93 123 97
f 72 108 140
f 105 389 141
f 119 101 393
f 120 121 115
f 122 131 132
f 122 132 126
f 102 134 88
f 84 154 153
f 154 117 161
f 125 89 140
f 113 124 125
f 125 140 389
f 125 389 113
f 143 113 100
f 100 119 143
f 115 121 129
f 129 398 115
f 121 120 122
f 121 122 129
f 120 131 122
f 122 126 129
f 132 137 126
f 126 137 133
f 150 157 54
f 90 109 127
f 79 138 147
f 81 173 117
f 155 104 139
f 140 141 389
f 162 114 106
f 120 130 131
f 126 133 129
f 165 109 82
f 145 177 107
f 123 171 97
f 131 156 132
f 137 132 156
f 208 127 109
f 110 165 82
f 111 190 135
f 135 128 112
f 147 166 96
f 124 113 143
f 149 131 130
f 129 133 168
f 184 137 156
f 137 184 133
f 91 185 111
f 128 170 145
f 107 177 138
f 108 141 140
f 156 131 149
f 129 168 142
f 102 169 198
f 135 170 128
f 138 181 147
f 147 181 166
f 81 104 173
f 97 172 118
f 148 139 124
f 108 174 141
f 141 174 106
f 129 396 398
f 133 184 168
f 185 91 144
f 102 198 134
f 111 185 190
f 116 160 146
f 172 97 171
f 396 129 142
f 149 176 156
f 164 109 165
f 177 180 138
f 143 148 124
f 174 162 106
f 151 134 178
f 96 166 235
f 123 219 171
f 148 155 139
f 119 167 143
f 167 119 163
f 119 393 163
f 400 149 130
f 178 150 151
f 127 208 158
f 146 152 116
f 136 153 187
f 193 117 173
f 183 176 149
f 221 168 184
f 144 189 185
f 164 208 109
f 235 123 96
f 235 219 123
f 104 155 173
f 192 155 148
f 118 195 108
f 148 143 167
f 162 174 175
f 400 200 149
f 176 201 156
f 159 157 210
f 135 190 216
f 160 136 187
f 166 181 218
f 108 195 174
f 168 196 142
f 221 184 203
f 127 189 144
f 204 110 179
f 110 159 179
f 152 146 205
f 135 186 170
f 170 186 145
f 153 154 206
f 161 117 182
f 207 400 162
f 196 396 142
f 183 149 200
f 150 213 157
f 165 110 204
f 135 216 186
f 138 180 181
f 148 167 192
f 162 175 207
f 183 201 176
f 134 197 178
f 134 198 197
f 160 187 146
f 212 154 161
f 196 168 202
f 156 201 224
f 184 156 203
f 158 189 127
f 237 213 150
f 178 237 150
f 169 152 205
f 186 244 145
f 177 145 209
f 212 206 154
f 117 193 215
f 118 172 195
f 400 223 200
f 157 213 210
f 210 179 159
f 216 244 186
f 146 217 205
f 145 244 209
f 177 209 211
f 173 155 194
f 192 232 155
f 195 233 174
f 163 188 167
f 163 394 188
f 400 207 223
f 203 156 224
f 117 215 182
f 174 233 175
f 240 183 200
f 204 164 165
f 179 191 204
f 169 205 225
f 212 161 182
f 172 171 262
f 167 199 192
f 167 188 199
f 185 189 228
f 185 229 190
f 169 225 198
f 173 194 193
f 172 231 195
f 195 231 233
f 166 218 235
f 155 232 194
f 233 220 175
f 200 223 240
f 202 241 196
f 183 224 201
f 241 168 221
f 168 241 202
f 203 224 273
f 164 230 208
f 244 257 209
f 153 206 246
f 177 211 180
f 181 222 218
f 172 262 231
f 192 199 226
f 199 236 226
f 396 196 239
f 158 274 189
f 146 187 217
f 209 257 211
f 246 187 153
f 180 222 181
f 171 245 262
f 175 220 207
f 185 228 229
f 191 214 204
f 191 179 214
f 197 198 225
f 219 245 171
f 196 227 239
f 183 240 224
f 196 241 227
f 179 210 242
f 205 217 234
f 244 275 257
f 180 211 222
f 182 215 238
f 215 193 194
f 199 188 236
f 274 158 208
f 230 164 204
f 190 229 261
f 190 249 216
f 235 292 219
f 188 394 392
f 190 261 249
f 212 182 238
f 254 194 232
f 226 232 192
f 207 220 263
f 223 207 263
f 241 221 256
f 221 203 273
f 237 178 197
f 252 242 210
f 215 194 254
f 220 233 279
f 240 223 402
f 274 208 248
f 210 213 252
f 230 204 214
f 214 179 242
f 244 216 249
f 217 187 278
f 206 212 246
f 231 250 233
f 220 279 263
f 230 248 208
f 225 205 234
f 244 249 275
f 217 277 234
f 217 278 277
f 187 246 278
f 218 222 235
f 219 292 245
f 226 236 269
f 233 250 279
f 188 247 236
f 258 239 227
f 224 240 251
f 225 234 243
f 294 222 211
f 238 215 281
f 215 254 281
f 231 262 282
f 231 282 260
f 188 392 247
f 240 402 251
f 227 241 256
f 274 309 189
f 189 309 228
f 197 225 296
f 235 222 292
f 260 250 231
f 247 392 395
f 221 273 256
f 197 296 237
f 211 257 294
f 246 253 278
f 246 212 253
f 212 238 253
f 267 254 232
f 267 232 226
f 227 255 258
f 402 401 251
f 286 248 230
f 214 286 230
f 242 295 214
f 267 226 269
f 256 255 227
f 273 224 251
f 229 228 309
f 290 284 234
f 234 277 290
f 259 255 256
f 264 245 292
f 251 401 271
f 271 273 251
f 256 273 259
f 295 286 214
f 234 284 243
f 292 222 300
f 260 265 250
f 260 268 265
f 266 269 236
f 270 266 236
f 401 399 271
f 258 255 397
f 237 303 213
f 213 288 252
f 229 304 261
f 298 262 245
f 265 279 250
f 247 270 236
f 279 280 263
f 276 255 259
f 304 229 309
f 252 295 242
f 249 261 299
f 275 291 257
f 222 294 300
f 325 260 282
f 269 266 268
f 266 265 268
f 270 247 395
f 399 272 271
f 397 255 272
f 271 272 276
f 255 276 272
f 276 273 271
f 276 259 273
f 245 264 298
f 265 283 279
f 397 272 399
f 225 311 296
f 311 225 243
f 249 299 289
f 249 289 275
f 287 275 289
f 275 287 291
f 277 278 308
f 294 257 291
f 238 281 253
f 264 292 337
f 281 254 301
f 301 254 267
f 269 268 302
f 280 279 283
f 397 270 395
f 299 261 310
f 243 284 307
f 282 262 298
f 315 302 268
f 266 283 265
f 270 283 266
f 303 288 213
f 326 274 248
f 285 237 296
f 261 304 310
f 243 307 311
f 278 253 308
f 283 293 280
f 252 288 306
f 252 306 295
f 277 312 290
f 264 337 297
f 298 264 297
f 328 267 269
f 325 268 260
f 270 293 283
f 326 309 274
f 312 277 308
f 304 309 317
f 248 286 326
f 290 312 284
f 287 305 291
f 325 315 268
f 329 317 309
f 237 285 303
f 313 286 295
f 289 305 287
f 291 305 323
f 292 300 337
f 314 282 298
f 285 296 318
f 289 299 320
f 320 305 289
f 267 328 301
f 302 328 269
f 323 305 336
f 291 323 294
f 327 294 323
f 294 327 300
f 253 281 324
f 314 325 282
f 306 313 295
f 317 330 304
f 305 320 336
f 310 319 299
f 307 284 312
f 281 301 324
f 314 298 297
f 318 296 311
f 321 311 307
f 320 299 319
f 308 253 324
f 326 329 309
f 286 313 326
f 318 303 285
f 304 330 310
f 322 312 335
f 337 300 327
f 337 314 297
f 320 342 336
f 308 335 312
f 316 301 328
f 347 315 325
f 288 303 306
f 319 310 330
f 312 321 307
f 321 312 322
f 323 343 327
f 324 301 316
f 303 313 306
f 342 320 319
f 324 335 308
f 314 347 325
f 313 303 326
f 343 323 336
f 327 343 341
f 324 316 346
f 331 302 315
f 333 321 322
f 337 327 341
f 332 329 326
f 303 332 326
f 318 334 303
f 345 318 311
f 321 345 311
f 330 350 319
f 345 321 333
f 347 387 315
f 344 334 318
f 335 338 322
f 329 369 317
f 332 303 334
f 355 342 319
f 343 336 349
f 324 338 335
f 316 339 346
f 314 337 360
f 318 345 344
f 350 355 319
f 322 352 333
f 322 338 340
f 359 338 324
f 341 360 337
f 339 316 328
f 387 331 315
f 362 329 332
f 362 369 329
f 317 369 330
f 352 345 333
f 340 352 322
f 355 336 342
f 349 336 355
f 360 354 314
f 354 347 314
f 302 348 328
f 348 302 331
f 332 334 363
f 330 369 350
f 358 340 338
f 351 353 349
f 343 349 353
f 341 343 372
f 346 359 324
f 372 360 341
f 363 334 344
f 356 351 355
f 355 351 349
f 357 353 351
f 328 348 339
f 332 363 362
f 357 365 353
f 365 357 364
f 353 372 343
f 360 372 373
f 361 346 339
f 375 347 354
f 350 370 355
f 351 356 371
f 357 351 371
f 376 352 358
f 352 340 358
f 377 358 366
f 360 373 354
f 373 375 354
f 375 387 347
f 350 369 370
f 356 355 371
f 371 364 357
f 382 358 377
f 366 358 338
f 353 365 372
f 359 366 338
f 359 346 367
f 368 346 374
f 346 361 374
f 361 339 348
f 352 381 345
f 370 371 355
f 358 382 376
f 364 385 382
f 364 382 377
f 386 373 372
f 367 346 368
f 374 361 378
f 348 378 361
f 362 363 380
f 380 369 362
f 344 345 381
f 385 371 370
f 366 359 367
f 383 373 386
f 373 387 375
f 384 387 373
f 363 344 381
f 369 380 370
f 376 381 352
f 381 376 382
f 385 364 371
f 364 377 388
f 364 388 365
f 388 377 366
f 366 367 388
f 372 365 386
f 383 367 368
f 368 374 383
f 373 383 384
f 374 378 383
f 383 378 384
f 378 379 384
f 384 379 387
f 348 379 378
f 348 331 379
f 379 331 387
f 363 381 380
f 370 380 385
f 388 367 365
f 365 367 386
f 367 383 386
f 381 385 380
f 385 381 382
f 99 391 37
f 61 37 36
f 391 51 37
f 130 162 400
f 293 270 397
f 114 162 130
f 293 399 280
f 101 105 398
f 392 394 239
f 258 397 395
f 392 239 395
f 393 396 394
f 393 394 163
f 395 239 258
f 293 397 399
f 394 396 239
f 130 120 114
f 120 115 105
f 115 398 105
f 398 393 101
f 393 398 396
f 399 263 280
f 263 399 401
f 401 402 263
f 223 263 402

