#Obj File : Exported From RapidForm (INUS Technology Co. Ltd.)

mtllib ShowerGel_800.mtl

v 9.854622 -35.397198 -37.125336
v 3.026632 -34.937099 -37.742336
v 5.509226 -16.699980 -37.874046
v 16.714251 -34.182861 -36.192764
v 1.240675 -1.735422 -36.256054
v 11.629109 -34.484894 -38.090744
v 8.178976 3.726303 -36.666191
v 15.440163 -4.404544 -35.253689
v 0.865024 -34.180981 -36.378517
v 22.271965 -34.899902 -32.072975
v 19.057304 -22.568670 -34.515625
v 1.814489 19.425470 -35.394890
v 2.271021 -36.086681 -33.145451
v -0.872139 32.576153 -33.206223
v 19.760685 -36.057499 -31.708755
v 23.313461 -32.984150 -30.612062
v -6.568202 41.856255 -26.152222
v 18.144672 16.999014 -32.275169
v 10.926958 32.080193 -33.549728
v 23.139072 -3.516833 -30.310289
v 6.990150 58.928268 -31.291901
v 6.012010 81.461823 -27.358829
v 10.587130 117.176170 -29.287477
v 23.588594 26.266756 -26.872702
v -1.105331 60.126118 -30.785500
v 7.795194 105.424232 -27.545469
v 14.404348 114.900818 -27.181194
v 8.724149 124.075691 -29.511992
v 11.684461 124.140198 -29.060207
v 11.939048 -35.440853 -32.178337
v -3.516491 -26.999460 -31.181721
v 24.235968 -23.204498 -22.589634
v -3.079822 50.461807 -30.298845
v 4.224753 115.717384 -28.747086
v 9.904185 128.172852 -28.210567
v 13.216746 128.043365 -26.996151
v -3.115535 -35.274490 -13.115316
v 21.791597 32.109249 -28.251108
v -4.010130 65.195618 -28.599894
v 0.503482 85.016190 -26.881218
v 10.498856 79.179405 -26.790079
v 3.405392 101.223030 -26.898624
v 8.569997 95.324234 -26.661486
v 4.757747 123.967155 -28.765387
v 8.300080 135.167465 -27.528387
v 11.358581 134.951752 -26.978642
v 14.280421 150.365036 -26.579247
v 12.176647 155.010986 -26.515369
v 24.324808 -3.377339 -23.956415
v 15.715043 124.497749 -26.814606
v 1.093905 151.350891 -24.968168
v 7.793720 154.537537 -26.959082
v 24.234808 -17.697002 -23.917805
v 16.584673 79.855125 -23.997395
v 14.658393 89.607399 -24.167614
v 14.447569 100.659172 -24.646662
v 17.796946 117.387955 -24.511503
v 3.792775 128.335571 -26.871880
v 17.381943 128.446518 -23.171139
v 17.384857 60.365200 -27.506620
v -0.351814 102.204292 -25.833536
v 17.838188 105.831711 -22.385864
v 16.046402 134.748795 -23.897438
v 10.763306 155.587784 -26.119101
v -4.207197 -6.526716 -30.175964
v -10.210579 11.155500 -20.898928
v 23.886885 -7.339318 -25.963104
v -7.767819 53.423004 -24.077209
v -4.180507 87.376801 -25.072317
v -1.494294 122.788231 -25.378088
v 18.741617 125.494202 -22.472919
v 24.575434 -10.416923 -16.522371
v -6.569910 98.106010 -22.306383
v 2.315218 154.938522 -24.741264
v -5.594506 -33.968441 -27.318840
v 21.339483 82.142509 -19.521532
v -1.923473 149.162689 -22.859474
v 24.666529 -6.019377 -17.462513
v -9.757111 22.786911 -21.575628
v 23.823812 59.743595 -21.982645
v 18.558409 93.109497 -21.100779
v 2.734676 133.998474 -25.480328
v 2.837410 155.332031 -23.852686
v 17.277643 155.176468 -21.987509
v 14.209511 -35.184868 -9.881331
v 24.280386 -27.746122 -23.064827
v 24.464415 2.370156 -21.369904
v 13.284506 155.107986 -21.992273
v 24.321924 -18.654236 -16.036802
v -10.303446 -9.972266 -20.314676
v 24.056372 -7.408134 -14.194561
v 24.528595 -3.868842 -14.623347
v -9.486878 75.553375 -20.593294
v -9.731453 100.890259 -18.868914
v -8.576262 66.346977 -22.223425
v 19.814505 150.622849 -17.514404
v 18.290155 155.444473 -16.160616
v -12.190443 -34.066864 -13.696749
v -10.528744 60.439095 -19.680593
v 21.143661 100.631798 -17.045851
v 7.961651 -34.532890 -24.449118
v -2.361981 127.971275 -22.476803
v -4.112869 132.574982 -19.683893
v 20.006680 154.238037 -14.070215
v 21.546982 -36.239544 -26.576258
v -3.591843 155.532120 -19.418224
v -7.813979 123.254234 -18.272062
v 22.844650 104.546021 -11.720575
v 20.465305 122.386185 -19.013138
v 21.399864 125.160294 -11.638846
v -9.424680 -27.827532 -21.635382
v -15.170341 -15.373800 -9.629820
v -12.099977 72.026093 -16.394945
v 24.458757 60.573166 -14.384756
v 23.560045 -23.083227 -8.259356
v -12.312526 87.808029 -15.284299
v -8.160398 128.061325 -15.048257
v -9.759684 148.121048 -11.340041
v -9.458372 -36.681694 -7.450380
v 23.637955 -28.191118 -8.965073
v 24.634760 12.657076 -14.036985
v -7.741242 134.213486 -13.731698
v -6.687898 150.619400 -16.608561
v 24.062336 80.415619 -15.125132
v 20.467672 128.514008 -8.194309
v -8.153749 -36.583813 -14.888276
v 23.579628 -15.733660 -6.473764
v 23.972187 -5.755345 -7.571712
v -11.385123 30.720982 -18.571789
v -14.178407 6.949473 -12.663953
v -7.752441 154.262283 -14.415801
v 22.641346 -35.395283 -7.950737
v 23.201061 -7.740997 -4.462148
v -11.528991 44.489143 -18.283781
v 24.213507 53.160339 -7.276788
v 20.330856 154.218491 -7.241486
v 23.247990 -3.265570 -1.846454
v 24.083258 1.092604 -8.500719
v -13.586906 66.564522 -13.447754
v 22.887407 57.499344 1.950093
v 24.157568 78.882790 -8.820675
v -13.709760 94.558151 -12.014301
v 8.379173 154.616302 -14.253327
v -15.329598 80.058151 -8.804296
v 20.301857 131.390594 -6.802119
v -7.801866 155.076370 -11.682350
v 23.960472 16.529287 -5.099330
v -12.335378 50.229366 -16.382864
v -15.281678 54.777782 -9.908095
v -11.602563 127.453110 -8.007130
v 21.490055 122.521378 -2.575759
v -14.609771 -27.901541 -9.963332
v -16.273848 47.499287 -7.224678
v -14.939072 110.106171 -7.589903
v 19.058065 155.242249 -2.778962
v 22.319374 -20.777287 -0.634291
v -16.927889 10.839049 -5.136997
v 23.234663 77.011124 -0.796105
v -9.598617 137.487427 -4.950512
v -12.444936 149.768539 -6.286320
v -11.161074 131.067261 -7.814716
v -10.466228 130.462585 -4.219405
v 2.883334 -34.575359 -7.609478
v 22.801708 -5.927210 -0.470155
v -16.249184 31.228155 -7.516672
v -15.399936 61.814064 -9.599829
v 23.685165 81.102226 -3.331853
v -11.723579 127.837494 -3.016374
v 19.887075 152.635788 -0.121065
v -13.241480 -36.829487 -1.918549
v -14.961780 -34.661854 -4.919880
v 19.437504 128.880402 0.690548
v -11.081699 135.783340 -1.114004
v -13.943575 149.841156 -1.887954
v -2.766938 -34.954361 2.218759
v 20.433516 -36.562626 1.553727
v -16.149971 40.949924 -7.702663
v 23.234814 107.238998 -4.274742
v -16.823828 -33.790234 -0.024470
v 1.095303 -35.811081 19.838356
v -17.324856 65.314819 -3.385365
v -16.886786 92.262314 -3.510624
v -12.693069 154.386368 -4.152352
v 23.159855 -10.656823 -2.892382
v -13.419780 131.052078 -0.106956
v -17.650887 84.301598 -1.620434
v -15.704774 122.651718 -0.126848
v -13.825617 127.548134 -0.751248
v -15.250923 -37.341549 13.547691
v -11.241845 -36.053864 11.333801
v -16.763861 71.818634 -5.551497
v 22.164291 82.690849 4.527388
v 21.410370 -28.462809 1.618262
v -16.478487 21.463448 -6.801064
v -17.729658 55.459938 -2.251138
v -19.452295 72.562424 8.148242
v 20.676083 76.460358 9.277772
v -15.104663 153.494019 4.558785
v 19.732899 110.552597 10.344546
v 19.435688 122.871033 6.850684
v 3.704589 153.977997 -1.162499
v 20.500414 -12.459597 7.003185
v -18.553146 31.218140 1.389816
v -14.986543 129.804489 6.240751
v -18.533701 -24.508472 3.846387
v 19.627644 -6.137324 10.116828
v -3.877496 154.168716 3.982932
v 17.671511 -37.216190 3.383581
v -17.701305 -34.803123 6.819795
v -17.955429 -32.328136 4.428409
v 20.000910 -23.759443 7.430264
v -18.983480 12.187401 4.295451
v -18.855947 45.627972 2.484359
v 21.268816 5.153334 6.303397
v -18.968498 61.822464 4.320627
v -18.087826 106.635574 4.021572
v 20.056534 83.685204 10.804474
v 16.865808 153.780777 10.053611
v 12.679437 154.346130 18.042404
v -18.223011 -33.836723 9.651356
v -5.311604 -35.259361 16.188211
v -18.687418 101.443390 9.325078
v -16.983986 123.424713 10.599388
v -15.752325 127.181389 12.882813
v -12.824356 155.055435 -0.359354
v -19.037598 88.497368 7.359252
v 15.022306 78.293800 21.252728
v -15.498507 -36.700581 6.864150
v -18.545551 -35.208832 12.815068
v -19.828638 -27.985439 15.721108
v -19.804039 28.239286 10.003743
v -19.490026 53.679371 7.651696
v 17.837393 3.952461 14.810993
v 6.239616 154.386551 12.945221
v 18.123949 -28.857889 11.935229
v -15.109485 131.164246 15.872844
v -15.192272 147.910904 16.329517
v -15.607710 154.183090 10.037333
v -9.090682 154.302765 18.429586
v 18.846952 59.283325 13.958908
v 15.180797 155.214981 10.001959
v -19.679005 65.990456 11.141240
v -17.512716 99.135971 15.093293
v -16.375984 122.916962 18.461880
v 15.150458 101.550644 20.181515
v -19.356817 76.092613 16.642900
v -15.066518 127.008324 19.193771
v 15.589916 -22.946186 18.461763
v -14.482339 154.891205 15.962407
v -13.269379 -37.076378 24.786304
v -19.162445 -33.308216 16.297945
v 14.438723 124.326797 18.062098
v -15.021713 153.965973 18.992615
v -19.775351 -8.946156 12.891901
v -19.946823 46.441471 15.720851
v 16.395922 25.080879 18.727970
v -16.355227 91.980850 18.207382
v -19.423378 45.086060 22.620531
v -14.775270 105.555779 20.982754
v -15.743592 -37.378319 26.292908
v -15.015339 81.136757 21.173918
v -14.940016 119.283966 22.815201
v -12.181201 135.867767 20.747923
v -12.446124 136.255264 24.288054
v -10.609550 140.948776 22.187613
v -12.826759 146.144531 23.870583
v 2.885194 154.848236 27.703085
v -19.052923 -34.709476 26.756155
v 11.827111 1.306050 25.868744
v -17.687456 62.695534 22.516413
v -12.972359 115.064041 25.615124
v -15.602235 149.761353 20.087345
v -17.444841 -36.273315 18.673666
v -19.934492 1.140785 20.357340
v 10.958224 24.468733 27.447432
v -12.125520 98.817390 23.304228
v 5.766871 127.173836 27.017565
v 3.113865 -37.359550 29.758665
v 12.678668 81.946213 24.673008
v 6.778996 102.768654 26.904367
v 7.331753 131.383911 25.073530
v -10.462770 79.926521 24.934322
v -10.165163 89.187576 24.571699
v -13.162910 126.776382 24.890139
v -13.112523 150.007370 25.040518
v 8.404365 155.032852 21.478701
v 6.262421 81.767555 27.640272
v -9.547054 103.270386 26.003145
v -10.733436 149.547821 26.697874
v -12.140176 154.858353 24.030521
v -8.542543 -36.773468 28.339642
v 3.143637 90.398842 27.756912
v 7.073649 121.900955 27.438177
v -1.888544 133.945190 29.990761
v -17.904594 35.426163 25.708138
v -3.491645 90.408470 27.337803
v 0.681780 103.450073 28.762522
v 3.292550 115.266586 29.849552
v -11.463838 124.050735 27.776251
v 1.948968 133.057678 28.846046
v -11.233799 150.369385 27.353916
v -12.017049 153.600021 26.077467
v -1.672114 79.856781 28.127895
v -4.958436 101.448647 27.880079
v -9.815244 116.512047 28.904245
v -19.152174 -2.678269 26.744852
v -0.832850 115.416687 31.177414
v -8.923849 127.959351 28.701633
v 0.240709 149.369202 30.086010
v -8.070743 154.814529 28.590282
v -3.906755 154.135483 30.202168
v 4.773116 -35.504383 34.179817
v -11.514243 57.070271 28.006834
v 6.391505 17.276304 33.082043
v 8.440845 62.418804 29.764658
v -5.821423 115.547768 30.678091
v -0.928033 125.952477 30.654922
v 1.101493 122.614937 30.942865
v -5.852197 132.585403 29.635260
v -4.106042 149.955612 30.734631
v -4.058216 -37.188931 33.036682
v 3.771676 22.617594 34.015671
v -8.642467 122.940086 30.040327
v -4.430447 122.465866 31.541714
v -4.779974 126.375130 30.553665
v 2.671548 61.692055 30.927818
v -9.159618 -36.079514 33.940098
v -14.912342 -35.819519 30.988558
v -12.973079 26.366842 29.985542
v -14.409289 -9.029145 31.237448
v -4.750970 53.154316 31.069550
v 1.476177 -35.499973 35.230057
v -5.587448 2.865286 34.356655
v -4.254177 -35.971645 35.273964
v 1.738728 -15.044950 35.414425
v 9.290487 -36.295738 28.425964
v 16.146587 -36.139301 14.598153
v 20.863270 -36.617397 -9.353161
v -0.225728 -36.744686 34.513401
v 23.796158 -35.358887 -24.320162
v 15.479981 -35.218391 -36.021942
v 11.328782 -37.420834 19.594078
v -12.398329 142.202789 12.957905
v -14.934417 146.266357 3.025855
v -16.184435 149.780029 13.439824
v -11.218260 144.986145 19.696129
v -12.459892 138.116867 18.751265
v -9.010080 143.154999 -6.308475
v -15.726728 150.320053 8.267554
v -5.230749 143.335632 -14.985289
v -15.094398 146.416443 10.148610
v -12.464637 137.373322 4.308460
v -12.766735 140.020737 8.141714
v -12.368190 141.958466 1.183054
v -12.359801 139.176468 13.726605
v -4.661065 139.715225 -15.451951
v -12.614963 138.425018 21.857582
v 20.554972 149.861801 -11.957164
v 12.842138 126.836052 19.227314
v 0.168100 139.021942 27.039858
v 20.710587 146.696793 -6.679658
v 17.060173 126.698395 10.511367
v 15.773500 138.685074 -4.927748
v 19.291861 146.768234 3.855581
v 16.599031 138.560608 7.033544
v 15.629611 145.510010 13.381663
v 18.053106 143.207184 4.322229
v 9.276122 149.146057 23.282148
v 11.028050 135.758133 19.635612
v 17.465279 142.815262 -9.639986
v 16.214899 140.901443 -17.588890
v 16.307150 138.849442 -8.194819
v 17.615341 127.762383 5.413457
v 14.299110 137.871216 14.168017
v 17.564020 134.055725 3.317147
v -10.345111 141.339447 26.561655
v -4.627504 139.428650 28.076891
v -8.937158 149.526077 29.546957
v 3.929026 149.365295 28.329039
v 2.400808 146.413544 27.692846
v -8.029149 139.419220 27.813162
v 6.237492 135.815826 23.865477
v -9.607554 138.766968 26.393398
v -11.143483 145.367920 27.597324
v -5.622362 145.068863 30.188795
v 5.437713 138.756088 -24.594887
v 8.327558 139.240219 -25.088123
v 16.306911 145.367966 -20.175467
v 2.325781 138.228470 -22.464796
v 17.491940 149.844894 -22.792759
v 1.551737 143.743561 -22.999201
v 4.620597 148.288895 -27.441236
v 9.549774 148.148499 -28.048176
v 7.874355 141.412292 -24.775406
v 14.980059 141.389557 -20.545837
v 13.069257 141.619293 -22.580496
v 11.200589 142.041946 -23.955540
v 15.126867 148.230988 -25.309637
v 5.551121 141.887604 -24.719454
v 17.186325 137.062531 -13.269478
v 18.616573 133.348984 -18.351507
v -13.309279 123.379623 -7.595357

g scan180_and_scan0_and_scan300_and_scan240_and_scan180_and_scan120_and_scan60_and_scan0
usemtl scan180_and_scan0_and_scan300_and_scan240_and_scan180_and_scan120_and_scan60_and_scan0
s

f 6 2 3
f 341 6 4
f 2 9 5
f 5 3 2
f 12 3 5
f 6 3 7
f 8 6 7
f 3 12 7
f 4 6 11
f 11 6 8
f 30 1 341
f 9 31 5
f 19 8 7
f 30 13 1
f 11 10 4
f 14 12 5
f 7 21 19
f 7 12 21
f 8 19 18
f 15 30 341
f 10 11 20
f 11 8 18
f 14 25 12
f 2 13 9
f 31 9 75
f 65 5 31
f 20 11 18
f 65 17 14
f 14 33 25
f 12 25 21
f 16 10 20
f 65 14 5
f 18 19 60
f 33 39 25
f 38 20 18
f 21 60 19
f 21 25 40
f 15 105 30
f 340 105 15
f 30 101 13
f 10 16 340
f 20 38 24
f 38 18 60
f 21 40 22
f 26 34 23
f 23 34 28
f 34 44 28
f 23 28 29
f 9 13 75
f 105 101 30
f 20 53 16
f 14 17 33
f 41 21 22
f 27 23 29
f 44 58 35
f 28 44 35
f 29 28 35
f 16 53 32
f 20 67 53
f 20 49 67
f 17 65 79
f 21 41 60
f 39 69 25
f 40 25 69
f 61 34 42
f 42 34 26
f 26 23 27
f 27 29 50
f 50 29 36
f 36 29 35
f 58 45 35
f 46 36 35
f 35 45 46
f 392 52 393
f 101 37 13
f 16 86 340
f 32 86 16
f 41 54 60
f 22 40 43
f 40 42 43
f 43 42 26
f 43 26 27
f 70 44 34
f 70 58 44
f 58 82 45
f 36 46 63
f 47 393 48
f 393 52 48
f 64 48 52
f 37 126 13
f 31 111 65
f 65 90 66
f 87 49 20
f 33 68 39
f 41 22 43
f 40 61 42
f 61 73 34
f 34 73 70
f 57 27 50
f 50 36 59
f 52 392 51
f 51 74 52
f 52 74 64
f 66 79 65
f 80 24 38
f 41 55 54
f 39 73 69
f 41 43 55
f 69 61 40
f 56 43 27
f 63 59 36
f 46 396 63
f 13 126 75
f 31 75 111
f 20 24 87
f 134 33 17
f 39 68 99
f 99 95 39
f 55 43 56
f 69 73 61
f 27 62 56
f 57 62 27
f 57 50 71
f 58 70 102
f 82 58 102
f 47 48 84
f 83 64 74
f 32 53 89
f 67 72 53
f 79 129 17
f 148 33 134
f 80 38 60
f 60 54 76
f 95 93 39
f 94 73 39
f 54 55 81
f 59 71 50
f 48 64 84
f 24 80 87
f 33 148 68
f 148 99 68
f 55 56 81
f 62 81 56
f 82 102 103
f 76 80 60
f 93 94 39
f 100 62 57
f 57 71 109
f 107 102 70
f 106 74 51
f 74 106 83
f 64 88 97
f 53 72 89
f 67 49 78
f 116 94 93
f 76 54 81
f 94 70 73
f 59 63 401
f 84 96 390
f 77 106 51
f 88 64 83
f 84 64 97
f 105 85 101
f 111 90 65
f 49 92 78
f 17 129 134
f 80 114 87
f 82 103 389
f 87 92 49
f 81 62 100
f 94 107 70
f 100 57 109
f 88 83 143
f 98 75 126
f 75 98 111
f 95 113 93
f 83 106 146
f 101 163 37
f 111 112 90
f 67 91 72
f 66 90 112
f 99 139 95
f 100 76 81
f 117 103 102
f 389 103 356
f 84 104 96
f 83 146 143
f 340 86 120
f 130 66 112
f 87 114 121
f 80 124 114
f 95 139 113
f 107 117 102
f 59 110 71
f 110 59 401
f 117 122 103
f 131 77 123
f 84 97 104
f 67 78 91
f 80 76 124
f 124 76 100
f 71 110 109
f 122 356 103
f 77 131 106
f 143 146 201
f 86 32 120
f 148 149 99
f 116 142 94
f 131 146 106
f 112 111 152
f 79 194 129
f 93 113 144
f 144 116 93
f 142 154 94
f 97 88 143
f 111 98 152
f 32 89 115
f 194 79 66
f 124 100 108
f 110 401 125
f 145 401 400
f 97 143 155
f 105 338 85
f 32 115 120
f 89 72 127
f 134 153 148
f 124 141 114
f 100 109 108
f 94 154 107
f 118 131 123
f 78 128 91
f 128 78 92
f 194 165 129
f 165 134 129
f 110 108 109
f 97 155 104
f 37 119 126
f 85 163 101
f 120 132 340
f 87 138 92
f 66 157 194
f 96 104 358
f 126 170 98
f 99 149 166
f 99 166 139
f 113 191 144
f 108 110 178
f 117 161 122
f 125 401 145
f 161 159 122
f 122 159 356
f 118 160 131
f 155 143 201
f 170 171 98
f 72 184 127
f 133 72 91
f 121 114 135
f 124 178 141
f 182 142 116
f 154 402 107
f 358 104 136
f 126 119 170
f 91 128 133
f 112 157 130
f 66 130 157
f 134 177 153
f 113 139 191
f 108 178 124
f 104 155 136
f 92 138 137
f 121 147 138
f 177 134 165
f 116 186 182
f 117 150 161
f 89 156 115
f 89 127 156
f 72 133 184
f 87 121 138
f 139 166 181
f 131 183 146
f 121 135 147
f 186 116 144
f 178 110 151
f 151 110 125
f 358 136 361
f 131 160 183
f 183 225 146
f 153 149 148
f 154 142 182
f 98 179 152
f 137 128 92
f 149 195 166
f 135 114 140
f 139 181 191
f 114 141 140
f 150 168 161
f 136 169 361
f 138 214 137
f 177 213 153
f 149 153 195
f 154 187 402
f 168 150 402
f 207 201 146
f 171 179 98
f 141 167 158
f 141 178 167
f 125 172 151
f 161 168 162
f 161 162 159
f 119 189 170
f 175 119 37
f 128 137 164
f 138 147 214
f 194 203 165
f 125 145 172
f 152 205 112
f 133 128 164
f 141 158 140
f 132 120 176
f 165 203 177
f 147 135 140
f 195 181 166
f 188 168 402
f 168 173 162
f 160 354 174
f 207 146 225
f 136 155 169
f 190 189 119
f 163 175 37
f 193 120 115
f 194 157 212
f 195 153 213
f 191 186 144
f 173 168 188
f 361 169 364
f 160 174 183
f 210 152 179
f 205 152 210
f 187 188 402
f 188 185 173
f 174 354 344
f 171 170 179
f 112 205 157
f 164 137 206
f 177 203 213
f 167 178 192
f 182 216 154
f 198 225 183
f 176 120 193
f 181 195 215
f 181 242 191
f 186 226 182
f 216 187 154
f 183 174 198
f 119 175 190
f 85 180 163
f 127 202 156
f 147 140 214
f 167 192 197
f 188 204 185
f 170 189 228
f 179 170 228
f 127 184 202
f 133 206 184
f 133 164 206
f 194 212 203
f 181 215 242
f 191 196 186
f 158 167 197
f 178 199 192
f 151 199 178
f 188 187 204
f 185 204 352
f 115 211 193
f 115 156 211
f 203 231 213
f 195 213 232
f 195 232 215
f 182 226 216
f 199 151 200
f 151 172 200
f 137 214 206
f 191 242 196
f 238 225 198
f 179 228 210
f 157 205 212
f 186 196 226
f 216 223 187
f 169 155 218
f 337 176 235
f 235 176 193
f 212 231 203
f 158 197 140
f 373 200 172
f 201 207 234
f 193 211 235
f 362 200 373
f 218 364 169
f 174 349 198
f 155 241 218
f 210 228 209
f 210 230 205
f 214 233 206
f 187 223 204
f 239 207 225
f 175 221 190
f 156 202 211
f 184 206 202
f 192 199 217
f 155 201 234
f 209 228 220
f 220 210 209
f 204 223 224
f 352 204 355
f 155 234 241
f 180 175 163
f 254 231 205
f 212 205 231
f 240 214 140
f 175 180 221
f 220 230 210
f 211 202 206
f 215 232 242
f 140 197 240
f 216 226 222
f 216 222 223
f 204 236 355
f 198 349 238
f 211 248 235
f 213 255 232
f 192 217 197
f 252 200 362
f 349 345 238
f 219 218 241
f 220 229 230
f 204 224 236
f 205 230 254
f 206 248 211
f 256 233 214
f 231 255 213
f 226 246 222
f 223 222 244
f 238 249 225
f 273 220 228
f 196 246 226
f 199 200 252
f 228 189 273
f 229 220 273
f 196 242 246
f 197 217 227
f 239 225 249
f 230 229 251
f 231 254 274
f 214 240 256
f 232 255 242
f 222 246 243
f 223 244 224
f 234 207 239
f 342 180 85
f 199 252 245
f 236 224 247
f 241 234 286
f 251 229 273
f 217 199 227
f 222 243 244
f 238 345 253
f 238 253 249
f 227 240 197
f 252 362 359
f 272 345 237
f 219 241 286
f 235 248 337
f 206 233 248
f 231 274 255
f 224 244 247
f 253 345 272
f 234 267 286
f 230 251 268
f 233 256 269
f 242 258 246
f 273 189 260
f 246 257 243
f 199 279 227
f 257 259 243
f 266 272 237
f 366 219 368
f 234 239 267
f 253 290 249
f 270 261 246
f 199 245 279
f 250 189 190
f 268 251 273
f 240 227 256
f 255 258 242
f 246 258 270
f 261 257 246
f 261 276 257
f 259 257 276
f 244 243 262
f 337 248 336
f 254 230 274
f 274 258 255
f 243 259 262
f 236 247 264
f 264 263 236
f 290 239 249
f 250 260 189
f 250 190 221
f 256 275 269
f 347 263 264
f 248 233 269
f 261 283 276
f 244 284 247
f 265 347 357
f 265 266 346
f 253 272 302
f 267 239 310
f 239 290 310
f 274 306 258
f 261 282 283
f 259 271 262
f 262 284 244
f 359 293 252
f 247 284 264
f 302 272 285
f 219 286 267
f 278 180 342
f 180 291 221
f 248 269 336
f 270 258 295
f 270 282 261
f 271 259 276
f 245 252 293
f 293 359 277
f 267 368 219
f 253 302 290
f 291 250 221
f 230 268 274
f 295 313 270
f 282 270 313
f 245 280 279
f 359 281 277
f 369 382 281
f 383 376 265
f 266 285 272
f 273 260 268
f 274 268 306
f 258 306 295
f 283 288 276
f 262 271 299
f 262 299 284
f 302 285 301
f 379 368 267
f 256 227 275
f 282 296 283
f 288 283 304
f 293 280 245
f 282 303 296
f 296 304 283
f 288 271 276
f 277 281 300
f 308 264 284
f 360 294 382
f 291 260 250
f 278 291 180
f 268 260 328
f 314 275 227
f 295 329 313
f 314 227 279
f 315 279 287
f 287 279 292
f 280 292 279
f 305 271 288
f 305 299 271
f 383 264 308
f 382 300 281
f 382 294 300
f 310 290 302
f 330 295 306
f 295 330 329
f 331 282 313
f 331 303 282
f 303 287 292
f 303 292 296
f 296 292 297
f 296 297 304
f 280 297 292
f 298 297 280
f 288 316 305
f 280 293 298
f 299 308 284
f 289 378 301
f 379 267 309
f 291 327 260
f 306 268 328
f 326 315 287
f 326 303 331
f 326 287 303
f 288 304 316
f 305 323 299
f 298 293 318
f 277 318 293
f 299 323 308
f 317 277 300
f 308 319 383
f 301 310 302
f 267 310 311
f 330 306 328
f 314 279 315
f 298 307 297
f 325 308 323
f 317 318 277
f 325 319 308
f 317 300 294
f 301 378 310
f 378 311 310
f 309 267 311
f 278 321 291
f 260 327 328
f 314 269 275
f 307 304 297
f 307 316 304
f 307 298 318
f 323 305 316
f 325 317 294
f 325 294 319
f 320 311 378
f 320 309 311
f 329 331 313
f 314 315 322
f 322 315 326
f 307 324 316
f 316 324 323
f 323 324 325
f 324 318 317
f 317 325 324
f 314 336 269
f 331 329 333
f 307 318 324
f 339 321 278
f 291 321 327
f 312 336 314
f 333 329 330
f 333 322 331
f 331 322 326
f 334 321 339
f 327 330 328
f 334 327 321
f 327 333 330
f 332 334 339
f 332 312 335
f 327 334 333
f 335 333 334
f 312 314 335
f 335 314 322
f 335 322 333
f 332 335 334
f 342 337 336
f 336 312 278
f 339 312 332
f 342 85 208
f 208 338 176
f 338 340 132
f 339 278 312
f 15 10 340
f 85 338 208
f 338 105 340
f 4 10 15
f 341 4 15
f 176 337 208
f 337 342 208
f 336 278 342
f 176 338 132
f 84 390 47
f 6 341 1
f 2 6 13
f 6 1 13
f 347 355 236
f 345 349 351
f 118 348 160
f 236 263 347
f 351 237 345
f 123 77 350
f 265 355 347
f 349 174 344
f 159 162 173
f 185 352 173
f 351 349 344
f 118 350 348
f 351 343 237
f 350 389 356
f 350 356 348
f 350 118 123
f 160 348 354
f 354 352 353
f 352 355 353
f 343 353 355
f 159 173 352
f 159 352 354
f 265 346 343
f 265 343 355
f 343 351 353
f 350 391 389
f 159 348 356
f 354 348 159
f 346 237 343
f 353 351 344
f 353 344 354
f 264 265 357
f 347 264 357
f 265 376 266
f 346 266 237
f 294 360 377
f 377 381 319
f 319 381 383
f 377 319 294
f 219 366 218
f 364 218 366
f 362 374 359
f 375 145 363
f 172 145 375
f 359 369 281
f 145 400 363
f 365 374 362
f 373 172 375
f 372 363 400
f 365 366 374
f 364 367 361
f 370 363 372
f 364 366 365
f 364 365 367
f 362 373 375
f 361 370 358
f 372 371 370
f 400 371 372
f 370 361 363
f 362 375 365
f 382 369 368
f 375 363 365
f 367 363 361
f 366 369 374
f 363 367 365
f 359 374 369
f 366 368 369
f 402 150 117
f 402 117 107
f 380 368 379
f 368 360 382
f 266 384 285
f 378 289 384
f 301 285 289
f 265 264 383
f 385 320 378
f 381 384 376
f 266 376 384
f 385 309 320
f 360 368 380
f 289 285 384
f 383 381 376
f 384 385 378
f 381 385 384
f 381 377 385
f 377 360 385
f 309 380 379
f 380 309 360
f 360 309 385
f 386 82 389
f 390 398 47
f 395 388 371
f 393 399 392
f 370 388 390
f 394 387 386
f 395 63 396
f 391 350 77
f 396 398 388
f 398 390 388
f 392 399 391
f 47 398 393
f 397 398 396
f 397 393 398
f 393 394 399
f 45 82 386
f 396 46 387
f 386 387 45
f 77 51 392
f 393 397 394
f 399 389 391
f 358 390 96
f 388 370 371
f 390 358 370
f 391 77 392
f 394 386 399
f 399 386 389
f 46 45 387
f 388 395 396
f 387 394 397
f 396 387 397
f 400 401 371
f 371 401 63
f 395 371 63

