#Obj File : Exported From RapidForm (INUS Technology Co. Ltd.)

mtllib BlueSaltCube_800.mtl

v -8.731174 -38.645939 -32.981335
v -9.828722 -31.680838 -33.782207
v -3.616710 -26.228830 -33.639690
v -8.262798 -21.699688 -33.770897
v -1.223570 -20.713062 -33.657204
v -9.844227 30.494926 -33.284084
v -2.072522 38.130974 -33.771698
v -4.494260 -35.215183 -33.436039
v 9.682589 -36.649006 -30.655899
v 3.927541 -26.453745 -32.851631
v -0.121967 5.739563 -33.359215
v 7.078040 0.640346 -32.979008
v 12.143546 7.973459 -32.264000
v -9.895966 -10.329155 -33.492928
v 8.433870 28.345308 -32.608238
v 9.529210 31.920702 -32.534187
v 1.775713 31.955559 -33.257465
v -5.674186 35.842911 -33.648758
v 6.858158 34.985912 -32.995918
v 9.497510 40.319580 -32.353565
v -1.469774 42.232136 -33.206936
v -0.433558 49.091530 -33.264153
v -2.822551 47.142506 -33.634300
v -1.761671 51.460258 -33.236725
v -9.563005 40.344250 -33.417316
v 1.149083 53.111206 -33.339184
v -0.015329 61.275646 -33.264374
v -9.517674 54.810848 -33.401558
v -2.770774 64.813713 -32.917686
v -1.002635 70.662903 -33.245121
v -10.452646 87.917847 -33.091331
v -8.955663 100.084770 -33.802013
v 15.222395 -31.600859 -30.515383
v 13.964424 37.155571 -31.549946
v 17.888523 42.659962 -30.223761
v 13.123101 47.538383 -31.575890
v -10.354331 70.943810 -33.591122
v 8.300880 64.806396 -31.430714
v -11.879976 71.928352 -32.273155
v 11.771762 71.455688 -31.439838
v 3.956731 87.431419 -31.940840
v 0.676828 97.140686 -32.647835
v 3.862746 100.686119 -31.473930
v 4.293515 105.992920 -30.959305
v 15.153919 -20.762959 -31.264194
v 17.435818 29.522987 -30.818823
v 9.952582 50.895813 -31.964651
v 8.257412 54.817276 -31.980091
v 17.726891 61.266956 -30.769558
v 5.768499 89.912819 -31.654715
v -8.986477 107.174438 -32.841270
v -0.228786 -38.542210 -31.251497
v -11.747110 -26.048326 -32.978306
v 20.125921 -26.686882 -30.018179
v 23.444031 49.736912 -29.205854
v 21.561546 53.099545 -29.572380
v 18.405909 59.371143 -30.022057
v 20.318825 96.830315 -28.909924
v 12.841234 97.495453 -30.745060
v 3.200429 -29.003151 -32.379261
v -12.051166 -11.224568 -32.362522
v 25.381315 -19.999819 -28.727064
v -11.096276 35.617580 -32.761856
v 27.833195 38.498230 -27.832155
v 25.696218 62.169369 -28.385542
v 20.110199 64.836510 -29.191477
v 18.239870 89.876762 -29.347242
v -6.529367 -38.059689 -28.848862
v -0.092462 -38.171848 -27.677019
v 3.624515 -38.599236 -28.818123
v -15.294491 -25.479954 -26.369244
v 25.231010 35.584579 -28.659523
v 27.567991 46.535660 -28.156740
v 25.048618 48.304256 -28.263660
v 23.590097 70.424675 -28.943672
v -14.146783 88.109634 -28.047380
v 17.883236 86.686836 -29.635849
v 17.558546 99.050179 -28.954910
v 15.349498 -38.347626 -28.630337
v 27.797022 -28.608864 -27.583498
v 33.161083 -5.499302 -25.823101
v 28.088217 53.008659 -27.538481
v 17.223141 105.840492 -28.675865
v -12.023155 -38.363956 -33.190388
v 25.823957 -34.763039 -28.114094
v 32.449654 31.941566 -26.006247
v 20.258509 2.314337 -30.278931
v 24.488230 32.506378 -28.840080
v 33.533741 86.024361 -26.069931
v 33.087742 87.577660 -25.452122
v 31.485815 89.851395 -26.377972
v -11.849177 105.205505 -32.669697
v 32.229996 -26.505260 -26.002077
v -14.570364 25.550579 -27.370253
v 31.598515 41.834908 -26.535986
v 32.214161 48.572823 -26.202362
v 32.936298 70.562546 -26.472691
v 33.615616 99.116188 -25.664274
v 32.983376 105.174164 -26.095161
v 7.061475 -38.271595 -26.361626
v -14.696611 -31.428679 -27.447039
v 32.973324 -37.400352 -25.388376
v 32.290848 -16.399897 -26.264540
v -6.497156 106.015991 -28.576357
v 29.458189 106.039856 -26.128607
v 27.371897 -38.292381 -26.547794
v 34.276752 103.194557 -24.534563
v -9.305064 -38.763580 -27.147905
v 33.421371 52.551247 -24.974152
v 33.294422 60.640381 -25.794720
v -3.388142 105.819290 -23.294394
v -0.830377 -39.020397 -23.898306
v 33.376511 -20.107718 -24.244371
v 33.471924 32.228977 -24.439676
v 34.197941 47.106129 -23.566086
v 33.940189 71.586319 -25.167160
v 10.470773 105.812447 -26.784557
v 34.246273 73.191956 -20.512066
v 33.658150 105.240692 -23.156155
v 0.653736 -38.525257 -15.570065
v 33.220974 -30.494772 -24.593161
v 24.733381 105.927147 -26.888161
v -2.267848 -38.404842 -20.111841
v 34.140762 36.362453 -18.705956
v -15.449338 67.312752 -25.689316
v 9.113174 105.722610 -17.508572
v 33.847687 60.081566 -20.126123
v 34.102840 87.567123 -21.901045
v -12.230253 100.096191 -31.389359
v -11.259274 -38.711491 -20.797695
v 33.665955 -34.058170 -16.906937
v 33.610035 -29.469442 -14.043473
v -17.125355 46.328762 -21.622978
v 34.062717 69.129257 -19.915884
v -13.833515 98.229607 -27.900126
v 24.179520 -38.144341 -16.278774
v -15.973862 -11.629949 -25.195873
v 33.981892 22.452415 -12.226305
v 33.378208 89.552460 -14.798112
v 34.209465 29.550327 -14.644065
v -11.681485 106.060204 -27.436050
v 30.446892 105.754021 -11.755648
v -6.970542 105.961113 -17.299726
v -17.915386 13.655406 -19.849201
v -19.521173 30.482653 -12.618774
v 33.720638 -20.659473 -14.343705
v 15.458229 -38.143261 -13.925540
v 5.041099 105.926895 -14.166932
v 33.934700 57.183170 -14.253695
v 33.592113 71.428787 -10.731600
v -7.015586 105.960770 -11.734653
v 8.539893 105.752533 -14.677020
v -2.382331 -38.484146 -8.617846
v -18.253448 -29.520809 -13.580554
v -18.876627 65.074295 -12.212471
v 31.666067 103.524689 -8.132739
v 9.559105 106.137993 -10.872350
v -19.771988 -16.421873 -10.140718
v 34.023273 32.676407 -11.295187
v -18.507551 100.394524 1.345674
v 4.440644 105.672539 -9.340381
v 7.800073 106.008240 -8.994983
v -15.369973 -38.445633 -10.973688
v 15.855119 -38.219402 -10.406100
v 17.130623 -38.033279 -5.090140
v -19.375818 97.916000 1.422976
v 5.226120 106.277718 -6.500822
v 13.615685 -38.374397 -6.765221
v 33.811905 -11.641296 -14.213923
v 32.582760 56.162643 0.347863
v -20.767818 61.729221 -1.965315
v 3.293974 105.768852 -4.998367
v 33.246052 51.101456 -6.273619
v -14.546764 -38.568974 -0.316523
v 22.900421 -38.215137 -6.568347
v 33.263653 -13.667880 -5.360096
v 31.649141 31.030355 7.420597
v 33.384243 45.636086 -4.126094
v 11.874811 105.729591 -5.650337
v 15.242744 -38.653229 -3.865786
v 29.540188 103.454361 4.323367
v -21.681379 30.840641 -0.258623
v -8.596906 106.079018 -3.260906
v 16.279951 -38.041855 -1.511297
v 31.623980 -31.966759 -0.851825
v 32.822041 5.676487 1.442003
v 33.271862 39.491268 -3.387070
v 0.093821 -38.429928 -1.635742
v 9.721907 -38.189198 -3.614488
v 12.506163 -38.234329 1.928386
v 31.399796 40.954826 7.395612
v 29.621960 87.900414 9.972359
v 22.331614 -38.202183 2.121462
v -21.123938 10.420754 -4.211209
v 32.252419 46.846779 3.445488
v 31.801525 86.921104 -2.037495
v 0.697361 -38.284664 3.634669
v 33.026218 -25.299355 -4.755021
v -15.075160 105.889771 -6.537461
v -20.582850 -31.560511 0.953639
v -14.323705 104.463531 -20.635874
v -16.475290 -38.561314 3.532087
v 30.443514 96.231606 4.427992
v 17.224880 105.788948 7.629819
v -4.588833 -38.759792 4.458076
v -10.071022 106.001129 1.543964
v 2.133487 105.860588 4.285407
v 6.701735 105.838486 -2.764716
v -12.470212 -39.229565 4.015554
v 10.670606 -38.159271 6.850908
v 15.117455 -38.157581 6.382725
v -22.428413 12.951337 6.778339
v 5.920154 106.086159 2.579977
v -4.547458 -38.435349 6.581196
v -1.425653 -39.321774 5.956932
v 21.664003 -38.200840 6.384616
v -22.032333 -26.551987 7.300990
v -21.864349 50.734581 6.080307
v 0.001749 -38.186054 8.516579
v -8.416677 106.833855 8.546879
v -11.805396 106.049019 7.141168
v 3.176996 105.960052 8.244267
v 30.894249 -24.717663 6.381109
v 7.794036 105.931976 6.673957
v -11.174387 106.086411 10.461871
v 30.170954 43.190071 13.887619
v 27.040918 105.809555 8.887264
v -6.922537 -38.324081 12.292095
v 10.989763 -38.502239 11.652476
v 13.797440 -37.971470 12.659604
v 21.998653 -38.077541 11.184546
v -20.205564 103.894844 10.831442
v -6.908662 106.092133 8.922754
v 19.050673 -38.590546 11.993535
v 30.376678 56.993469 12.020140
v 20.453135 -38.142784 14.100248
v 31.033138 8.965880 10.924261
v 6.466134 106.079697 12.176661
v 27.122623 -14.082913 23.786972
v -22.301558 87.246414 19.583448
v -0.312009 106.004211 13.983706
v 2.967996 105.935577 12.736671
v 28.406998 -25.809393 18.628311
v -1.371661 105.889389 16.528717
v -19.428520 -38.474945 16.805172
v 30.087414 -15.344761 13.961056
v -22.327110 43.302681 19.878172
v 25.949072 104.512833 22.461536
v 6.712772 105.951294 16.089212
v -7.089492 -38.243202 18.186531
v 11.639088 -38.148838 14.423081
v -22.146315 61.675407 13.117199
v 7.899699 -38.217987 17.130007
v 25.288343 -37.940208 18.987059
v -13.171677 106.090752 19.040276
v 4.416282 106.153755 17.902376
v 27.396103 -36.520008 16.909056
v 28.802448 50.254063 17.837658
v 24.837343 105.924988 18.713228
v 13.233812 -38.203915 17.533298
v 19.083179 -38.274830 21.114609
v -22.614164 -29.127676 15.944425
v 3.153173 105.963539 21.116316
v 2.586986 106.969269 18.470264
v -0.319099 -38.222160 19.379448
v 27.947874 70.801155 20.021612
v -18.547583 106.087135 8.482284
v 27.534519 60.291920 22.132893
v -9.049834 106.151024 20.307716
v 23.232977 -17.872334 33.991634
v -22.599216 -13.202584 9.747146
v -22.378258 71.885979 22.991058
v -22.388603 105.456299 26.854490
v 27.861675 -29.253340 20.743114
v -22.220520 98.048866 21.573671
v -20.656698 106.195869 22.474628
v -22.466639 4.641351 21.180954
v 23.701315 105.881821 32.877556
v -22.060797 100.069275 24.643557
v -17.822769 -38.398659 25.929361
v -22.180595 -16.659876 26.182768
v -21.861883 72.707306 27.334164
v -22.112255 85.379120 26.085037
v 22.932695 105.965881 26.644300
v 18.159788 -38.619335 27.996319
v -22.497236 -33.036373 25.664810
v 4.574479 105.861092 30.235714
v 24.968969 -34.246117 30.288942
v -22.064127 -29.419142 26.460634
v 14.821537 -38.028862 24.807146
v 18.069157 -37.938049 29.671701
v -20.716150 -26.150457 27.473667
v -20.558264 50.520054 27.624598
v -21.295494 87.732498 27.272259
v -21.222555 101.903458 27.035753
v -10.855124 104.620293 29.050974
v -5.842799 105.810226 28.812832
v 13.980844 105.893906 32.037571
v -20.850653 -34.779446 27.414810
v -20.639484 -15.063519 27.966631
v -21.642769 -7.042371 27.210215
v -15.721450 30.488960 29.150120
v 24.196100 86.121330 31.925919
v -13.052224 96.568008 28.845181
v -17.149134 -31.042706 28.870384
v -20.503784 36.887634 27.714876
v -12.161381 54.295929 30.051542
v -21.541462 68.307541 27.155451
v 19.731188 -38.442318 31.666351
v 23.354246 -25.760906 32.988682
v -19.487169 22.645823 28.046801
v -14.111764 33.728733 30.046217
v 22.646334 24.734755 33.855873
v -13.767412 40.451279 29.969070
v -20.571701 46.005733 27.657118
v 23.229744 59.623703 33.295723
v 6.384655 -37.986423 31.075363
v -9.357949 -27.849230 30.846863
v 23.182295 -32.363701 33.159595
v 27.796980 28.978779 22.149458
v -16.386593 48.250202 29.570656
v -13.193953 62.311951 29.939962
v -19.340094 71.534248 28.563591
v -4.396610 87.370750 30.777069
v 23.456844 70.956161 34.009598
v -12.769599 90.110893 29.195324
v -7.734542 -34.688347 30.709995
v -9.248500 -11.558790 31.495850
v 23.044359 -9.674961 33.802448
v -6.462680 29.892324 32.275925
v -7.317767 64.938416 30.736015
v -10.760175 92.825485 29.789402
v 2.834956 104.837357 31.378859
v -0.149788 -31.535694 32.181820
v -6.162539 21.224974 32.326851
v -10.635885 26.818350 31.137033
v -10.910816 43.307793 30.690098
v -8.263347 52.515785 31.636669
v -2.129158 61.600128 32.449486
v 4.255423 71.344727 33.091221
v 6.668142 91.209915 32.159580
v 15.826677 96.858978 33.149269
v 0.345297 102.473396 30.875534
v 22.761297 -37.776199 33.966801
v 12.689545 -34.701389 33.788105
v 2.255091 -27.828989 33.076035
v 21.832003 -26.899855 34.182785
v -7.688577 16.982719 32.065147
v -5.678174 23.949181 32.453068
v -0.669968 39.974949 33.217873
v -0.675965 45.561832 32.875458
v 0.498081 48.334549 33.553673
v 4.886725 50.565571 33.505531
v 20.757172 54.780704 34.203598
v 4.135966 54.407429 33.130386
v 21.561859 64.880966 33.996658
v 7.781940 65.148506 33.128155
v 22.306759 74.144424 34.054443
v 12.640413 88.289558 33.042633
v 12.697451 93.839073 33.091461
v 22.400879 102.284042 33.816475
v 16.552368 -31.795641 34.436100
v 16.291401 -28.375008 34.254841
v 11.487980 -16.499508 34.496666
v 0.786820 -15.970276 33.570820
v 5.666769 19.369627 34.257111
v 5.130683 25.325817 34.252235
v 10.958631 27.493931 34.363304
v 4.216416 28.656841 34.206936
v 13.242052 30.371309 34.416973
v 14.633848 33.773834 34.464077
v 21.892311 41.383911 33.909874
v 2.443849 32.986443 33.810028
v 0.410144 36.102810 33.449989
v 18.287731 37.310669 34.341599
v 7.113232 38.417038 34.352047
v 13.211855 40.910313 34.463589
v 8.055772 43.126369 34.053436
v 14.441620 44.293823 34.592754
v 16.887505 46.185959 34.168705
v 23.312395 49.798752 33.524181
v 14.428481 48.333088 34.585724
v 8.532688 52.420715 34.253700
v 12.488050 61.758999 34.201946
v 14.533502 71.217155 34.216980
v 22.928129 87.809990 33.801445
v 19.392921 104.783623 34.075855
v 16.584307 18.610834 34.420071
v 15.993680 22.856894 34.677986
v -20.314537 -37.441830 6.544827
v -10.034199 -38.091663 28.515444
v -22.620708 -38.043766 25.647223
v 28.907810 -38.044350 -1.562102
v 31.881886 -38.013668 -14.455964
v 16.317081 -37.894863 32.871117
v 26.938540 -37.898994 11.655021
v 31.322998 -36.993355 -5.395132
v 33.404800 -38.075119 -23.562506
v 24.256260 -37.661648 29.021336
v -13.324055 -37.556660 -31.375916

g scan0_and_scan0_and_scan350_and_scan300_and_scan250_and_scan200_and_scan150_and_scan100_and_scan50_and_scan0
usemtl scan0_and_scan0_and_scan350_and_scan300_and_scan250_and_scan200_and_scan150_and_scan100_and_scan50_and_scan0
s

f 2 53 3
f 3 53 4
f 53 14 4
f 4 14 5
f 8 1 84
f 400 2 84
f 84 2 8
f 400 53 2
f 8 2 60
f 2 3 60
f 60 3 10
f 3 4 10
f 10 4 5
f 53 61 14
f 5 14 12
f 12 14 11
f 12 11 13
f 11 14 17
f 11 17 13
f 13 17 15
f 14 6 17
f 14 61 6
f 6 63 18
f 17 6 18
f 19 17 18
f 34 19 18
f 18 63 7
f 63 25 7
f 7 25 20
f 20 25 21
f 21 23 36
f 21 25 23
f 23 25 24
f 23 24 22
f 24 25 28
f 25 63 28
f 24 28 26
f 48 26 28
f 48 28 27
f 27 28 29
f 63 37 28
f 28 30 29
f 28 37 30
f 37 40 30
f 39 31 37
f 41 37 31
f 31 32 42
f 129 32 31
f 43 42 32
f 92 32 129
f 32 92 51
f 52 1 8
f 8 60 33
f 10 5 45
f 45 5 12
f 87 12 13
f 61 63 6
f 17 46 15
f 34 18 7
f 34 7 20
f 35 20 21
f 35 21 36
f 36 23 22
f 36 22 47
f 47 22 24
f 27 29 38
f 38 29 30
f 37 41 40
f 76 31 39
f 41 31 42
f 43 32 44
f 32 51 44
f 52 8 9
f 9 8 33
f 10 54 60
f 45 12 87
f 15 46 13
f 17 16 46
f 16 17 88
f 17 19 88
f 24 26 47
f 57 27 49
f 27 38 49
f 40 38 30
f 41 42 50
f 50 42 58
f 42 59 58
f 59 42 43
f 51 92 141
f 400 101 53
f 10 45 54
f 61 53 71
f 16 88 46
f 88 19 72
f 72 19 34
f 47 55 36
f 47 26 56
f 26 48 56
f 48 27 57
f 40 41 77
f 67 41 50
f 58 67 50
f 129 31 76
f 135 129 76
f 43 44 83
f 1 108 84
f 68 108 1
f 52 68 1
f 9 70 52
f 62 45 87
f 87 13 88
f 13 46 88
f 64 34 20
f 95 20 35
f 74 36 55
f 82 47 56
f 48 57 82
f 66 49 38
f 37 63 125
f 38 40 66
f 37 125 39
f 41 67 77
f 58 59 78
f 44 51 117
f 108 130 84
f 68 52 69
f 70 69 52
f 85 9 33
f 71 53 101
f 61 137 63
f 63 137 94
f 72 34 64
f 20 95 64
f 82 55 47
f 48 82 56
f 49 65 57
f 65 49 66
f 66 40 75
f 59 43 78
f 141 92 201
f 141 104 51
f 9 100 70
f 33 60 80
f 85 33 80
f 60 54 80
f 35 36 73
f 36 74 73
f 125 63 94
f 75 40 97
f 76 39 125
f 91 77 67
f 58 91 67
f 129 201 92
f 43 83 78
f 117 51 104
f 83 44 117
f 79 100 9
f 69 70 100
f 9 106 79
f 85 106 9
f 54 45 62
f 71 137 61
f 88 86 87
f 74 55 82
f 97 66 75
f 97 40 77
f 69 108 68
f 54 62 93
f 93 62 103
f 62 87 103
f 81 87 86
f 72 86 88
f 35 73 95
f 95 73 96
f 74 96 73
f 74 82 96
f 110 96 82
f 110 82 57
f 65 110 57
f 66 97 65
f 89 77 90
f 91 90 77
f 58 78 98
f 78 83 99
f 99 83 122
f 69 112 108
f 106 100 79
f 106 85 102
f 80 93 85
f 85 93 102
f 80 54 93
f 103 87 81
f 86 72 64
f 110 65 97
f 97 77 89
f 98 78 99
f 99 122 105
f 121 102 93
f 144 133 94
f 86 64 95
f 114 95 115
f 95 96 115
f 115 96 109
f 96 110 109
f 125 94 133
f 97 89 116
f 91 58 98
f 107 98 99
f 130 163 84
f 100 112 69
f 121 93 113
f 103 113 93
f 103 81 113
f 86 114 81
f 137 144 94
f 76 125 155
f 99 119 107
f 104 141 111
f 99 105 119
f 108 112 123
f 84 163 400
f 101 154 71
f 110 127 109
f 104 111 126
f 100 120 112
f 120 106 398
f 134 110 97
f 97 116 134
f 89 128 116
f 90 128 89
f 111 141 143
f 83 117 142
f 106 120 100
f 131 398 102
f 113 81 169
f 117 104 126
f 123 130 108
f 120 123 112
f 102 121 131
f 400 154 101
f 121 113 132
f 76 155 135
f 128 98 107
f 122 83 142
f 105 122 142
f 119 105 142
f 114 140 138
f 114 115 124
f 127 115 109
f 110 134 127
f 116 118 134
f 116 128 118
f 398 136 120
f 121 132 131
f 81 114 169
f 114 138 169
f 125 133 155
f 134 118 150
f 142 117 126
f 394 136 398
f 118 128 150
f 128 107 139
f 120 130 123
f 136 147 120
f 158 71 154
f 113 169 146
f 133 144 145
f 115 150 149
f 115 127 150
f 139 107 119
f 126 111 152
f 137 158 144
f 114 124 140
f 119 142 156
f 394 398 131
f 71 158 137
f 124 115 140
f 152 111 143
f 134 150 127
f 150 128 196
f 139 119 156
f 201 199 141
f 146 132 113
f 160 129 135
f 160 201 129
f 152 143 148
f 120 163 130
f 159 115 187
f 115 173 178
f 173 115 149
f 143 141 151
f 153 163 120
f 115 178 187
f 135 155 166
f 151 141 199
f 148 143 161
f 136 164 147
f 394 131 397
f 154 400 390
f 140 115 186
f 196 128 139
f 145 182 133
f 133 171 155
f 161 143 151
f 148 162 152
f 394 175 136
f 146 198 132
f 186 115 159
f 162 148 161
f 120 147 153
f 157 152 162
f 390 400 163
f 175 164 136
f 393 175 394
f 131 132 397
f 154 217 158
f 169 138 176
f 164 153 147
f 140 186 138
f 149 170 173
f 179 157 162
f 152 157 179
f 149 150 170
f 161 151 172
f 142 126 152
f 164 165 168
f 164 175 165
f 146 169 176
f 158 194 144
f 194 182 144
f 144 182 145
f 133 182 171
f 183 151 199
f 172 167 161
f 167 162 161
f 159 177 186
f 139 156 181
f 179 162 167
f 153 189 163
f 153 164 189
f 168 189 164
f 139 181 196
f 172 179 167
f 163 174 390
f 189 188 163
f 132 198 223
f 171 182 218
f 152 179 142
f 390 174 202
f 188 174 163
f 180 189 168
f 165 180 168
f 132 185 397
f 138 186 176
f 159 187 177
f 179 172 208
f 189 180 184
f 175 193 165
f 175 393 193
f 142 181 156
f 172 151 208
f 132 223 185
f 176 198 146
f 188 197 174
f 165 184 180
f 390 200 154
f 194 212 182
f 135 166 160
f 206 183 199
f 151 183 207
f 190 188 189
f 154 200 217
f 158 271 194
f 155 171 166
f 208 151 207
f 179 208 142
f 190 189 184
f 193 184 165
f 187 178 195
f 201 267 199
f 173 195 178
f 150 196 192
f 190 197 188
f 187 195 191
f 181 203 196
f 227 181 142
f 213 208 207
f 142 208 204
f 158 217 271
f 176 246 198
f 201 160 232
f 142 204 227
f 197 205 174
f 271 212 194
f 186 177 237
f 203 192 196
f 174 209 202
f 205 209 174
f 193 190 184
f 186 246 176
f 201 232 267
f 207 183 222
f 204 208 213
f 193 216 190
f 198 246 223
f 173 170 195
f 170 192 235
f 170 150 192
f 206 199 221
f 183 206 242
f 222 183 242
f 210 190 211
f 209 205 214
f 202 245 390
f 202 209 214
f 215 205 197
f 190 210 197
f 216 211 190
f 393 216 193
f 200 262 217
f 195 170 258
f 171 240 166
f 221 199 267
f 233 206 221
f 224 213 207
f 214 205 215
f 396 216 393
f 396 393 397
f 215 219 214
f 219 215 197
f 186 237 246
f 187 191 177
f 170 235 258
f 207 222 224
f 204 213 224
f 214 219 228
f 210 219 197
f 397 185 274
f 223 243 185
f 182 247 218
f 221 220 233
f 214 245 202
f 397 274 257
f 185 243 274
f 195 226 191
f 216 230 211
f 212 247 182
f 203 181 192
f 221 267 225
f 206 233 241
f 228 245 214
f 230 210 211
f 234 216 231
f 262 200 390
f 220 221 225
f 222 238 224
f 216 234 230
f 233 220 225
f 242 206 241
f 238 222 242
f 204 224 284
f 210 230 229
f 210 228 219
f 210 229 251
f 396 231 216
f 237 177 320
f 227 204 259
f 228 210 251
f 246 239 223
f 252 240 171
f 234 231 236
f 271 277 212
f 218 252 171
f 192 181 248
f 251 229 230
f 234 236 230
f 396 236 231
f 217 262 271
f 273 267 232
f 225 267 255
f 223 239 243
f 269 225 255
f 241 233 244
f 224 238 284
f 242 249 238
f 236 251 230
f 244 233 225
f 259 204 284
f 191 226 177
f 218 247 252
f 235 192 268
f 192 266 268
f 248 181 227
f 255 267 276
f 249 242 256
f 284 238 249
f 242 241 256
f 265 250 228
f 228 251 265
f 265 251 253
f 260 253 251
f 160 279 232
f 241 244 256
f 227 259 248
f 228 250 245
f 261 260 251
f 236 261 251
f 396 254 236
f 252 272 240
f 192 303 266
f 235 268 258
f 264 256 244
f 390 392 262
f 237 320 239
f 275 160 166
f 254 261 236
f 239 246 237
f 279 160 275
f 244 225 263
f 244 263 264
f 390 245 392
f 260 265 253
f 177 226 320
f 166 240 275
f 232 279 273
f 264 263 256
f 280 392 245
f 260 290 265
f 212 277 247
f 267 273 276
f 225 269 287
f 265 280 250
f 252 247 272
f 262 281 271
f 298 256 263
f 250 280 245
f 274 288 257
f 262 286 289
f 271 281 277
f 192 248 278
f 297 269 255
f 263 225 298
f 257 288 399
f 262 392 286
f 277 301 247
f 247 308 272
f 298 225 287
f 249 256 278
f 254 399 261
f 270 243 239
f 247 301 308
f 320 226 381
f 272 282 240
f 240 294 275
f 262 289 281
f 268 266 381
f 240 283 294
f 297 287 269
f 278 256 298
f 259 284 248
f 290 391 265
f 301 277 281
f 240 282 283
f 266 303 325
f 275 294 279
f 297 255 276
f 381 258 268
f 308 282 272
f 294 295 279
f 279 295 273
f 297 276 273
f 284 249 278
f 280 265 391
f 285 290 399
f 392 299 286
f 299 289 286
f 281 289 292
f 300 281 292
f 281 300 301
f 301 306 308
f 306 315 308
f 315 293 308
f 283 282 294
f 391 299 392
f 299 305 289
f 305 292 289
f 270 239 329
f 301 311 306
f 306 314 315
f 293 322 308
f 308 323 282
f 304 295 294
f 295 296 273
f 291 290 285
f 291 285 399
f 290 317 391
f 288 274 319
f 305 318 292
f 243 270 310
f 292 318 300
f 239 320 329
f 301 348 311
f 336 302 311
f 311 302 306
f 337 315 314
f 315 321 293
f 322 293 307
f 316 381 266
f 282 323 294
f 324 326 294
f 326 304 294
f 295 304 343
f 296 295 343
f 296 297 273
f 391 327 299
f 310 274 243
f 328 301 300
f 302 336 330
f 302 312 306
f 322 331 308
f 386 303 192
f 332 304 326
f 332 360 304
f 284 278 248
f 291 309 290
f 299 327 305
f 305 327 318
f 319 274 310
f 328 348 301
f 351 315 337
f 293 338 307
f 323 324 294
f 297 296 333
f 309 317 290
f 399 309 291
f 317 327 391
f 327 334 318
f 335 349 311
f 349 336 311
f 302 330 312
f 306 312 374
f 381 313 320
f 306 350 314
f 351 321 315
f 293 321 353
f 307 339 322
f 331 340 308
f 340 323 308
f 323 340 324
f 192 278 386
f 332 326 341
f 343 333 296
f 287 297 333
f 346 318 334
f 318 328 300
f 348 335 311
f 373 374 312
f 350 306 374
f 266 325 316
f 324 359 326
f 326 359 341
f 342 343 304
f 298 287 333
f 344 395 309
f 309 395 317
f 399 344 309
f 399 288 344
f 365 328 318
f 320 313 329
f 336 369 330
f 350 337 314
f 352 321 351
f 321 352 353
f 353 338 293
f 338 355 307
f 307 355 339
f 331 322 339
f 339 357 331
f 340 331 357
f 341 360 332
f 342 304 360
f 387 333 343
f 395 345 317
f 345 327 317
f 327 345 334
f 365 318 346
f 328 365 348
f 366 335 348
f 367 336 349
f 369 336 367
f 330 373 312
f 374 376 350
f 337 350 378
f 337 378 351
f 316 325 356
f 340 359 324
f 360 341 359
f 342 387 343
f 298 333 387
f 345 395 344
f 288 319 344
f 334 345 362
f 362 363 334
f 346 334 363
f 319 310 347
f 363 365 346
f 364 365 363
f 365 366 348
f 366 349 335
f 367 349 366
f 368 369 367
f 369 370 330
f 330 370 373
f 377 350 376
f 378 380 351
f 380 352 351
f 352 382 353
f 383 353 381
f 383 338 353
f 383 355 338
f 383 354 355
f 381 316 354
f 355 384 339
f 354 384 355
f 384 357 339
f 384 356 357
f 356 385 357
f 385 340 357
f 340 386 359
f 358 325 386
f 386 325 303
f 386 360 359
f 360 361 342
f 386 361 360
f 361 386 278
f 342 361 387
f 278 298 387
f 344 362 345
f 344 319 347
f 344 347 362
f 362 347 363
f 270 347 310
f 347 270 363
f 363 270 364
f 270 329 364
f 329 313 364
f 364 366 365
f 313 388 364
f 364 388 366
f 388 313 389
f 388 389 366
f 389 367 366
f 389 313 367
f 367 313 368
f 313 370 368
f 313 372 370
f 370 371 373
f 370 372 371
f 373 371 374
f 371 372 375
f 371 375 374
f 374 375 376
f 375 372 376
f 372 377 376
f 350 377 378
f 377 372 378
f 379 378 372
f 378 379 380
f 372 380 379
f 372 381 380
f 380 382 352
f 380 381 382
f 381 353 382
f 381 354 383
f 354 356 384
f 356 354 316
f 356 325 385
f 358 385 325
f 385 358 340
f 358 386 340
f 387 361 278
f 370 369 368
f 391 392 280
f 114 86 95
f 394 397 393
f 397 257 396
f 257 254 396
f 399 254 257
f 128 90 98
f 98 90 91
f 381 372 313
f 106 102 398
f 226 195 258
f 258 381 226
f 290 260 261
f 261 399 290

