#Obj File : Exported From RapidForm (INUS Technology Co. Ltd.)

mtllib ChoppedTomatoes_800.mtl

v 6.039897 68.779900 -37.909035
v 12.157327 69.509735 -36.628979
v 4.695783 -37.200775 -37.773788
v 4.249499 29.787857 -37.112125
v -0.047256 64.845665 -37.029411
v -2.514434 69.419411 -37.821754
v 5.203953 -37.496796 -36.724735
v 12.383348 -37.085262 -36.288082
v 7.756923 3.660358 -36.582535
v 0.564195 8.470328 -37.007984
v 9.376930 20.531101 -36.486473
v 10.836843 30.380367 -36.282803
v 9.609541 33.277000 -36.146416
v 2.446671 48.422268 -37.413807
v 6.911973 53.089264 -36.985973
v 10.701098 65.272339 -35.891842
v -2.597761 -37.406361 -37.506264
v -4.633344 -37.539360 -36.375317
v 2.171171 -33.948853 -37.158985
v 12.593704 -32.899342 -35.508766
v 1.578425 0.546703 -37.106243
v -5.448724 3.448490 -35.915623
v 9.840304 11.277798 -36.302090
v 1.127479 16.117794 -37.035786
v 1.832491 22.145557 -37.181778
v 14.653958 24.740225 -34.884293
v 2.075534 44.494389 -37.136074
v 15.569040 43.214317 -34.446701
v -0.795266 68.356285 -36.052498
v 18.666281 66.316368 -33.074905
v 18.321117 69.677704 -34.189579
v -5.836349 70.007751 -36.418648
v -0.131944 69.798660 -36.928726
v 3.140762 -35.838905 -35.579659
v -10.032971 -35.836494 -33.525322
v -5.661868 11.958116 -36.178238
v 15.313682 4.181836 -34.657955
v -5.348273 22.599684 -36.405552
v -8.435882 59.802017 -35.569344
v 8.564248 68.048615 -35.402172
v 4.965278 70.116730 -36.933971
v -10.133221 69.487000 -36.426743
v -15.550461 -37.536175 -32.587082
v -12.271173 -37.243069 -35.024460
v -2.872164 31.462885 -36.750332
v -8.540265 44.947575 -35.410126
v -7.739691 67.930824 -34.532909
v -7.287513 -33.870758 -35.786114
v -6.800487 -2.438398 -35.983734
v 19.273691 -37.300049 -33.030663
v -4.848578 39.224533 -36.560081
v -11.602668 41.689034 -34.724354
v -8.676698 48.794346 -36.066914
v 23.726141 69.750816 -31.072666
v -12.270061 -20.241762 -33.991577
v -10.259735 33.329525 -35.107262
v -16.902922 48.750942 -32.157597
v -11.430034 69.969116 -34.654064
v 24.857870 -36.706192 -29.618298
v -13.333052 3.170955 -33.543804
v -12.534887 13.435962 -34.041584
v -13.118452 22.147463 -33.775467
v -16.283907 31.292643 -32.207432
v -17.172409 60.663387 -31.564785
v -11.423495 66.476212 -34.761063
v 20.220633 68.509712 -30.091202
v -19.212658 -37.076530 -31.287586
v 24.371971 64.827110 -29.631920
v 19.470610 70.052269 -32.032532
v -15.964808 70.389130 -32.656925
v 23.965876 70.480003 -29.753878
v 18.022999 -35.805092 -31.609558
v -17.137846 67.784264 -29.484711
v 22.669609 -35.072983 -23.791883
v -20.625692 42.028584 -29.497105
v 29.443489 69.704285 -26.134598
v -16.616011 -33.813911 -31.897364
v -19.595364 1.327569 -30.024771
v -16.939037 37.402111 -32.010529
v 21.729790 67.371078 -23.470152
v -17.675518 9.814484 -31.368151
v -22.222179 31.169197 -28.160879
v 29.899866 -8.415629 -24.739292
v -22.775856 50.295868 -28.014591
v -20.420200 70.072853 -29.558876
v 31.711535 -36.135571 -22.908592
v -22.108562 16.268684 -28.285669
v -26.825113 69.182007 -25.025436
v 27.661966 70.536476 -26.507483
v 31.907196 -37.324478 -22.016302
v -14.320821 67.994385 -27.135731
v 31.996958 65.492645 -21.878870
v -24.649406 -37.031242 -26.621147
v -25.776905 -34.961601 -24.437967
v -21.266083 22.696337 -29.103676
v 33.393486 69.683044 -21.040581
v -28.389103 -37.584404 -21.317759
v -7.945102 -34.219730 -19.277863
v -24.838491 8.451295 -25.652365
v -26.925911 52.367313 -23.575991
v -27.449408 67.838966 -20.565294
v 31.039553 70.491058 -22.384848
v -7.519370 -35.054642 -29.623104
v -19.313107 67.095718 -20.517424
v -27.984367 70.234184 -21.888124
v 36.678753 -36.995110 -15.575460
v -23.749296 -35.771938 -24.104881
v -26.418810 -6.633128 -23.793653
v 30.222443 68.216583 -21.607248
v -26.286673 70.187912 -24.925756
v -25.864523 3.034625 -24.170063
v -26.985851 23.288204 -22.734423
v -30.204893 -35.453178 -13.132982
v 33.677147 70.385628 -18.417135
v -28.256857 16.404325 -21.420267
v -32.213287 -37.105831 -15.625504
v 36.735352 -33.667049 -13.458572
v -31.511747 -33.822407 -15.464865
v -31.023151 8.538501 -16.263109
v -27.362219 27.466908 -22.930180
v -29.113100 32.332417 -20.077398
v -28.670473 65.944466 -21.457998
v 34.486519 68.233971 -13.758637
v 30.397671 -35.761566 -21.741920
v 35.507282 6.974000 -15.934397
v -6.412357 67.036377 -28.730909
v -21.137674 67.756729 -21.772223
v -32.969528 70.276871 -12.615464
v 36.047085 70.666542 -14.088712
v -31.365093 69.615517 -18.434019
v 36.616978 -37.415051 -13.680642
v -30.950357 23.710939 -16.603212
v 35.895557 -14.548471 -15.445715
v -31.723145 46.702297 -15.560729
v 39.592587 -37.025131 -6.087685
v -31.117020 1.440483 -16.105679
v 38.138252 6.095262 -8.654509
v -33.286942 32.394978 -11.671012
v -34.200184 65.094284 -8.902102
v 37.167900 69.983177 -13.792728
v -31.649014 16.093212 -15.215426
v 37.149399 65.950699 -11.139199
v -30.105268 38.898827 -18.651234
v 18.446537 66.738106 -6.287093
v -33.543144 16.153568 -9.454871
v -33.628311 24.335516 -9.932409
v 39.003071 18.262583 -2.320848
v -32.523117 68.019119 -9.555242
v 37.651215 70.366951 -8.639245
v -34.273659 45.919121 -7.509469
v -28.095598 67.493599 -8.192520
v 39.498817 70.078232 -5.038416
v 39.149406 -37.329407 -4.827259
v 39.291119 -33.406487 -3.004898
v 36.560154 -35.699249 -7.951371
v 38.575607 37.280201 -5.176293
v 38.398067 66.528625 -4.590406
v -34.442314 -36.353981 -7.387417
v -35.935135 68.807396 -4.873443
v -33.467934 -35.568676 -0.704382
v 39.097233 -21.044338 -4.125513
v -34.441376 14.424041 -3.348808
v 22.208952 -34.486439 -14.594906
v 37.387558 68.973351 -2.613674
v -34.676929 69.629028 -10.419254
v -35.147221 -36.003441 -1.749830
v -34.514889 -36.906288 -2.576253
v -34.000877 -19.938824 -6.291644
v 39.145092 4.980788 -0.558993
v -1.729369 66.959282 -4.386951
v 38.602047 66.901054 3.457980
v 38.873402 70.669312 2.336880
v -35.224621 17.249582 -0.524356
v -34.720879 55.095486 -5.231977
v -34.716267 0.554270 -1.768433
v 14.297427 66.863091 8.765370
v -33.177769 68.211487 -0.607696
v -35.110214 70.302010 -4.316539
v -9.968351 67.748367 0.805273
v 31.701603 67.527962 -4.647839
v -35.058346 70.417297 1.635242
v 39.043369 -37.055882 5.797279
v -34.957508 42.811253 -2.216518
v -27.972931 67.321114 0.273039
v -33.001873 68.583115 1.162973
v -33.083439 69.532166 -0.748315
v -34.658180 42.696037 5.534583
v 39.152260 70.057076 6.976807
v 38.605671 47.238869 4.808426
v -7.870127 67.176262 4.860346
v 35.224358 68.436577 11.634072
v 38.682854 0.973362 6.009263
v -35.067631 65.962708 3.399645
v -32.505009 68.144989 9.310802
v -34.555458 -33.438351 -2.262766
v -34.566906 -8.637125 2.998008
v 38.222172 11.569695 7.580658
v 1.424020 67.685242 4.876919
v -34.219814 2.455272 5.160250
v -34.911957 50.153263 2.660494
v -34.611038 36.984699 4.336526
v 37.688004 38.433781 9.083213
v 36.754147 66.437325 11.566922
v -36.162441 69.588478 4.063386
v 37.754780 -32.819260 10.918779
v -3.194942 67.753654 8.151970
v -34.061302 -37.147499 6.041601
v -10.898104 67.544426 11.423664
v -34.437683 69.969139 7.197825
v -34.262646 32.283848 7.460792
v 36.661804 41.840412 13.233344
v -33.844563 50.704086 9.460132
v -17.204584 67.141449 3.681215
v -14.522079 68.637619 8.953621
v 36.075996 49.517849 14.120189
v 37.236736 70.150459 13.903117
v 38.139107 -37.131435 12.144569
v -32.485283 66.078255 14.004455
v -1.885772 67.116714 12.242900
v -32.010971 -37.326645 13.702621
v -32.155052 -33.440559 12.887108
v 22.180052 -34.482742 14.983549
v 34.897976 31.492195 17.077412
v -6.004766 68.426079 13.389742
v 37.388870 70.577827 9.757528
v 36.857628 -35.495869 6.406366
v 35.443531 -32.846825 16.653442
v 36.062714 27.994289 14.292772
v 33.173077 37.912483 19.275024
v 7.463072 67.873466 8.637016
v 33.911488 66.012627 18.123367
v -30.473944 68.244614 14.487105
v -31.680185 70.170578 15.959501
v -32.579086 -13.983346 11.686975
v -24.379700 67.578522 13.672446
v 34.968975 70.536804 17.004707
v -30.846224 7.539223 16.043659
v 36.831753 7.013648 12.643421
v 33.131336 23.880692 20.030602
v -33.865707 69.293045 13.510698
v -20.726107 69.008949 20.644772
v 33.657860 69.926353 20.615326
v 36.580017 -37.210312 13.938217
v -32.937653 1.545009 10.908229
v -31.147953 3.462134 16.281956
v -31.957800 30.471481 14.236279
v -32.913254 39.196167 12.201229
v -27.716299 68.653137 18.371597
v 4.968771 68.017357 13.739980
v -31.640919 14.837471 15.057589
v 30.974825 42.761250 22.759396
v 33.857529 -37.276173 20.538347
v -32.165451 -4.081850 13.736115
v -26.912279 2.036610 22.939209
v -27.306536 25.007624 22.171106
v -31.346300 54.393219 15.884162
v 29.032364 67.720581 14.788155
v 30.264187 -32.947632 24.259768
v -32.077908 22.916460 14.090475
v 32.862206 53.185513 20.092930
v 28.201365 29.245216 25.605637
v 33.430923 45.794697 19.996712
v 0.153613 67.874680 27.980913
v 8.607788 -34.862064 31.104767
v -29.589037 20.819954 18.264753
v 29.861843 32.423153 24.278404
v -29.966059 43.476021 18.565119
v 8.394452 66.980232 18.217127
v -30.056025 26.161301 17.993587
v 29.235874 65.478989 24.431976
v 28.904520 -35.605556 23.294048
v -6.716110 -34.292191 22.710646
v -27.387590 -4.308962 22.254848
v -28.432596 11.201291 20.546989
v 26.445705 14.833196 28.034103
v 28.425915 37.241241 25.490643
v 29.096531 45.304176 25.264925
v -14.929325 68.510246 25.385035
v -29.428379 70.141396 20.381306
v 32.342293 70.666412 20.550055
v -28.982742 -35.478573 16.868504
v -29.138441 16.862682 20.065836
v 26.880230 24.528605 27.858601
v -26.940035 48.385963 22.793861
v 4.821158 67.558952 29.037413
v -29.057451 -10.291428 19.432421
v -23.100801 15.868167 27.059723
v 32.734524 13.500389 20.629986
v -28.028021 35.354340 21.316553
v 25.340141 32.131012 28.778990
v 24.080387 58.912502 29.284250
v -6.344199 68.639473 17.727468
v -26.281914 -32.822994 23.002344
v 26.073795 6.978509 28.274605
v -25.285213 70.648407 23.080830
v 28.869753 68.406052 22.468369
v 28.821850 69.789139 26.631479
v -26.551086 65.876266 23.387897
v -23.099663 70.061913 27.287178
v -25.519585 -36.929897 23.986969
v -19.934311 -36.595356 29.535179
v -17.504719 -34.891621 24.465208
v 18.483648 28.671444 33.121826
v 20.403685 66.366119 31.834488
v -22.882103 -8.508405 26.811256
v 24.109921 -26.961342 29.870852
v 16.287809 15.940401 34.174030
v -23.176600 38.598557 26.717482
v 23.859095 42.995216 29.825411
v -19.162258 69.501678 27.904669
v -19.545753 -35.411720 27.707226
v 12.464934 -35.473721 34.220524
v -18.937788 4.117126 30.120758
v -23.449488 20.525490 26.214506
v 24.475321 17.405504 29.034468
v 16.525328 67.564774 25.723166
v 26.147854 70.602417 27.755192
v 22.784931 69.965782 31.450548
v 27.437534 -36.677147 28.223457
v -24.076799 9.344525 25.801445
v -5.344994 68.728455 25.837559
v -10.965075 69.721054 33.152176
v 21.032700 -37.180134 32.554798
v 20.446688 37.887783 31.699368
v -19.870678 66.798790 29.679369
v -26.089466 69.555824 26.432501
v -16.455912 70.411598 32.198608
v 16.476969 69.881775 34.917633
v -11.660664 -35.439915 32.561680
v -16.425047 -9.390644 31.839939
v 16.733330 -32.332787 34.102505
v 17.461149 42.430580 33.632912
v 11.130364 42.808380 35.892056
v 19.484438 68.703636 30.586878
v 10.325225 -36.862389 36.062836
v 14.169964 31.500301 35.014908
v 14.161881 63.280441 34.689526
v -5.381556 68.020798 33.567127
v 17.397186 70.554276 33.192402
v 7.946824 -33.348675 36.482548
v -15.793135 50.706860 32.696171
v -16.304600 69.416191 33.208382
v 0.686314 68.303970 35.561516
v -1.280806 -35.632431 35.511219
v 6.998322 -14.719159 36.920578
v -10.573005 2.545082 34.729359
v 15.966886 -9.216041 34.564507
v 4.783631 9.908791 36.843525
v 4.568124 40.712448 36.928551
v -11.793051 69.884377 35.135777
v 7.585774 66.709442 36.498657
v 6.967492 68.343956 35.396690
v 11.588907 70.035347 36.503971
v 4.471834 -37.290730 36.891689
v 9.966373 -36.451942 36.824795
v -10.081780 -20.814026 35.122971
v -7.994683 18.343119 35.424957
v -5.915931 45.638309 36.250710
v -9.297060 66.199402 35.097866
v -5.812481 69.466003 37.059582
v 1.204253 68.132568 36.974525
v 8.737913 70.166550 36.378349
v -7.106156 70.498260 35.901852
v 5.114427 69.936676 37.066055
v -2.385745 -35.916077 36.972359
v -3.486234 -18.076168 36.551682
v -1.380117 14.619605 36.867428
v -0.691402 70.306580 36.715702
v -33.596947 19.191675 8.827760
v -33.877338 29.867912 -12.118118
v -34.512455 19.079206 -5.021513
v -34.497852 34.950916 -5.865871
v -33.867004 5.474941 1.912917
v -35.213371 28.333578 1.597225
v -34.662945 22.154348 0.500250
v -34.718388 11.871409 -6.181276
v -33.773483 14.813329 3.387067
v -32.933849 3.308942 -11.285181
v -21.869246 -37.601181 -28.354210
v -15.163139 19.196218 32.604752
v 38.494892 10.784979 -5.702830
v 36.569542 16.227768 -14.365704
v 34.746265 31.961817 -17.250580
v -19.423660 69.358177 -31.924427
v -11.148576 -37.107079 34.154480
v -33.424934 40.383602 -10.928049
v -33.033573 -37.125088 -10.383562
v -17.672134 66.634293 -5.953365
v -2.738651 66.371994 -13.607000
v -22.068890 -34.472538 10.476216
v -15.926310 -36.402523 32.980717
v -29.786863 -36.767082 19.682892
v -24.169552 -36.241444 26.368803
v -34.942623 -36.455341 4.205422
v -33.357891 -36.331638 11.789542
v -10.292366 -37.122841 35.094582
v 4.416527 70.066582 -37.766426
v -0.520003 68.955795 19.744207
v -21.643515 68.951317 26.459038
v -21.447765 66.770119 -28.865770
v -12.348208 68.187370 -30.890287
v 14.530085 70.341095 -34.764107

g scan0_and_scan0_and_scan300_and_scan240_and_scan180_and_scan120_and_scan60_and_scan0
usemtl scan0_and_scan0_and_scan300_and_scan240_and_scan180_and_scan120_and_scan60_and_scan0
s

f 1 6 397
f 5 6 1
f 2 5 1
f 2 1 397
f 3 7 17
f 3 8 7
f 3 17 19
f 20 8 3
f 19 21 9
f 10 23 9
f 24 10 36
f 23 10 24
f 11 24 25
f 26 25 4
f 4 12 26
f 13 4 45
f 12 4 13
f 13 45 27
f 46 27 51
f 13 27 15
f 27 53 14
f 14 15 27
f 53 5 14
f 14 5 15
f 53 39 5
f 16 15 5
f 5 2 16
f 6 5 42
f 42 32 6
f 33 6 32
f 2 397 41
f 44 17 18
f 7 18 17
f 8 50 7
f 18 7 34
f 17 44 48
f 17 48 19
f 3 19 20
f 19 9 20
f 49 21 19
f 22 9 21
f 9 22 10
f 22 36 10
f 23 37 9
f 11 23 24
f 38 25 36
f 36 25 24
f 25 38 4
f 11 25 26
f 4 38 45
f 13 26 12
f 51 45 56
f 45 51 27
f 13 15 28
f 27 46 53
f 5 65 42
f 29 32 47
f 29 40 41
f 33 32 29
f 2 41 402
f 2 402 30
f 30 402 31
f 50 34 7
f 35 18 34
f 48 49 19
f 20 9 37
f 21 49 22
f 37 23 26
f 23 11 26
f 51 52 46
f 15 16 28
f 16 30 28
f 39 65 5
f 40 29 47
f 16 2 30
f 40 402 41
f 47 32 58
f 32 42 58
f 43 44 18
f 35 43 18
f 72 34 50
f 8 20 50
f 49 48 55
f 20 37 50
f 49 60 22
f 22 60 36
f 60 61 36
f 36 61 38
f 38 62 56
f 45 38 56
f 26 13 28
f 70 42 384
f 77 48 44
f 77 55 48
f 26 50 37
f 38 61 62
f 28 68 26
f 56 79 51
f 57 53 46
f 53 64 39
f 40 66 402
f 42 70 58
f 31 402 69
f 54 31 69
f 60 49 55
f 50 26 68
f 56 62 63
f 51 79 52
f 46 52 57
f 68 28 30
f 57 64 53
f 64 65 39
f 40 47 126
f 54 30 31
f 69 71 54
f 67 44 43
f 67 77 44
f 34 103 35
f 55 78 60
f 61 60 81
f 63 79 56
f 57 52 75
f 40 126 80
f 80 66 40
f 74 34 72
f 103 34 74
f 55 77 78
f 59 50 68
f 81 60 78
f 61 87 62
f 52 79 75
f 400 65 64
f 30 54 68
f 61 81 87
f 63 62 95
f 126 47 401
f 69 66 71
f 124 72 50
f 59 68 83
f 95 62 87
f 64 57 84
f 70 384 85
f 63 95 82
f 79 63 82
f 79 82 75
f 57 75 84
f 126 401 91
f 71 66 89
f 54 71 89
f 54 89 76
f 379 93 67
f 87 81 99
f 91 401 73
f 68 54 76
f 90 50 59
f 107 379 43
f 43 35 107
f 93 94 67
f 94 77 67
f 83 86 59
f 78 99 81
f 68 76 92
f 85 88 110
f 86 90 59
f 124 50 90
f 78 77 94
f 83 68 92
f 64 84 100
f 389 80 126
f 66 109 89
f 72 124 74
f 108 78 94
f 99 78 111
f 82 95 120
f 82 100 75
f 100 84 75
f 400 64 100
f 127 91 73
f 35 103 107
f 163 98 103
f 108 111 78
f 112 120 95
f 109 66 80
f 89 109 102
f 85 110 105
f 102 96 89
f 76 89 96
f 74 163 103
f 99 115 87
f 91 104 126
f 93 379 97
f 379 107 97
f 87 115 95
f 92 383 83
f 82 120 121
f 91 127 104
f 95 115 112
f 100 122 400
f 144 80 389
f 94 93 97
f 83 133 86
f 121 100 82
f 121 143 100
f 122 88 400
f 127 73 101
f 106 90 86
f 83 383 382
f 96 102 114
f 111 108 136
f 109 114 102
f 88 105 110
f 94 118 108
f 88 130 105
f 94 97 116
f 103 113 107
f 125 133 83
f 115 132 112
f 100 134 122
f 130 88 122
f 90 106 131
f 97 107 113
f 94 116 118
f 106 86 117
f 108 118 136
f 382 125 83
f 99 119 115
f 140 92 96
f 123 114 109
f 124 155 74
f 86 133 117
f 119 111 136
f 99 111 119
f 141 132 115
f 112 132 120
f 143 134 100
f 383 92 142
f 92 140 142
f 130 128 105
f 96 114 129
f 96 129 140
f 97 113 116
f 124 90 131
f 113 103 98
f 123 109 80
f 130 122 139
f 126 104 184
f 114 123 129
f 143 386 134
f 139 122 134
f 123 80 180
f 141 146 132
f 127 101 151
f 127 151 104
f 101 105 128
f 130 165 128
f 124 131 155
f 133 125 137
f 136 378 119
f 119 378 141
f 141 115 119
f 138 143 121
f 126 388 389
f 130 139 165
f 101 128 148
f 135 131 106
f 153 155 131
f 381 137 125
f 129 123 164
f 129 164 149
f 113 387 116
f 390 113 98
f 135 106 117
f 133 161 117
f 141 145 146
f 184 388 126
f 140 152 142
f 129 149 140
f 136 168 378
f 143 372 386
f 134 174 139
f 135 153 131
f 138 372 143
f 386 150 134
f 80 144 180
f 140 149 152
f 168 136 118
f 133 137 161
f 101 148 151
f 158 118 116
f 154 135 117
f 117 161 154
f 104 151 184
f 142 152 157
f 387 113 160
f 155 226 74
f 381 382 147
f 145 371 146
f 156 147 382
f 150 174 134
f 164 123 180
f 386 183 150
f 142 157 156
f 144 389 176
f 165 139 159
f 149 172 152
f 195 168 118
f 148 128 178
f 149 164 172
f 226 163 74
f 137 169 161
f 137 381 169
f 162 145 376
f 151 148 184
f 178 128 165
f 387 160 167
f 158 195 118
f 145 162 173
f 145 173 371
f 168 175 378
f 373 378 175
f 156 157 189
f 165 159 178
f 183 174 150
f 170 388 179
f 148 178 177
f 157 152 171
f 155 153 226
f 195 158 166
f 157 171 189
f 168 195 196
f 168 196 175
f 381 147 197
f 148 177 184
f 171 152 188
f 178 186 177
f 159 204 178
f 152 172 188
f 390 160 113
f 163 222 98
f 161 182 154
f 161 169 182
f 169 381 197
f 156 189 147
f 179 230 170
f 181 186 178
f 153 182 226
f 175 199 373
f 174 200 193
f 139 174 193
f 139 193 159
f 185 177 186
f 204 181 178
f 135 182 153
f 154 182 135
f 183 200 174
f 198 179 190
f 176 170 230
f 180 144 257
f 185 184 177
f 182 169 192
f 201 183 372
f 183 201 187
f 179 388 213
f 230 179 198
f 160 207 167
f 226 222 163
f 175 196 199
f 162 377 173
f 147 189 197
f 388 184 213
f 159 193 204
f 185 186 181
f 225 188 172
f 169 197 192
f 183 187 200
f 200 212 193
f 225 172 191
f 166 394 195
f 205 182 192
f 185 194 184
f 213 214 179
f 185 209 194
f 204 209 181
f 181 209 185
f 221 195 394
f 196 195 221
f 197 238 192
f 189 202 197
f 164 180 257
f 203 171 188
f 253 199 196
f 201 247 187
f 189 171 203
f 179 208 190
f 198 190 206
f 390 281 160
f 221 234 196
f 213 184 235
f 206 190 219
f 230 198 219
f 184 194 235
f 179 214 208
f 164 257 191
f 98 272 390
f 200 187 212
f 219 190 208
f 235 214 213
f 198 206 219
f 217 226 182
f 205 217 182
f 281 207 160
f 211 202 189
f 189 203 215
f 193 212 218
f 204 193 240
f 217 243 226
f 394 395 221
f 192 238 205
f 197 202 228
f 188 216 203
f 209 204 240
f 222 272 98
f 244 199 253
f 218 240 193
f 235 194 232
f 219 249 230
f 188 225 216
f 238 197 228
f 201 210 247
f 267 212 187
f 189 215 211
f 214 235 241
f 220 207 281
f 205 238 227
f 267 187 247
f 224 219 208
f 196 234 286
f 223 228 202
f 203 231 215
f 257 144 176
f 194 209 232
f 226 271 222
f 202 229 223
f 211 215 262
f 176 230 268
f 203 216 231
f 208 214 292
f 233 209 240
f 209 233 232
f 280 236 225
f 225 236 216
f 286 253 196
f 227 238 288
f 259 369 265
f 247 210 246
f 202 211 229
f 219 224 292
f 292 214 241
f 191 280 225
f 217 205 227
f 244 245 237
f 369 250 265
f 246 259 269
f 212 267 256
f 218 212 256
f 191 257 296
f 208 292 224
f 271 226 243
f 221 395 392
f 229 211 251
f 211 262 251
f 215 231 260
f 257 176 268
f 248 235 232
f 398 219 292
f 249 219 398
f 230 249 268
f 231 216 242
f 236 242 216
f 252 217 227
f 238 228 239
f 244 253 254
f 244 254 245
f 274 250 237
f 282 265 250
f 289 247 246
f 243 217 252
f 281 300 220
f 243 252 271
f 234 221 286
f 259 255 269
f 223 239 228
f 267 247 289
f 262 215 277
f 257 268 316
f 240 218 326
f 249 398 268
f 191 296 280
f 220 300 392
f 258 227 288
f 273 253 286
f 238 239 288
f 215 260 277
f 284 218 256
f 260 231 270
f 292 241 278
f 233 279 248
f 240 279 233
f 302 281 390
f 253 273 254
f 326 218 298
f 280 242 236
f 221 392 293
f 239 283 288
f 259 265 255
f 223 229 266
f 398 263 268
f 326 279 240
f 271 264 222
f 252 227 258
f 221 293 286
f 289 246 269
f 251 262 277
f 267 284 256
f 260 270 277
f 284 298 218
f 316 268 285
f 231 242 297
f 245 254 237
f 261 239 223
f 276 266 229
f 289 308 267
f 229 251 276
f 268 263 285
f 242 280 297
f 319 252 258
f 302 390 272
f 288 294 258
f 282 250 287
f 314 255 265
f 283 239 261
f 289 269 255
f 266 261 223
f 272 222 264
f 254 320 237
f 250 274 287
f 282 314 265
f 287 314 282
f 284 267 308
f 291 277 270
f 270 231 297
f 296 317 280
f 326 295 279
f 258 294 306
f 286 305 273
f 320 274 237
f 274 320 287
f 288 275 294
f 266 276 290
f 317 297 280
f 271 252 323
f 308 289 255
f 392 393 293
f 302 311 281
f 293 305 286
f 275 288 315
f 290 261 266
f 309 276 251
f 241 310 278
f 316 334 257
f 296 257 334
f 300 281 311
f 308 255 314
f 309 251 277
f 298 284 308
f 325 298 308
f 304 291 270
f 317 296 334
f 295 326 299
f 319 323 252
f 300 311 301
f 264 302 272
f 301 305 293
f 254 273 305
f 261 290 303
f 290 276 324
f 309 324 276
f 270 297 304
f 393 301 293
f 305 313 254
f 313 320 254
f 283 307 315
f 283 261 303
f 309 277 291
f 298 325 326
f 399 299 310
f 278 322 321
f 323 258 306
f 305 301 330
f 318 304 297
f 278 310 322
f 297 317 318
f 271 323 312
f 323 319 258
f 329 311 302
f 271 312 264
f 380 314 287
f 285 352 316
f 316 352 334
f 339 317 334
f 318 317 339
f 323 306 331
f 306 294 347
f 313 305 330
f 275 307 294
f 290 336 303
f 341 325 308
f 310 299 327
f 322 310 327
f 301 311 329
f 264 329 302
f 313 380 320
f 287 320 380
f 315 307 275
f 303 307 283
f 314 380 308
f 324 336 290
f 332 324 309
f 325 342 326
f 327 299 326
f 344 329 264
f 330 301 391
f 347 331 306
f 347 294 307
f 380 341 308
f 309 291 332
f 291 304 337
f 285 263 352
f 304 318 328
f 342 327 326
f 318 339 328
f 332 291 337
f 325 341 342
f 385 391 301
f 312 323 335
f 312 344 264
f 330 346 313
f 324 332 336
f 332 337 333
f 337 304 351
f 328 351 304
f 352 263 343
f 385 329 396
f 331 355 323
f 391 356 330
f 330 356 346
f 307 303 336
f 380 357 341
f 359 342 341
f 362 339 352
f 334 352 339
f 327 342 350
f 350 322 327
f 322 350 363
f 323 355 335
f 396 329 344
f 340 355 331
f 396 356 391
f 345 331 347
f 367 357 380
f 357 358 341
f 333 349 332
f 333 337 351
f 358 359 341
f 359 350 342
f 328 353 351
f 338 322 363
f 362 353 339
f 328 339 353
f 365 396 344
f 354 344 312
f 335 354 312
f 331 345 340
f 346 356 366
f 347 307 348
f 307 336 348
f 348 336 349
f 349 336 332
f 358 361 359
f 360 350 359
f 343 338 368
f 343 368 352
f 338 363 368
f 352 368 364
f 354 365 344
f 335 355 354
f 396 365 356
f 365 366 356
f 366 367 346
f 347 348 345
f 348 349 367
f 357 367 358
f 349 358 367
f 333 351 349
f 349 361 358
f 349 351 361
f 359 361 360
f 361 351 364
f 351 353 362
f 360 363 350
f 365 355 340
f 340 345 365
f 345 366 365
f 366 345 367
f 348 367 345
f 363 360 368
f 361 368 360
f 315 288 283
f 92 76 96
f 121 370 138
f 370 120 132
f 374 210 201
f 376 141 378
f 374 201 372
f 377 375 173
f 250 369 244
f 210 259 246
f 120 370 121
f 210 369 259
f 145 141 376
f 250 244 237
f 244 369 199
f 369 210 374
f 370 132 146
f 375 374 371
f 374 375 369
f 373 369 377
f 369 375 377
f 370 146 374
f 138 370 372
f 377 162 373
f 376 373 162
f 199 369 373
f 146 371 374
f 373 376 378
f 370 374 372
f 371 173 375
f 67 43 379
f 380 346 367
f 346 380 313
f 85 384 88
f 381 125 382
f 156 383 142
f 383 156 382
f 301 329 385
f 372 183 386
f 116 387 158
f 364 368 361
f 388 170 389
f 394 207 395
f 207 220 395
f 387 167 158
f 166 158 167
f 394 166 167
f 394 167 207
f 393 300 301
f 396 391 385
f 392 300 393
f 392 395 220
f 354 355 365
f 41 397 33
f 6 33 397
f 29 41 33
f 389 170 176
f 338 343 263
f 321 322 338
f 398 292 321
f 398 321 263
f 338 263 321
f 321 292 278
f 299 399 295
f 399 241 295
f 248 279 241
f 310 241 399
f 295 241 279
f 233 248 232
f 241 235 248
f 351 362 352
f 351 352 364
f 65 384 42
f 400 88 384
f 400 384 65
f 58 70 401
f 401 47 58
f 73 401 70
f 85 73 70
f 85 105 101
f 73 85 101
f 69 402 66
f 191 172 164

